lab_02/simulation/qsim/lab_02.msim.vcd
$comment
	File created using the following command:
		vcd file lab_02.msim.vcd -direction
$end
$date
	Thu Sep 21 21:18:13 2023
$end
$version
	ModelSim Version 10.5b
$end
$timescale
	1ps
$end

$scope module lab_02_vhd_vec_tst $end
$var wire 1 ! pin_name1 $end
$var wire 1 " pin_name2 $end
$var wire 1 # pin_name3 $end
$var wire 1 $ pin_name4 $end
$var wire 1 % pin_name5 $end

$scope module i1 $end
$var wire 1 & gnd $end
$var wire 1 ' vcc $end
$var wire 1 ( unknown $end
$var wire 1 ) devoe $end
$var wire 1 * devclrn $end
$var wire 1 + devpor $end
$var wire 1 , ww_devoe $end
$var wire 1 - ww_devclrn $end
$var wire 1 . ww_devpor $end
$var wire 1 / ww_pin_name2 $end
$var wire 1 0 ww_pin_name1 $end
$var wire 1 1 ww_pin_name3 $end
$var wire 1 2 ww_pin_name4 $end
$var wire 1 3 ww_pin_name5 $end
$var wire 1 4 \pin_name2~output_o\ $end
$var wire 1 5 \pin_name3~output_o\ $end
$var wire 1 6 \pin_name4~output_o\ $end
$var wire 1 7 \pin_name5~output_o\ $end
$var wire 1 8 \pin_name1~input_o\ $end
$var wire 1 9 \inst~0_combout\ $end
$var wire 1 : \inst3~0_combout\ $end
$var wire 1 ; \inst3~feeder_combout\ $end
$var wire 1 < \inst3~q\ $end
$var wire 1 = \inst4~0_combout\ $end
$var wire 1 > \inst4~feeder_combout\ $end
$var wire 1 ? \inst4~q\ $end
$var wire 1 @ \inst5~0_combout\ $end
$var wire 1 A \inst5~q\ $end
$var wire 1 B \inst7~combout\ $end
$var wire 1 C \inst2~feeder_combout\ $end
$var wire 1 D \inst8~0_combout\ $end
$var wire 1 E \inst2~q\ $end
$var wire 1 F \inst~q\ $end
$var wire 1 G \ALT_INV_inst8~0_combout\ $end
$var wire 1 H \ALT_INV_inst2~q\ $end
$var wire 1 I \ALT_INV_inst4~q\ $end
$var wire 1 J \ALT_INV_inst3~q\ $end
$var wire 1 K \ALT_INV_inst~q\ $end
$var wire 1 L \ALT_INV_pin_name1~input_o\ $end
$upscope $end
$upscope $end
$enddefinitions $end
#0
$dumpvars
0!
0"
0#
0$
0%
0&
1'
x(
1)
1*
1+
1,
1-
1.
0/
00
01
02
03
04
05
06
07
x8
x9
x:
x;
0<
x=
x>
0?
1@
0A
xB
1C
xD
0E
0F
xG
1H
1I
1J
1K
xL
$end
#549
0B
#681
08
1L
#856
1=
#934
1:
#1092
1D
0G
#1561
1>
#1808
1;
#2223
19
#10000
1!
10
#10507
18
0L
#20000
0!
00
#20681
08
1L
#22759
1F
0K
#23438
0D
1G
#24905
09
#26871
14
1/
1"
#30000
1!
10
#30507
18
0L
#40000
0!
00
#40681
08
1L
#42759
0F
1K
#43509
1D
0G
#44001
1<
0J
#44878
0:
#44982
19
#45048
0D
1G
#45770
0;
#46823
04
0/
0"
#48064
15
11
1#
#50000
1!
10
#50507
18
0L
#60000
0!
00
#60681
08
1L
#62759
1F
0K
#64905
09
#66871
14
1/
1"
#70000
1!
10
#70507
18
0L
#80000
0!
00
#80681
08
1L
#82759
0F
1K
#84001
0<
1J
#84935
1:
#84982
19
#85054
1?
0I
#85093
1D
0G
#85809
1;
#85841
0D
1G
#85856
0=
#86590
0>
#86823
04
0/
0"
#88065
05
01
0#
#88240
16
12
1$
#90000
1!
10
#90507
18
0L
#100000
0!
00
#100681
08
1L
#102759
1F
0K
#104905
09
#106871
14
1/
1"
#110000
1!
10
#110507
18
0L
#120000
0!
00
#120681
08
1L
#122759
0F
1K
#124001
1<
0J
#124878
0:
#124982
19
#125770
0;
#126823
04
0/
0"
#128064
15
11
1#
#130000
1!
10
#130507
18
0L
#140000
0!
00
#140681
08
1L
#142759
1F
0K
#144905
09
#146871
14
1/
1"
#150000
1!
10
#150507
18
0L
#160000
0!
00
#160681
08
1L
#162759
0F
1K
#164001
0<
1J
#164935
1:
#164982
19
#165054
0?
1I
#165809
1;
#165878
1D
0G
#165910
1=
#166472
1A
#166615
1>
#166823
04
0/
0"
#166841
0@
#167031
0D
1G
#168065
05
01
0#
#168185
06
02
0$
#169905
17
13
1%
#170000
1!
10
#170507
18
0L
#180000
0!
00
#180681
08
1L
#182759
1F
0K
#184905
09
#186871
14
1/
1"
#190000
1!
10
#190507
18
0L
#200000
0!
00
#200681
08
1L
#202759
0F
1K
#204001
1<
0J
#204516
1B
#204878
0:
#204982
19
#205417
1E
0H
#205770
0;
#206637
0<
1J
#206668
0A
#206823
04
0/
0"
#207021
1@
#207186
0B
#207571
1:
#207729
1D
0G
#208064
15
11
1#
#208445
1;
#208986
0E
1H
#210000
1!
10
#210025
07
03
0%
#210507
18
0L
#210701
05
01
0#
#220000
0!
00
#220681
08
1L
#222759
1F
0K
#223438
0D
1G
#224905
09
#226871
14
1/
1"
#230000
1!
10
#230507
18
0L
#240000
0!
00
#240681
08
1L
#242759
0F
1K
#243509
1D
0G
#244001
1<
0J
#244878
0:
#244982
19
#245048
0D
1G
#245770
0;
#246823
04
0/
0"
#248064
15
11
1#
#250000
1!
10
#250507
18
0L
#260000
0!
00
#260681
08
1L
#262759
1F
0K
#264905
09
#266871
14
1/
1"
#270000
1!
10
#270507
18
0L
#280000
0!
00
#280681
08
1L
#282759
0F
1K
#284001
0<
1J
#284935
1:
#284982
19
#285054
1?
0I
#285093
1D
0G
#285809
1;
#285841
0D
1G
#285856
0=
#286590
0>
#286823
04
0/
0"
#288065
05
01
0#
#288240
16
12
1$
#290000
1!
10
#290507
18
0L
#300000
0!
00
#300681
08
1L
#302759
1F
0K
#304905
09
#306871
14
1/
1"
#310000
1!
10
#310507
18
0L
#320000
0!
00
#320681
08
1L
#322759
0F
1K
#324001
1<
0J
#324878
0:
#324982
19
#325770
0;
#326823
04
0/
0"
#328064
15
11
1#
#330000
1!
10
#330507
18
0L
#340000
0!
00
#340681
08
1L
#342759
1F
0K
#344905
09
#346871
14
1/
1"
#350000
1!
10
#350507
18
0L
#360000
0!
00
#360681
08
1L
#362759
0F
1K
#364001
0<
1J
#364935
1:
#364982
19
#365054
0?
1I
#365809
1;
#365878
1D
0G
#365910
1=
#366472
1A
#366615
1>
#366823
04
0/
0"
#366841
0@
#367031
0D
1G
#368065
05
01
0#
#368185
06
02
0$
#369905
17
13
1%
#370000
1!
10
#370507
18
0L
#380000
0!
00
#380681
08
1L
#382759
1F
0K
#384905
09
#386871
14
1/
1"
#390000
1!
10
#390507
18
0L
#400000
0!
00
#400681
08
1L
#402759
0F
1K
#404001
1<
0J
#404516
1B
#404878
0:
#404982
19
#405417
1E
0H
#405770
0;
#406637
0<
1J
#406668
0A
#406823
04
0/
0"
#407021
1@
#407186
0B
#407571
1:
#407729
1D
0G
#408064
15
11
1#
#408445
1;
#408986
0E
1H
#410000
1!
10
#410025
07
03
0%
#410507
18
0L
#410701
05
01
0#
#420000
0!
00
#420681
08
1L
#422759
1F
0K
#423438
0D
1G
#424905
09
#426871
14
1/
1"
#430000
1!
10
#430507
18
0L
#440000
0!
00
#440681
08
1L
#442759
0F
1K
#443509
1D
0G
#444001
1<
0J
#444878
0:
#444982
19
#445048
0D
1G
#445770
0;
#446823
04
0/
0"
#448064
15
11
1#
#450000
1!
10
#450507
18
0L
#460000
0!
00
#460681
08
1L
#462759
1F
0K
#464905
09
#466871
14
1/
1"
#470000
1!
10
#470507
18
0L
#480000
0!
00
#480681
08
1L
#482759
0F
1K
#484001
0<
1J
#484935
1:
#484982
19
#485054
1?
0I
#485093
1D
0G
#485809
1;
#485841
0D
1G
#485856
0=
#486590
0>
#486823
04
0/
0"
#488065
05
01
0#
#488240
16
12
1$
#490000
1!
10
#490507
18
0L
#500000
0!
00
#500681
08
1L
#502759
1F
0K
#504905
09
#506871
14
1/
1"
#510000
1!
10
#510507
18
0L
#520000
0!
00
#520681
08
1L
#522759
0F
1K
#524001
1<
0J
#524878
0:
#524982
19
#525770
0;
#526823
04
0/
0"
#528064
15
11
1#
#530000
1!
10
#530507
18
0L
#540000
0!
00
#540681
08
1L
#542759
1F
0K
#544905
09
#546871
14
1/
1"
#550000
1!
10
#550507
18
0L
#560000
0!
00
#560681
08
1L
#562759
0F
1K
#564001
0<
1J
#564935
1:
#564982
19
#565054
0?
1I
#565809
1;
#565878
1D
0G
#565910
1=
#566472
1A
#566615
1>
#566823
04
0/
0"
#566841
0@
#567031
0D
1G
#568065
05
01
0#
#568185
06
02
0$
#569905
17
13
1%
#570000
1!
10
#570507
18
0L
#580000
0!
00
#580681
08
1L
#582759
1F
0K
#584905
09
#586871
14
1/
1"
#590000
1!
10
#590507
18
0L
#600000
0!
00
#600681
08
1L
#602759
0F
1K
#604001
1<
0J
#604516
1B
#604878
0:
#604982
19
#605417
1E
0H
#605770
0;
#606637
0<
1J
#606668
0A
#606823
04
0/
0"
#607021
1@
#607186
0B
#607571
1:
#607729
1D
0G
#608064
15
11
1#
#608445
1;
#608986
0E
1H
#610000
1!
10
#610025
07
03
0%
#610507
18
0L
#610701
05
01
0#
#620000
0!
00
#620681
08
1L
#622759
1F
0K
#623438
0D
1G
#624905
09
#626871
14
1/
1"
#630000
1!
10
#630507
18
0L
#640000
0!
00
#640681
08
1L
#642759
0F
1K
#643509
1D
0G
#644001
1<
0J
#644878
0:
#644982
19
#645048
0D
1G
#645770
0;
#646823
04
0/
0"
#648064
15
11
1#
#650000
1!
10
#650507
18
0L
#660000
0!
00
#660681
08
1L
#662759
1F
0K
#664905
09
#666871
14
1/
1"
#670000
1!
10
#670507
18
0L
#680000
0!
00
#680681
08
1L
#682759
0F
1K
#684001
0<
1J
#684935
1:
#684982
19
#685054
1?
0I
#685093
1D
0G
#685809
1;
#685841
0D
1G
#685856
0=
#686590
0>
#686823
04
0/
0"
#688065
05
01
0#
#688240
16
12
1$
#690000
1!
10
#690507
18
0L
#700000
0!
00
#700681
08
1L
#702759
1F
0K
#704905
09
#706871
14
1/
1"
#710000
1!
10
#710507
18
0L
#720000
0!
00
#720681
08
1L
#722759
0F
1K
#724001
1<
0J
#724878
0:
#724982
19
#725770
0;
#726823
04
0/
0"
#728064
15
11
1#
#730000
1!
10
#730507
18
0L
#740000
0!
00
#740681
08
1L
#742759
1F
0K
#744905
09
#746871
14
1/
1"
#750000
1!
10
#750507
18
0L
#760000
0!
00
#760681
08
1L
#762759
0F
1K
#764001
0<
1J
#764935
1:
#764982
19
#765054
0?
1I
#765809
1;
#765878
1D
0G
#765910
1=
#766472
1A
#766615
1>
#766823
04
0/
0"
#766841
0@
#767031
0D
1G
#768065
05
01
0#
#768185
06
02
0$
#769905
17
13
1%
#770000
1!
10
#770507
18
0L
#780000
0!
00
#780681
08
1L
#782759
1F
0K
#784905
09
#786871
14
1/
1"
#790000
1!
10
#790507
18
0L
#800000
0!
00
#800681
08
1L
#802759
0F
1K
#804001
1<
0J
#804516
1B
#804878
0:
#804982
19
#805417
1E
0H
#805770
0;
#806637
0<
1J
#806668
0A
#806823
04
0/
0"
#807021
1@
#807186
0B
#807571
1:
#807729
1D
0G
#808064
15
11
1#
#808445
1;
#808986
0E
1H
#810000
1!
10
#810025
07
03
0%
#810507
18
0L
#810701
05
01
0#
#820000
0!
00
#820681
08
1L
#822759
1F
0K
#823438
0D
1G
#824905
09
#826871
14
1/
1"
#830000
1!
10
#830507
18
0L
#840000
0!
00
#840681
08
1L
#842759
0F
1K
#843509
1D
0G
#844001
1<
0J
#844878
0:
#844982
19
#845048
0D
1G
#845770
0;
#846823
04
0/
0"
#848064
15
11
1#
#850000
1!
10
#850507
18
0L
#860000
0!
00
#860681
08
1L
#862759
1F
0K
#864905
09
#866871
14
1/
1"
#870000
1!
10
#870507
18
0L
#880000
0!
00
#880681
08
1L
#882759
0F
1K
#884001
0<
1J
#884935
1:
#884982
19
#885054
1?
0I
#885093
1D
0G
#885809
1;
#885841
0D
1G
#885856
0=
#886590
0>
#886823
04
0/
0"
#888065
05
01
0#
#888240
16
12
1$
#890000
1!
10
#890507
18
0L
#900000
0!
00
#900681
08
1L
#902759
1F
0K
#904905
09
#906871
14
1/
1"
#910000
1!
10
#910507
18
0L
#920000
0!
00
#920681
08
1L
#922759
0F
1K
#924001
1<
0J
#924878
0:
#924982
19
#925770
0;
#926823
04
0/
0"
#928064
15
11
1#
#930000
1!
10
#930507
18
0L
#940000
0!
00
#940681
08
1L
#942759
1F
0K
#944905
09
#946871
14
1/
1"
#950000
1!
10
#950507
18
0L
#960000
0!
00
#960681
08
1L
#962759
0F
1K
#964001
0<
1J
#964935
1:
#964982
19
#965054
0?
1I
#965809
1;
#965878
1D
0G
#965910
1=
#966472
1A
#966615
1>
#966823
04
0/
0"
#966841
0@
#967031
0D
1G
#968065
05
01
0#
#968185
06
02
0$
#969905
17
13
1%
#970000
1!
10
#970507
18
0L
#980000
0!
00
#980681
08
1L
#982759
1F
0K
#984905
09
#986871
14
1/
1"
#990000
1!
10
#990507
18
0L
