copyoflab_03/simulation/qsim/copyoflab_03.msim.vcd
$comment
	File created using the following command:
		vcd file copyoflab_03.msim.vcd -direction
$end
$date
	Thu Sep 28 14:52:07 2023
$end
$version
	ModelSim Version 10.5b
$end
$timescale
	1ps
$end

$scope module pisotosipomod8_vhd_vec_tst $end
$var wire 1 ! A_out [7] $end
$var wire 1 " A_out [6] $end
$var wire 1 # A_out [5] $end
$var wire 1 $ A_out [4] $end
$var wire 1 % A_out [3] $end
$var wire 1 & A_out [2] $end
$var wire 1 ' A_out [1] $end
$var wire 1 ( A_out [0] $end
$var wire 1 ) B_out [7] $end
$var wire 1 * B_out [6] $end
$var wire 1 + B_out [5] $end
$var wire 1 , B_out [4] $end
$var wire 1 - B_out [3] $end
$var wire 1 . B_out [2] $end
$var wire 1 / B_out [1] $end
$var wire 1 0 B_out [0] $end
$var wire 1 1 clk $end
$var wire 1 2 ctindbg $end
$var wire 1 3 ctoutdbg [2] $end
$var wire 1 4 ctoutdbg [1] $end
$var wire 1 5 ctoutdbg [0] $end
$var wire 1 6 dbgdff0 $end
$var wire 1 7 dbgff1 $end
$var wire 1 8 N_in [7] $end
$var wire 1 9 N_in [6] $end
$var wire 1 : N_in [5] $end
$var wire 1 ; N_in [4] $end
$var wire 1 < N_in [3] $end
$var wire 1 = N_in [2] $end
$var wire 1 > N_in [1] $end
$var wire 1 ? N_in [0] $end
$var wire 1 @ PB0 $end
$var wire 1 A PB1 $end
$var wire 1 B piso_dbg $end
$var wire 1 C sipo_dbg [7] $end
$var wire 1 D sipo_dbg [6] $end
$var wire 1 E sipo_dbg [5] $end
$var wire 1 F sipo_dbg [4] $end
$var wire 1 G sipo_dbg [3] $end
$var wire 1 H sipo_dbg [2] $end
$var wire 1 I sipo_dbg [1] $end
$var wire 1 J sipo_dbg [0] $end

$scope module i1 $end
$var wire 1 K gnd $end
$var wire 1 L vcc $end
$var wire 1 M unknown $end
$var wire 1 N devoe $end
$var wire 1 O devclrn $end
$var wire 1 P devpor $end
$var wire 1 Q ww_devoe $end
$var wire 1 R ww_devclrn $end
$var wire 1 S ww_devpor $end
$var wire 1 T ww_N_in [7] $end
$var wire 1 U ww_N_in [6] $end
$var wire 1 V ww_N_in [5] $end
$var wire 1 W ww_N_in [4] $end
$var wire 1 X ww_N_in [3] $end
$var wire 1 Y ww_N_in [2] $end
$var wire 1 Z ww_N_in [1] $end
$var wire 1 [ ww_N_in [0] $end
$var wire 1 \ ww_A_out [7] $end
$var wire 1 ] ww_A_out [6] $end
$var wire 1 ^ ww_A_out [5] $end
$var wire 1 _ ww_A_out [4] $end
$var wire 1 ` ww_A_out [3] $end
$var wire 1 a ww_A_out [2] $end
$var wire 1 b ww_A_out [1] $end
$var wire 1 c ww_A_out [0] $end
$var wire 1 d ww_B_out [7] $end
$var wire 1 e ww_B_out [6] $end
$var wire 1 f ww_B_out [5] $end
$var wire 1 g ww_B_out [4] $end
$var wire 1 h ww_B_out [3] $end
$var wire 1 i ww_B_out [2] $end
$var wire 1 j ww_B_out [1] $end
$var wire 1 k ww_B_out [0] $end
$var wire 1 l ww_sipo_dbg [7] $end
$var wire 1 m ww_sipo_dbg [6] $end
$var wire 1 n ww_sipo_dbg [5] $end
$var wire 1 o ww_sipo_dbg [4] $end
$var wire 1 p ww_sipo_dbg [3] $end
$var wire 1 q ww_sipo_dbg [2] $end
$var wire 1 r ww_sipo_dbg [1] $end
$var wire 1 s ww_sipo_dbg [0] $end
$var wire 1 t ww_piso_dbg $end
$var wire 1 u ww_ctindbg $end
$var wire 1 v ww_ctoutdbg [2] $end
$var wire 1 w ww_ctoutdbg [1] $end
$var wire 1 x ww_ctoutdbg [0] $end
$var wire 1 y ww_dbgdff0 $end
$var wire 1 z ww_dbgff1 $end
$var wire 1 { ww_clk $end
$var wire 1 | ww_PB0 $end
$var wire 1 } ww_PB1 $end
$var wire 1 ~ \PB0~inputclkctrl_INCLK_bus\ [3] $end
$var wire 1 !! \PB0~inputclkctrl_INCLK_bus\ [2] $end
$var wire 1 "! \PB0~inputclkctrl_INCLK_bus\ [1] $end
$var wire 1 #! \PB0~inputclkctrl_INCLK_bus\ [0] $end
$var wire 1 $! \clk~inputclkctrl_INCLK_bus\ [3] $end
$var wire 1 %! \clk~inputclkctrl_INCLK_bus\ [2] $end
$var wire 1 &! \clk~inputclkctrl_INCLK_bus\ [1] $end
$var wire 1 '! \clk~inputclkctrl_INCLK_bus\ [0] $end
$var wire 1 (! \count00|gen00:2:a00~clkctrl_INCLK_bus\ [3] $end
$var wire 1 )! \count00|gen00:2:a00~clkctrl_INCLK_bus\ [2] $end
$var wire 1 *! \count00|gen00:2:a00~clkctrl_INCLK_bus\ [1] $end
$var wire 1 +! \count00|gen00:2:a00~clkctrl_INCLK_bus\ [0] $end
$var wire 1 ,! \A_out[0]~output_o\ $end
$var wire 1 -! \A_out[1]~output_o\ $end
$var wire 1 .! \A_out[2]~output_o\ $end
$var wire 1 /! \A_out[3]~output_o\ $end
$var wire 1 0! \A_out[4]~output_o\ $end
$var wire 1 1! \A_out[5]~output_o\ $end
$var wire 1 2! \A_out[6]~output_o\ $end
$var wire 1 3! \A_out[7]~output_o\ $end
$var wire 1 4! \B_out[0]~output_o\ $end
$var wire 1 5! \B_out[1]~output_o\ $end
$var wire 1 6! \B_out[2]~output_o\ $end
$var wire 1 7! \B_out[3]~output_o\ $end
$var wire 1 8! \B_out[4]~output_o\ $end
$var wire 1 9! \B_out[5]~output_o\ $end
$var wire 1 :! \B_out[6]~output_o\ $end
$var wire 1 ;! \B_out[7]~output_o\ $end
$var wire 1 <! \sipo_dbg[0]~output_o\ $end
$var wire 1 =! \sipo_dbg[1]~output_o\ $end
$var wire 1 >! \sipo_dbg[2]~output_o\ $end
$var wire 1 ?! \sipo_dbg[3]~output_o\ $end
$var wire 1 @! \sipo_dbg[4]~output_o\ $end
$var wire 1 A! \sipo_dbg[5]~output_o\ $end
$var wire 1 B! \sipo_dbg[6]~output_o\ $end
$var wire 1 C! \sipo_dbg[7]~output_o\ $end
$var wire 1 D! \piso_dbg~output_o\ $end
$var wire 1 E! \ctindbg~output_o\ $end
$var wire 1 F! \ctoutdbg[0]~output_o\ $end
$var wire 1 G! \ctoutdbg[1]~output_o\ $end
$var wire 1 H! \ctoutdbg[2]~output_o\ $end
$var wire 1 I! \dbgdff0~output_o\ $end
$var wire 1 J! \dbgff1~output_o\ $end
$var wire 1 K! \PB0~input_o\ $end
$var wire 1 L! \PB0~inputclkctrl_outclk\ $end
$var wire 1 M! \N_in[0]~input_o\ $end
$var wire 1 N! \regin|gen00:0:aa00~feeder_combout\ $end
$var wire 1 O! \regin|gen00:0:aa00~q\ $end
$var wire 1 P! \N_in[1]~input_o\ $end
$var wire 1 Q! \regin|gen00:1:aa00~q\ $end
$var wire 1 R! \N_in[2]~input_o\ $end
$var wire 1 S! \regin|gen00:2:aa00~feeder_combout\ $end
$var wire 1 T! \regin|gen00:2:aa00~q\ $end
$var wire 1 U! \N_in[3]~input_o\ $end
$var wire 1 V! \regin|gen00:3:aa00~feeder_combout\ $end
$var wire 1 W! \regin|gen00:3:aa00~q\ $end
$var wire 1 X! \N_in[4]~input_o\ $end
$var wire 1 Y! \regin|gen00:4:aa00~feeder_combout\ $end
$var wire 1 Z! \regin|gen00:4:aa00~q\ $end
$var wire 1 [! \N_in[5]~input_o\ $end
$var wire 1 \! \regin|gen00:5:aa00~feeder_combout\ $end
$var wire 1 ]! \regin|gen00:5:aa00~q\ $end
$var wire 1 ^! \N_in[6]~input_o\ $end
$var wire 1 _! \regin|gen00:6:aa00~feeder_combout\ $end
$var wire 1 `! \regin|gen00:6:aa00~q\ $end
$var wire 1 a! \N_in[7]~input_o\ $end
$var wire 1 b! \regin|gen00:7:aa00~q\ $end
$var wire 1 c! \PB1~input_o\ $end
$var wire 1 d! \clk~input_o\ $end
$var wire 1 e! \dff01~1_combout\ $end
$var wire 1 f! \dff01~0_combout\ $end
$var wire 1 g! \dff01~_emulated_q\ $end
$var wire 1 h! \dff01~2_combout\ $end
$var wire 1 i! \ct_in~combout\ $end
$var wire 1 j! \count00|gen00:0:a00~0_combout\ $end
$var wire 1 k! \count00|gen00:0:a00~feeder_combout\ $end
$var wire 1 l! \count00|gen00:0:a00~q\ $end
$var wire 1 m! \count00|gen00:1:a00~0_combout\ $end
$var wire 1 n! \count00|gen00:1:a00~feeder_combout\ $end
$var wire 1 o! \count00|gen00:1:a00~q\ $end
$var wire 1 p! \count00|gen00:2:a00~0_combout\ $end
$var wire 1 q! \count00|gen00:2:a00~feeder_combout\ $end
$var wire 1 r! \count00|gen00:2:a00~q\ $end
$var wire 1 s! \count00|gen00:2:a00~clkctrl_outclk\ $end
$var wire 1 t! \clk~inputclkctrl_outclk\ $end
$var wire 1 u! \piso00|DM_s~7_combout\ $end
$var wire 1 v! \piso00|gen00:0:aa01~q\ $end
$var wire 1 w! \piso00|DM_s[1]~6_combout\ $end
$var wire 1 x! \piso00|gen00:1:aa01~q\ $end
$var wire 1 y! \piso00|DM_s[2]~5_combout\ $end
$var wire 1 z! \piso00|gen00:2:aa01~q\ $end
$var wire 1 {! \piso00|DM_s[3]~4_combout\ $end
$var wire 1 |! \piso00|gen00:3:aa01~q\ $end
$var wire 1 }! \piso00|DM_s[4]~3_combout\ $end
$var wire 1 ~! \piso00|gen00:4:aa01~q\ $end
$var wire 1 !" \piso00|DM_s[5]~2_combout\ $end
$var wire 1 "" \piso00|gen00:5:aa01~q\ $end
$var wire 1 #" \piso00|DM_s[6]~1_combout\ $end
$var wire 1 $" \piso00|gen00:6:aa01~q\ $end
$var wire 1 %" \piso00|DM_s[7]~0_combout\ $end
$var wire 1 &" \piso00|gen00:7:aa01~q\ $end
$var wire 1 '" \sipo00|gen00:0:aa00~feeder_combout\ $end
$var wire 1 (" \sipo00|gen00:0:aa00~q\ $end
$var wire 1 )" \regout|gen00:0:aa00~feeder_combout\ $end
$var wire 1 *" \regout|gen00:0:aa00~q\ $end
$var wire 1 +" \sipo00|gen00:1:aa00~feeder_combout\ $end
$var wire 1 ," \sipo00|gen00:1:aa00~q\ $end
$var wire 1 -" \regout|gen00:1:aa00~feeder_combout\ $end
$var wire 1 ." \regout|gen00:1:aa00~q\ $end
$var wire 1 /" \sipo00|gen00:2:aa00~feeder_combout\ $end
$var wire 1 0" \sipo00|gen00:2:aa00~q\ $end
$var wire 1 1" \regout|gen00:2:aa00~feeder_combout\ $end
$var wire 1 2" \regout|gen00:2:aa00~q\ $end
$var wire 1 3" \sipo00|gen00:3:aa00~feeder_combout\ $end
$var wire 1 4" \sipo00|gen00:3:aa00~q\ $end
$var wire 1 5" \regout|gen00:3:aa00~feeder_combout\ $end
$var wire 1 6" \regout|gen00:3:aa00~q\ $end
$var wire 1 7" \sipo00|gen00:4:aa00~feeder_combout\ $end
$var wire 1 8" \sipo00|gen00:4:aa00~q\ $end
$var wire 1 9" \regout|gen00:4:aa00~feeder_combout\ $end
$var wire 1 :" \regout|gen00:4:aa00~q\ $end
$var wire 1 ;" \sipo00|gen00:5:aa00~feeder_combout\ $end
$var wire 1 <" \sipo00|gen00:5:aa00~q\ $end
$var wire 1 =" \regout|gen00:5:aa00~feeder_combout\ $end
$var wire 1 >" \regout|gen00:5:aa00~q\ $end
$var wire 1 ?" \sipo00|gen00:6:aa00~feeder_combout\ $end
$var wire 1 @" \sipo00|gen00:6:aa00~q\ $end
$var wire 1 A" \regout|gen00:6:aa00~feeder_combout\ $end
$var wire 1 B" \regout|gen00:6:aa00~q\ $end
$var wire 1 C" \sipo00|gen00:7:aa00~feeder_combout\ $end
$var wire 1 D" \sipo00|gen00:7:aa00~q\ $end
$var wire 1 E" \regout|gen00:7:aa00~feeder_combout\ $end
$var wire 1 F" \regout|gen00:7:aa00~q\ $end
$var wire 1 G" \count00|ALT_INV_gen00:2:a00~clkctrl_outclk\ $end
$var wire 1 H" \ALT_INV_clk~inputclkctrl_outclk\ $end
$var wire 1 I" \ALT_INV_dff01~0_combout\ $end
$var wire 1 J" \count00|ALT_INV_gen00:2:a00~q\ $end
$var wire 1 K" \count00|ALT_INV_gen00:1:a00~q\ $end
$var wire 1 L" \count00|ALT_INV_gen00:0:a00~q\ $end
$upscope $end
$upscope $end
$enddefinitions $end
#0
$dumpvars
01
02
06
07
1@
1A
0B
0K
1L
xM
1N
1O
1P
1Q
1R
1S
0t
0u
0y
0z
0{
1|
1}
0,!
0-!
0.!
0/!
00!
01!
02!
03!
04!
05!
06!
07!
08!
09!
0:!
0;!
0<!
0=!
0>!
0?!
0@!
0A!
0B!
0C!
0D!
0E!
0F!
0G!
0H!
0I!
0J!
xK!
xL!
xM!
xN!
0O!
xP!
0Q!
xR!
xS!
0T!
xU!
xV!
0W!
xX!
xY!
0Z!
x[!
x\!
0]!
x^!
x_!
0`!
xa!
0b!
xc!
xd!
xe!
xf!
0g!
xh!
xi!
xj!
xk!
0l!
xm!
xn!
0o!
xp!
xq!
0r!
xs!
xt!
xu!
0v!
xw!
0x!
xy!
0z!
x{!
0|!
x}!
0~!
x!"
0""
x#"
0$"
x%"
0&"
x'"
0("
x)"
0*"
x+"
0,"
x-"
0."
x/"
00"
x1"
02"
x3"
04"
x5"
06"
x7"
08"
x9"
0:"
x;"
0<"
x="
0>"
x?"
0@"
xA"
0B"
xC"
0D"
xE"
0F"
xG"
xH"
xI"
1J"
1K"
1L"
18
09
1:
1;
0<
1=
0>
1?
1T
0U
1V
1W
0X
1Y
0Z
1[
0\
0]
0^
0_
0`
0a
0b
0c
0d
0e
0f
0g
0h
0i
0j
0k
0l
0m
0n
0o
0p
0q
0r
0s
0v
0w
0x
1~
1!!
1"!
x#!
1(!
1)!
1*!
0+!
1$!
1%!
1&!
x'!
0!
0"
0#
0$
0%
0&
0'
0(
0)
0*
0+
0,
0-
0.
0/
00
03
04
05
0C
0D
0E
0F
0G
0H
0I
0J
$end
#425
0E"
#426
0u!
#429
0A"
#433
03"
01"
#434
0;"
09"
0/"
#435
0?"
0="
07"
#436
05"
0+"
0)"
#437
0-"
#497
1K!
1#!
#517
1c!
1a!
1[!
1R!
#527
1X!
#537
1M!
#548
0#"
#552
0%"
#553
0!"
0}!
#556
0{!
0w!
#560
0C"
#577
0'"
#671
0d!
0'!
#681
0^!
#692
0y!
#711
0P!
0U!
#741
1m!
#810
0s!
1G"
#845
1p!
#877
1L!
#1038
0t!
1H"
#1353
1n!
#1616
1q!
#1991
1j!
#3086
xE!
xu
x2
#3398
xJ!
xz
x7
#3917
1k!
#3938
1\!
#3971
1S!
#4128
0_!
#4194
0f!
1I"
#4195
1N!
#4256
1Y!
#4602
0V!
#6113
xI!
xy
x6
#6402
1I!
1y
16
#20000
0@
0|
#20671
0K!
0#!
#21038
0L!
#21594
0h!
#21883
0e!
#21931
0i!
#21974
1f!
0I"
#24863
0J!
0z
07
#24902
0E!
0u
02
#40000
1@
11
1|
1{
#40497
1d!
1K!
1'!
1#!
#40877
1t!
1L!
0H"
#41800
0f!
1I"
#42736
1b!
1]!
1Z!
1T!
1O!
#46249
10!
1_
1$
#46250
13!
1\
1!
#46326
11!
1^
1#
#46648
1.!
1a
1&
#46820
1,!
1c
1(
#80000
01
0{
#80671
0d!
0'!
#81038
0t!
1H"
#90000
0A
0}
#90691
0c!
#94507
1e!
#94628
1f!
0I"
#94629
1h!
#95907
1u!
#95919
1y!
#95929
1%"
#95930
1!"
#95935
1}!
#96702
0I!
0y
06
#98027
1J!
1z
17
#120000
11
1{
#120497
1d!
1'!
#120877
1t!
0H"
#122736
1&"
1""
1~!
1z!
1v!
#123264
1'"
#126804
1D!
1t
1B
#130000
1A
1}
#130517
1c!
#134194
0f!
1I"
#135309
0u!
#135313
1#"
#135333
1{!
#135337
1w!
#135340
0%"
#135346
0}!
0y!
#136402
1I!
1y
16
#160000
01
08
0:
0;
0=
0?
0{
0[
0Y
0W
0V
0T
#160671
0d!
0'!
#160691
0a!
0[!
0R!
#160701
0X!
#160711
0M!
#161038
0t!
1H"
#161702
1i!
#162804
1l!
0L"
#162859
1("
#163235
1+"
1)"
#164354
0\!
#164384
0S!
#164595
0N!
#164719
0j!
#164721
0Y!
#164788
1E!
1u
12
#165955
1F!
1x
15
#166679
0k!
#166929
1<!
1s
1J
#200000
11
1{
#200497
1d!
1'!
#200877
1t!
0H"
#201508
0i!
#202736
0&"
1$"
0~!
1|!
0z!
1x!
0v!
#203084
1%"
1}!
#203138
0w!
#203140
0{!
#203141
0!"
#203313
0'"
#203328
1y!
#204479
0E!
0u
02
#206757
0D!
0t
0B
#240000
01
0{
#240671
0d!
0'!
#241038
0t!
1H"
#241702
1i!
#242804
0l!
1L"
#242859
1,"
0("
#243232
1/"
#243235
1-"
#243295
0+"
0)"
#243838
1o!
0K"
#244526
0m!
#244788
1E!
1u
12
#244795
1j!
#245132
0n!
#245880
0F!
0x
05
#246721
1k!
#246886
0<!
0s
0J
#246921
1=!
1r
1I
#247192
1G!
1w
14
#280000
11
1{
#280497
1d!
1'!
#280877
1t!
0H"
#281508
0i!
#282736
1&"
0""
1~!
0|!
1z!
0x!
#283083
1{!
#283084
1!"
#283139
0}!
#283264
1'"
#283428
0y!
#283429
0#"
#284479
0E!
0u
02
#286804
1D!
1t
1B
#320000
01
0{
#320671
0d!
0'!
#321038
0t!
1H"
#321702
1i!
#322804
1l!
0L"
#322859
10"
0,"
1("
#323233
13"
11"
#323235
1+"
1)"
#323293
0/"
#323296
0-"
#324719
0j!
#324788
1E!
1u
12
#325955
1F!
1x
15
#326679
0k!
#326886
0=!
0r
0I
#326929
1<!
1s
1J
#327038
1>!
1q
1H
#360000
11
1{
#360497
1d!
1'!
#360877
1t!
0H"
#361508
0i!
#362736
0$"
1""
0~!
1|!
0z!
#363084
1}!
#363140
0%"
0{!
#363141
0!"
#363329
1#"
#364479
0E!
0u
02
#400000
01
0{
#400671
0d!
0'!
#401038
0t!
1H"
#401702
1i!
#402804
0l!
1L"
#402859
14"
00"
1,"
#403232
1/"
#403234
17"
15"
#403235
1-"
#403292
03"
01"
#403838
0o!
1K"
#404579
1m!
#404788
1E!
1u
12
#404795
1j!
#405016
1r!
0J"
1+!
#405191
1n!
#405796
1s!
0G"
#405807
0p!
#405880
0F!
0x
05
#406583
0q!
#406716
1?!
1p
1G
#406721
1k!
#406921
1=!
1r
1I
#407034
0>!
0q
0H
#407107
0G!
0w
04
#408374
1H!
1v
13
#440000
11
1{
#440497
1d!
1'!
#440877
1t!
0H"
#441508
0i!
#442736
0&"
1$"
0""
1~!
0|!
#443084
1%"
1!"
#443139
0}!
#443313
0'"
#443429
0#"
#444479
0E!
0u
02
#446757
0D!
0t
0B
#480000
01
0{
#480671
0d!
0'!
#481038
0t!
1H"
#481702
1i!
#482804
1l!
0L"
#482859
18"
04"
10"
0("
#483233
1;"
19"
13"
11"
#483294
07"
#483295
05"
0+"
0)"
#484719
0j!
#484788
1E!
1u
12
#485955
1F!
1x
15
#486679
0k!
#486680
0?!
0p
0G
#486886
0<!
0s
0J
#487038
1>!
1q
1H
#487087
1@!
1o
1F
#520000
11
1{
#520497
1d!
1'!
#520877
1t!
0H"
#521508
0i!
#522736
1&"
0$"
1""
0~!
#523140
0%"
#523141
0!"
#523264
1'"
#523329
1#"
#524479
0E!
0u
02
#526804
1D!
1t
1B
#560000
01
0{
#560671
0d!
0'!
#561038
0t!
1H"
#561702
1i!
#562804
0l!
1L"
#562859
1<"
08"
14"
0,"
1("
#563234
1?"
1="
17"
15"
#563235
1+"
1)"
#563293
0;"
09"
0/"
#563296
0-"
#563838
1o!
0K"
#564526
0m!
#564788
1E!
1u
12
#564795
1j!
#565132
0n!
#565880
0F!
0x
05
#566015
1A!
1n
1E
#566716
1?!
1p
1G
#566721
1k!
#566886
0=!
0r
0I
#566929
1<!
1s
1J
#567049
0@!
0o
0F
#567192
1G!
1w
14
#600000
11
1{
#600497
1d!
1'!
#600877
1t!
0H"
#601508
0i!
#602736
0&"
1$"
0""
#603084
1%"
#603313
0'"
#603429
0#"
#604479
0E!
0u
02
#606757
0D!
0t
0B
#640000
01
0{
#640671
0d!
0'!
#641038
0t!
1H"
#641702
1i!
#642804
1l!
0L"
#642859
1@"
0<"
18"
00"
1,"
0("
#643230
1A"
#643232
1/"
#643233
1;"
19"
#643235
1-"
#643292
03"
01"
#643294
0?"
0="
#643295
0+"
0)"
#643373
1C"
#644719
0j!
#644788
1E!
1u
12
#645955
1F!
1x
15
#645957
0A!
0n
0E
#646679
0k!
#646796
1B!
1m
1D
#646886
0<!
0s
0J
#646921
1=!
1r
1I
#647034
0>!
0q
0H
#647087
1@!
1o
1F
#680000
11
1{
#680497
1d!
1'!
#680877
1t!
0H"
#681508
0i!
#682736
1&"
0$"
#683140
0%"
#683264
1'"
#684479
0E!
0u
02
#686804
1D!
1t
1B
#720000
01
0{
#720671
0d!
0'!
#721038
0t!
1H"
#721702
1i!
#722804
0l!
1L"
#722859
1D"
0@"
1<"
04"
10"
0,"
1("
#723227
1E"
#723233
13"
11"
#723234
1?"
1="
#723235
1+"
1)"
#723288
0A"
#723293
0/"
#723294
07"
#723295
05"
#723296
0-"
#723419
0C"
#723838
0o!
1K"
#724579
1m!
#724788
1E!
1u
12
#724795
1j!
#725016
0r!
1J"
0+!
#725191
1n!
#725826
0s!
1G"
#725861
1p!
#725880
0F!
0x
05
#726015
1A!
1n
1E
#726632
1q!
#726680
0?!
0p
0G
#726690
1C!
1l
1C
#726721
1k!
#726792
0B!
0m
0D
#726886
0=!
0r
0I
#726929
1<!
1s
1J
#727038
1>!
1q
1H
#727107
0G!
0w
04
#727365
1g!
#727643
1F"
1>"
1:"
12"
1*"
#727825
0h!
#728162
0i!
#728298
0H!
0v
03
#731094
0J!
0z
07
#731133
0E!
0u
02
#731215
14!
1k
10
#731216
1;!
1d
1)
#731432
16!
1i
1.
#731502
18!
1g
1,
#731597
19!
1f
1+
#760000
11
1{
#760497
1d!
1'!
#760877
1t!
0H"
#762736
0&"
#763313
0'"
#766757
0D!
0t
0B
#800000
01
0{
#800671
0d!
0'!
#801038
0t!
1H"
#802859
0D"
1@"
08"
14"
00"
1,"
0("
#803230
1A"
#803232
1/"
#803234
17"
15"
#803235
1-"
#803284
0E"
#803292
03"
01"
#803293
0;"
09"
#803295
0+"
0)"
#803373
1C"
#806643
0C!
0l
0C
#806716
1?!
1p
1G
#806796
1B!
1m
1D
#806886
0<!
0s
0J
#806921
1=!
1r
1I
#807034
0>!
0q
0H
#807049
0@!
0o
0F
#840000
11
1{
#840497
1d!
1'!
#840877
1t!
0H"
#880000
01
0{
#880671
0d!
0'!
#881038
0t!
1H"
#882859
1D"
0<"
18"
04"
10"
0,"
#883227
1E"
#883233
1;"
19"
13"
11"
#883293
0/"
#883294
0?"
0="
07"
#883295
05"
#883296
0-"
#885957
0A!
0n
0E
#886680
0?!
0p
0G
#886690
1C!
1l
1C
#886886
0=!
0r
0I
#887038
1>!
1q
1H
#887087
1@!
1o
1F
#920000
11
1{
#920497
1d!
1'!
#920877
1t!
0H"
#960000
01
0{
#960671
0d!
0'!
#961038
0t!
1H"
#962859
0@"
1<"
08"
14"
00"
#963234
1?"
1="
17"
15"
#963288
0A"
#963292
03"
01"
#963293
0;"
09"
#963419
0C"
#966015
1A!
1n
1E
#966716
1?!
1p
1G
#966792
0B!
0m
0D
#967034
0>!
0q
0H
#967049
0@!
0o
0F
#990000
18
1:
1;
1=
1?
1[
1Y
1W
1V
1T
#990517
1a!
1[!
1R!
#990527
1X!
#990537
1M!
#993938
1\!
#993971
1S!
#994195
1N!
#994256
1Y!
