copyoflab_03/simulation/qsim/lab_03.msim.vcd
$comment
	File created using the following command:
		vcd file lab_03.msim.vcd -direction
$end
$date
	Thu Sep 28 11:52:09 2023
$end
$version
	ModelSim Version 10.5b
$end
$timescale
	1ps
$end

$scope module pisotosipomod8_vhd_vec_tst $end
$var wire 1 ! A_out [7] $end
$var wire 1 " A_out [6] $end
$var wire 1 # A_out [5] $end
$var wire 1 $ A_out [4] $end
$var wire 1 % A_out [3] $end
$var wire 1 & A_out [2] $end
$var wire 1 ' A_out [1] $end
$var wire 1 ( A_out [0] $end
$var wire 1 ) B_out [7] $end
$var wire 1 * B_out [6] $end
$var wire 1 + B_out [5] $end
$var wire 1 , B_out [4] $end
$var wire 1 - B_out [3] $end
$var wire 1 . B_out [2] $end
$var wire 1 / B_out [1] $end
$var wire 1 0 B_out [0] $end
$var wire 1 1 clk $end
$var wire 1 2 ctindbg $end
$var wire 1 3 ctoutdbg [2] $end
$var wire 1 4 ctoutdbg [1] $end
$var wire 1 5 ctoutdbg [0] $end
$var wire 1 6 dbgdff0 $end
$var wire 1 7 dbgff1 $end
$var wire 1 8 N_in [7] $end
$var wire 1 9 N_in [6] $end
$var wire 1 : N_in [5] $end
$var wire 1 ; N_in [4] $end
$var wire 1 < N_in [3] $end
$var wire 1 = N_in [2] $end
$var wire 1 > N_in [1] $end
$var wire 1 ? N_in [0] $end
$var wire 1 @ PB0 $end
$var wire 1 A PB1 $end
$var wire 1 B piso_dbg $end
$var wire 1 C sipo_dbg [7] $end
$var wire 1 D sipo_dbg [6] $end
$var wire 1 E sipo_dbg [5] $end
$var wire 1 F sipo_dbg [4] $end
$var wire 1 G sipo_dbg [3] $end
$var wire 1 H sipo_dbg [2] $end
$var wire 1 I sipo_dbg [1] $end
$var wire 1 J sipo_dbg [0] $end

$scope module i1 $end
$var wire 1 K gnd $end
$var wire 1 L vcc $end
$var wire 1 M unknown $end
$var wire 1 N devoe $end
$var wire 1 O devclrn $end
$var wire 1 P devpor $end
$var wire 1 Q ww_devoe $end
$var wire 1 R ww_devclrn $end
$var wire 1 S ww_devpor $end
$var wire 1 T ww_N_in [7] $end
$var wire 1 U ww_N_in [6] $end
$var wire 1 V ww_N_in [5] $end
$var wire 1 W ww_N_in [4] $end
$var wire 1 X ww_N_in [3] $end
$var wire 1 Y ww_N_in [2] $end
$var wire 1 Z ww_N_in [1] $end
$var wire 1 [ ww_N_in [0] $end
$var wire 1 \ ww_A_out [7] $end
$var wire 1 ] ww_A_out [6] $end
$var wire 1 ^ ww_A_out [5] $end
$var wire 1 _ ww_A_out [4] $end
$var wire 1 ` ww_A_out [3] $end
$var wire 1 a ww_A_out [2] $end
$var wire 1 b ww_A_out [1] $end
$var wire 1 c ww_A_out [0] $end
$var wire 1 d ww_B_out [7] $end
$var wire 1 e ww_B_out [6] $end
$var wire 1 f ww_B_out [5] $end
$var wire 1 g ww_B_out [4] $end
$var wire 1 h ww_B_out [3] $end
$var wire 1 i ww_B_out [2] $end
$var wire 1 j ww_B_out [1] $end
$var wire 1 k ww_B_out [0] $end
$var wire 1 l ww_sipo_dbg [7] $end
$var wire 1 m ww_sipo_dbg [6] $end
$var wire 1 n ww_sipo_dbg [5] $end
$var wire 1 o ww_sipo_dbg [4] $end
$var wire 1 p ww_sipo_dbg [3] $end
$var wire 1 q ww_sipo_dbg [2] $end
$var wire 1 r ww_sipo_dbg [1] $end
$var wire 1 s ww_sipo_dbg [0] $end
$var wire 1 t ww_piso_dbg $end
$var wire 1 u ww_ctindbg $end
$var wire 1 v ww_ctoutdbg [2] $end
$var wire 1 w ww_ctoutdbg [1] $end
$var wire 1 x ww_ctoutdbg [0] $end
$var wire 1 y ww_dbgdff0 $end
$var wire 1 z ww_dbgff1 $end
$var wire 1 { ww_clk $end
$var wire 1 | ww_PB0 $end
$var wire 1 } ww_PB1 $end
$var wire 1 ~ \~QUARTUS_CREATED_ADC1~_CHSEL_bus\ [4] $end
$var wire 1 !! \~QUARTUS_CREATED_ADC1~_CHSEL_bus\ [3] $end
$var wire 1 "! \~QUARTUS_CREATED_ADC1~_CHSEL_bus\ [2] $end
$var wire 1 #! \~QUARTUS_CREATED_ADC1~_CHSEL_bus\ [1] $end
$var wire 1 $! \~QUARTUS_CREATED_ADC1~_CHSEL_bus\ [0] $end
$var wire 1 %! \~QUARTUS_CREATED_ADC2~_CHSEL_bus\ [4] $end
$var wire 1 &! \~QUARTUS_CREATED_ADC2~_CHSEL_bus\ [3] $end
$var wire 1 '! \~QUARTUS_CREATED_ADC2~_CHSEL_bus\ [2] $end
$var wire 1 (! \~QUARTUS_CREATED_ADC2~_CHSEL_bus\ [1] $end
$var wire 1 )! \~QUARTUS_CREATED_ADC2~_CHSEL_bus\ [0] $end
$var wire 1 *! \count00|gen00:2:a00~clkctrl_INCLK_bus\ [3] $end
$var wire 1 +! \count00|gen00:2:a00~clkctrl_INCLK_bus\ [2] $end
$var wire 1 ,! \count00|gen00:2:a00~clkctrl_INCLK_bus\ [1] $end
$var wire 1 -! \count00|gen00:2:a00~clkctrl_INCLK_bus\ [0] $end
$var wire 1 .! \PB0~inputclkctrl_INCLK_bus\ [3] $end
$var wire 1 /! \PB0~inputclkctrl_INCLK_bus\ [2] $end
$var wire 1 0! \PB0~inputclkctrl_INCLK_bus\ [1] $end
$var wire 1 1! \PB0~inputclkctrl_INCLK_bus\ [0] $end
$var wire 1 2! \clk~inputclkctrl_INCLK_bus\ [3] $end
$var wire 1 3! \clk~inputclkctrl_INCLK_bus\ [2] $end
$var wire 1 4! \clk~inputclkctrl_INCLK_bus\ [1] $end
$var wire 1 5! \clk~inputclkctrl_INCLK_bus\ [0] $end
$var wire 1 6! \~QUARTUS_CREATED_GND~I_combout\ $end
$var wire 1 7! \~QUARTUS_CREATED_UNVM~~busy\ $end
$var wire 1 8! \~QUARTUS_CREATED_ADC1~~eoc\ $end
$var wire 1 9! \~QUARTUS_CREATED_ADC2~~eoc\ $end
$var wire 1 :! \A_out[0]~output_o\ $end
$var wire 1 ;! \A_out[1]~output_o\ $end
$var wire 1 <! \A_out[2]~output_o\ $end
$var wire 1 =! \A_out[3]~output_o\ $end
$var wire 1 >! \A_out[4]~output_o\ $end
$var wire 1 ?! \A_out[5]~output_o\ $end
$var wire 1 @! \A_out[6]~output_o\ $end
$var wire 1 A! \A_out[7]~output_o\ $end
$var wire 1 B! \B_out[0]~output_o\ $end
$var wire 1 C! \B_out[1]~output_o\ $end
$var wire 1 D! \B_out[2]~output_o\ $end
$var wire 1 E! \B_out[3]~output_o\ $end
$var wire 1 F! \B_out[4]~output_o\ $end
$var wire 1 G! \B_out[5]~output_o\ $end
$var wire 1 H! \B_out[6]~output_o\ $end
$var wire 1 I! \B_out[7]~output_o\ $end
$var wire 1 J! \sipo_dbg[0]~output_o\ $end
$var wire 1 K! \sipo_dbg[1]~output_o\ $end
$var wire 1 L! \sipo_dbg[2]~output_o\ $end
$var wire 1 M! \sipo_dbg[3]~output_o\ $end
$var wire 1 N! \sipo_dbg[4]~output_o\ $end
$var wire 1 O! \sipo_dbg[5]~output_o\ $end
$var wire 1 P! \sipo_dbg[6]~output_o\ $end
$var wire 1 Q! \sipo_dbg[7]~output_o\ $end
$var wire 1 R! \piso_dbg~output_o\ $end
$var wire 1 S! \ctindbg~output_o\ $end
$var wire 1 T! \ctoutdbg[0]~output_o\ $end
$var wire 1 U! \ctoutdbg[1]~output_o\ $end
$var wire 1 V! \ctoutdbg[2]~output_o\ $end
$var wire 1 W! \dbgdff0~output_o\ $end
$var wire 1 X! \dbgff1~output_o\ $end
$var wire 1 Y! \PB0~input_o\ $end
$var wire 1 Z! \PB0~inputclkctrl_outclk\ $end
$var wire 1 [! \N_in[0]~input_o\ $end
$var wire 1 \! \regin|gen00:0:aa00~q\ $end
$var wire 1 ]! \N_in[1]~input_o\ $end
$var wire 1 ^! \regin|gen00:1:aa00~feeder_combout\ $end
$var wire 1 _! \regin|gen00:1:aa00~q\ $end
$var wire 1 `! \N_in[2]~input_o\ $end
$var wire 1 a! \regin|gen00:2:aa00~q\ $end
$var wire 1 b! \N_in[3]~input_o\ $end
$var wire 1 c! \regin|gen00:3:aa00~q\ $end
$var wire 1 d! \N_in[4]~input_o\ $end
$var wire 1 e! \regin|gen00:4:aa00~feeder_combout\ $end
$var wire 1 f! \regin|gen00:4:aa00~q\ $end
$var wire 1 g! \N_in[5]~input_o\ $end
$var wire 1 h! \regin|gen00:5:aa00~q\ $end
$var wire 1 i! \N_in[6]~input_o\ $end
$var wire 1 j! \regin|gen00:6:aa00~feeder_combout\ $end
$var wire 1 k! \regin|gen00:6:aa00~q\ $end
$var wire 1 l! \N_in[7]~input_o\ $end
$var wire 1 m! \regin|gen00:7:aa00~feeder_combout\ $end
$var wire 1 n! \regin|gen00:7:aa00~q\ $end
$var wire 1 o! \PB1~input_o\ $end
$var wire 1 p! \clk~input_o\ $end
$var wire 1 q! \dff01~1_combout\ $end
$var wire 1 r! \dff01~0_combout\ $end
$var wire 1 s! \dff01~_emulated_q\ $end
$var wire 1 t! \dff01~2_combout\ $end
$var wire 1 u! \ct_in~combout\ $end
$var wire 1 v! \count00|gen00:0:a00~0_combout\ $end
$var wire 1 w! \count00|gen00:0:a00~feeder_combout\ $end
$var wire 1 x! \count00|gen00:0:a00~q\ $end
$var wire 1 y! \count00|gen00:1:a00~0_combout\ $end
$var wire 1 z! \count00|gen00:1:a00~feeder_combout\ $end
$var wire 1 {! \count00|gen00:1:a00~q\ $end
$var wire 1 |! \count00|gen00:2:a00~0_combout\ $end
$var wire 1 }! \count00|gen00:2:a00~feeder_combout\ $end
$var wire 1 ~! \count00|gen00:2:a00~q\ $end
$var wire 1 !" \count00|gen00:2:a00~clkctrl_outclk\ $end
$var wire 1 "" \clk~inputclkctrl_outclk\ $end
$var wire 1 #" \piso00|DM_s~7_combout\ $end
$var wire 1 $" \piso00|gen00:0:aa01~q\ $end
$var wire 1 %" \piso00|DM_s[1]~6_combout\ $end
$var wire 1 &" \piso00|gen00:1:aa01~q\ $end
$var wire 1 '" \piso00|DM_s[2]~5_combout\ $end
$var wire 1 (" \piso00|gen00:2:aa01~q\ $end
$var wire 1 )" \piso00|DM_s[3]~4_combout\ $end
$var wire 1 *" \piso00|gen00:3:aa01~q\ $end
$var wire 1 +" \piso00|DM_s[4]~3_combout\ $end
$var wire 1 ," \piso00|gen00:4:aa01~q\ $end
$var wire 1 -" \piso00|DM_s[5]~2_combout\ $end
$var wire 1 ." \piso00|gen00:5:aa01~q\ $end
$var wire 1 /" \piso00|DM_s[6]~1_combout\ $end
$var wire 1 0" \piso00|gen00:6:aa01~q\ $end
$var wire 1 1" \piso00|DM_s[7]~0_combout\ $end
$var wire 1 2" \piso00|gen00:7:aa01~q\ $end
$var wire 1 3" \sipo00|gen00:0:aa00~feeder_combout\ $end
$var wire 1 4" \sipo00|gen00:0:aa00~q\ $end
$var wire 1 5" \regout|gen00:0:aa00~feeder_combout\ $end
$var wire 1 6" \regout|gen00:0:aa00~q\ $end
$var wire 1 7" \sipo00|gen00:1:aa00~feeder_combout\ $end
$var wire 1 8" \sipo00|gen00:1:aa00~q\ $end
$var wire 1 9" \regout|gen00:1:aa00~feeder_combout\ $end
$var wire 1 :" \regout|gen00:1:aa00~q\ $end
$var wire 1 ;" \sipo00|gen00:2:aa00~feeder_combout\ $end
$var wire 1 <" \sipo00|gen00:2:aa00~q\ $end
$var wire 1 =" \regout|gen00:2:aa00~feeder_combout\ $end
$var wire 1 >" \regout|gen00:2:aa00~q\ $end
$var wire 1 ?" \sipo00|gen00:3:aa00~feeder_combout\ $end
$var wire 1 @" \sipo00|gen00:3:aa00~q\ $end
$var wire 1 A" \regout|gen00:3:aa00~feeder_combout\ $end
$var wire 1 B" \regout|gen00:3:aa00~q\ $end
$var wire 1 C" \sipo00|gen00:4:aa00~feeder_combout\ $end
$var wire 1 D" \sipo00|gen00:4:aa00~q\ $end
$var wire 1 E" \regout|gen00:4:aa00~feeder_combout\ $end
$var wire 1 F" \regout|gen00:4:aa00~q\ $end
$var wire 1 G" \sipo00|gen00:5:aa00~feeder_combout\ $end
$var wire 1 H" \sipo00|gen00:5:aa00~q\ $end
$var wire 1 I" \regout|gen00:5:aa00~feeder_combout\ $end
$var wire 1 J" \regout|gen00:5:aa00~q\ $end
$var wire 1 K" \sipo00|gen00:6:aa00~feeder_combout\ $end
$var wire 1 L" \sipo00|gen00:6:aa00~q\ $end
$var wire 1 M" \regout|gen00:6:aa00~feeder_combout\ $end
$var wire 1 N" \regout|gen00:6:aa00~q\ $end
$var wire 1 O" \sipo00|gen00:7:aa00~feeder_combout\ $end
$var wire 1 P" \sipo00|gen00:7:aa00~q\ $end
$var wire 1 Q" \regout|gen00:7:aa00~feeder_combout\ $end
$var wire 1 R" \regout|gen00:7:aa00~q\ $end
$var wire 1 S" \count00|ALT_INV_gen00:0:a00~q\ $end
$var wire 1 T" \ALT_INV_clk~inputclkctrl_outclk\ $end
$var wire 1 U" \count00|ALT_INV_gen00:2:a00~clkctrl_outclk\ $end
$var wire 1 V" \ALT_INV_dff01~0_combout\ $end
$var wire 1 W" \count00|ALT_INV_gen00:2:a00~q\ $end
$var wire 1 X" \count00|ALT_INV_gen00:1:a00~q\ $end
$upscope $end
$upscope $end
$enddefinitions $end
#0
$dumpvars
01
x2
16
x7
1@
1A
0B
0K
1L
xM
1N
1O
1P
1Q
1R
1S
0t
xu
1y
xz
0{
1|
1}
06!
z7!
z8!
z9!
0:!
0;!
0<!
0=!
0>!
0?!
0@!
0A!
0B!
0C!
0D!
0E!
0F!
0G!
0H!
0I!
0J!
0K!
0L!
0M!
0N!
0O!
0P!
0Q!
0R!
xS!
0T!
0U!
0V!
1W!
xX!
1Y!
1Z!
1[!
0\!
0]!
0^!
0_!
1`!
0a!
0b!
0c!
1d!
1e!
0f!
1g!
0h!
0i!
0j!
0k!
1l!
1m!
0n!
1o!
0p!
xq!
0r!
0s!
xt!
xu!
1v!
1w!
0x!
1y!
1z!
0{!
1|!
1}!
0~!
0!"
0""
0#"
0$"
0%"
0&"
0'"
0("
0)"
0*"
0+"
0,"
0-"
0."
0/"
00"
01"
02"
03"
04"
05"
06"
07"
08"
09"
0:"
0;"
0<"
0="
0>"
0?"
0@"
0A"
0B"
0C"
0D"
0E"
0F"
0G"
0H"
0I"
0J"
0K"
0L"
0M"
0N"
0O"
0P"
0Q"
0R"
1S"
1T"
1U"
1V"
1W"
1X"
18
09
1:
1;
0<
1=
0>
1?
1T
0U
1V
1W
0X
1Y
0Z
1[
0\
0]
0^
0_
0`
0a
0b
0c
0d
0e
0f
0g
0h
0i
0j
0k
0l
0m
0n
0o
0p
0q
0r
0s
0v
0w
0x
1.!
1/!
10!
11!
1*!
1+!
1,!
0-!
12!
13!
14!
05!
0~
0!!
0"!
0#!
0$!
0%!
0&!
0'!
0(!
0)!
0!
0"
0#
0$
0%
0&
0'
0(
0)
0*
0+
0,
0-
0.
0/
00
03
04
05
0C
0D
0E
0F
0G
0H
0I
0J
$end
#20000
0@
0|
0Y!
01!
0q!
1r!
0t!
0V"
0X!
0u!
0Z!
0z
0S!
07
0u
02
#40000
1@
11
1|
1{
1p!
1Y!
15!
11!
0r!
1V"
1Z!
1""
0T"
1\!
1a!
1f!
1h!
1n!
1A!
1?!
1>!
1<!
1:!
1\
1^
1_
1a
1c
1(
1&
1$
1#
1!
#80000
01
0{
0p!
05!
0""
1T"
#90000
0A
0}
0o!
0W!
1q!
1r!
1t!
1#"
1'"
1+"
1-"
11"
0V"
0y
1X!
06
1z
17
#120000
11
1{
1p!
15!
1""
0T"
1$"
1("
1,"
1."
12"
1R!
13"
1t
1B
#130000
1A
1}
1o!
1W!
0r!
0#"
1%"
0'"
1)"
0+"
1/"
01"
1V"
1y
16
#160000
01
08
0:
0;
0=
0?
0{
0[
0Y
0W
0V
0T
0l!
0g!
0d!
0`!
0[!
0p!
05!
1u!
0e!
0m!
1S!
1x!
0""
0S"
1u
1T!
0v!
1T"
12
1x
14"
0w!
15
1J!
15"
17"
1s
1J
#200000
11
1{
1p!
15!
0u!
0S!
1""
0u
0T"
02
0$"
1&"
0("
1*"
0,"
10"
02"
0R!
03"
11"
0-"
1+"
0)"
1'"
0%"
0t
0B
#240000
01
0{
0p!
05!
1u!
1S!
0x!
0""
1S"
1u
0T!
1v!
1T"
12
1{!
0x
04"
18"
1w!
0X"
05
1U!
0y!
1K!
0J!
19"
1;"
05"
07"
1w
0z!
1r
0s
14
0J
1I
#280000
11
1{
1p!
15!
0u!
0S!
1""
0u
0T"
02
0&"
1("
0*"
1,"
0."
12"
1R!
13"
0/"
1-"
0+"
1)"
0'"
1t
1B
#320000
01
0{
0p!
05!
1u!
1S!
1x!
0""
0S"
1u
1T!
0v!
1T"
12
1x
14"
08"
1<"
0w!
15
1L!
0K!
1J!
1="
1?"
09"
0;"
15"
17"
1q
0r
1s
1J
0I
1H
#360000
11
1{
1p!
15!
0u!
0S!
1""
0u
0T"
02
0("
1*"
0,"
1."
00"
01"
1/"
0-"
1+"
0)"
#400000
01
0{
0p!
05!
1u!
1S!
0x!
0""
1S"
1u
0T!
1v!
1T"
12
0{!
0x
18"
0<"
1@"
1w!
1X"
05
0U!
1y!
1M!
0L!
1K!
1~!
1A"
1C"
0="
0?"
19"
1;"
0w
1z!
0W"
1p
0q
1r
1-!
04
1V!
0|!
1I
0H
1G
1v
0}!
13
1!"
0U"
#440000
11
1{
1p!
15!
0u!
0S!
1""
0u
0T"
02
0*"
1,"
0."
10"
02"
0R!
03"
11"
0/"
1-"
0+"
0t
0B
#480000
01
0{
0p!
05!
1u!
1S!
1x!
0""
0S"
1u
1T!
0v!
1T"
12
1x
04"
1<"
0@"
1D"
0w!
15
1N!
0M!
1L!
0J!
1E"
1G"
0A"
0C"
1="
1?"
05"
07"
1o
0p
1q
0s
0J
1H
0G
1F
#520000
11
1{
1p!
15!
0u!
0S!
1""
0u
0T"
02
0,"
1."
00"
12"
1R!
13"
01"
1/"
0-"
1t
1B
#560000
01
0{
0p!
05!
1u!
1S!
0x!
0""
1S"
1u
0T!
1v!
1T"
12
1{!
0x
14"
08"
1@"
0D"
1H"
1w!
0X"
05
1U!
0y!
1O!
0N!
1M!
0K!
1J!
1I"
1K"
0E"
0G"
1A"
1C"
09"
0;"
15"
17"
1w
0z!
1n
0o
1p
0r
1s
14
1J
0I
1G
0F
1E
#600000
11
1{
1p!
15!
0u!
0S!
1""
0u
0T"
02
0."
10"
02"
0R!
03"
11"
0/"
0t
0B
#640000
01
0{
0p!
05!
1u!
1S!
1x!
0""
0S"
1u
1T!
0v!
1T"
12
1x
04"
18"
0<"
1D"
0H"
1L"
0w!
15
1P!
0O!
1N!
0L!
1K!
0J!
1M"
1O"
0I"
0K"
1E"
1G"
0="
0?"
19"
1;"
05"
07"
1m
0n
1o
0q
1r
0s
0J
1I
0H
1F
0E
1D
#680000
11
1{
1p!
15!
0u!
0S!
1""
0u
0T"
02
00"
12"
1R!
13"
01"
1t
1B
#720000
01
0{
0p!
05!
1u!
1S!
0x!
0""
1S"
1u
0T!
1v!
1T"
12
0{!
0x
14"
08"
1<"
0@"
1H"
0L"
1P"
1w!
1X"
05
0U!
1y!
1Q!
0P!
1O!
0M!
1L!
0K!
1J!
0~!
1Q"
0M"
0O"
1I"
1K"
0A"
0C"
1="
1?"
09"
0;"
15"
17"
0w
1z!
1W"
1l
0m
1n
0p
1q
0r
1s
0-!
04
0V!
1|!
1J
0I
1H
0G
1E
0D
1C
1s!
0v
1}!
03
0!"
0t!
1U"
0X!
0u!
16"
1>"
1F"
1J"
1R"
0z
0S!
07
1I!
1G!
1F!
1D!
1B!
0u
1d
1f
1g
1i
1k
02
10
1.
1,
1+
1)
#760000
11
1{
1p!
15!
1""
0T"
02"
0R!
03"
0t
0B
#800000
01
0{
0p!
05!
0""
1T"
04"
18"
0<"
1@"
0D"
1L"
0P"
0Q!
1P!
0N!
1M!
0L!
1K!
0J!
0Q"
1M"
1O"
0E"
0G"
1A"
1C"
0="
0?"
19"
1;"
05"
07"
0l
1m
0o
1p
0q
1r
0s
0J
1I
0H
1G
0F
1D
0C
#840000
11
1{
1p!
15!
1""
0T"
#880000
01
0{
0p!
05!
0""
1T"
08"
1<"
0@"
1D"
0H"
1P"
1Q!
0O!
1N!
0M!
1L!
0K!
1Q"
0I"
0K"
1E"
1G"
0A"
0C"
1="
1?"
09"
0;"
1l
0n
1o
0p
1q
0r
0I
1H
0G
1F
0E
1C
#920000
11
1{
1p!
15!
1""
0T"
#960000
01
0{
0p!
05!
0""
1T"
0<"
1@"
0D"
1H"
0L"
0P!
1O!
0N!
1M!
0L!
0M"
0O"
1I"
1K"
0E"
0G"
1A"
1C"
0="
0?"
0m
1n
0o
1p
0q
0H
1G
0F
1E
0D
#990000
18
1:
1;
1=
1?
1[
1Y
1W
1V
1T
1l!
1g!
1d!
1`!
1[!
1e!
1m!
