lab_06/simulation/qsim/lab_06.msim.vcd
$comment
	File created using the following command:
		vcd file lab_06.msim.vcd -direction
$end
$date
	Fri Oct 20 10:39:23 2023
$end
$version
	ModelSim Version 10.5b
$end
$timescale
	1ps
$end

$scope module seq_detector_3bit_vhd_vec_tst $end
$var wire 1 ! clk $end
$var wire 1 " Q [2] $end
$var wire 1 # Q [1] $end
$var wire 1 $ Q [0] $end
$var wire 1 % RSTN $end
$var wire 1 & SW_i $end

$scope module i1 $end
$var wire 1 ' gnd $end
$var wire 1 ( vcc $end
$var wire 1 ) unknown $end
$var wire 1 * devoe $end
$var wire 1 + devclrn $end
$var wire 1 , devpor $end
$var wire 1 - ww_devoe $end
$var wire 1 . ww_devclrn $end
$var wire 1 / ww_devpor $end
$var wire 1 0 ww_clk $end
$var wire 1 1 ww_RSTN $end
$var wire 1 2 ww_SW_i $end
$var wire 1 3 ww_Q [2] $end
$var wire 1 4 ww_Q [1] $end
$var wire 1 5 ww_Q [0] $end
$var wire 1 6 \~QUARTUS_CREATED_ADC1~_CHSEL_bus\ [4] $end
$var wire 1 7 \~QUARTUS_CREATED_ADC1~_CHSEL_bus\ [3] $end
$var wire 1 8 \~QUARTUS_CREATED_ADC1~_CHSEL_bus\ [2] $end
$var wire 1 9 \~QUARTUS_CREATED_ADC1~_CHSEL_bus\ [1] $end
$var wire 1 : \~QUARTUS_CREATED_ADC1~_CHSEL_bus\ [0] $end
$var wire 1 ; \~QUARTUS_CREATED_ADC2~_CHSEL_bus\ [4] $end
$var wire 1 < \~QUARTUS_CREATED_ADC2~_CHSEL_bus\ [3] $end
$var wire 1 = \~QUARTUS_CREATED_ADC2~_CHSEL_bus\ [2] $end
$var wire 1 > \~QUARTUS_CREATED_ADC2~_CHSEL_bus\ [1] $end
$var wire 1 ? \~QUARTUS_CREATED_ADC2~_CHSEL_bus\ [0] $end
$var wire 1 @ \RSTN~inputclkctrl_INCLK_bus\ [3] $end
$var wire 1 A \RSTN~inputclkctrl_INCLK_bus\ [2] $end
$var wire 1 B \RSTN~inputclkctrl_INCLK_bus\ [1] $end
$var wire 1 C \RSTN~inputclkctrl_INCLK_bus\ [0] $end
$var wire 1 D \clk~inputclkctrl_INCLK_bus\ [3] $end
$var wire 1 E \clk~inputclkctrl_INCLK_bus\ [2] $end
$var wire 1 F \clk~inputclkctrl_INCLK_bus\ [1] $end
$var wire 1 G \clk~inputclkctrl_INCLK_bus\ [0] $end
$var wire 1 H \~QUARTUS_CREATED_GND~I_combout\ $end
$var wire 1 I \~QUARTUS_CREATED_UNVM~~busy\ $end
$var wire 1 J \~QUARTUS_CREATED_ADC1~~eoc\ $end
$var wire 1 K \~QUARTUS_CREATED_ADC2~~eoc\ $end
$var wire 1 L \Q[0]~output_o\ $end
$var wire 1 M \Q[1]~output_o\ $end
$var wire 1 N \Q[2]~output_o\ $end
$var wire 1 O \clk~input_o\ $end
$var wire 1 P \clk~inputclkctrl_outclk\ $end
$var wire 1 Q \SW_i~input_o\ $end
$var wire 1 R \D_s[1]~1_combout\ $end
$var wire 1 S \RSTN~input_o\ $end
$var wire 1 T \RSTN~inputclkctrl_outclk\ $end
$var wire 1 U \gen00:1:ffi0~q\ $end
$var wire 1 V \D_s[2]~2_combout\ $end
$var wire 1 W \gen00:2:ffi0~q\ $end
$var wire 1 X \D_s[0]~0_combout\ $end
$var wire 1 Y \gen00:0:ffi0~q\ $end
$upscope $end
$upscope $end
$enddefinitions $end
#0
$dumpvars
0!
0%
0&
0'
1(
x)
1*
1+
1,
1-
1.
1/
00
01
02
0H
zI
zJ
zK
0L
0M
0N
0O
0P
0Q
0R
0S
0T
0U
0V
0W
1X
0Y
03
04
05
1D
1E
1F
0G
1@
1A
1B
0C
06
07
08
09
0:
0;
0<
0=
0>
0?
0"
0#
0$
$end
#10000
1!
1%
10
11
1S
1O
1C
1G
1P
1T
1Y
1L
1R
0X
15
1$
#20000
0!
00
0O
0G
0P
#30000
1!
10
1O
1G
1P
1U
0Y
0L
1M
1X
05
14
0$
1#
#40000
0!
00
0O
0G
0P
#50000
1!
10
1O
1G
1P
1Y
1L
15
1$
#60000
0!
1&
00
12
1Q
0O
0G
0R
1V
0X
0P
#70000
1!
10
1O
1G
1P
0U
1W
0Y
0L
1N
0M
0V
05
13
04
0$
0#
1"
#80000
0!
0&
00
02
0Q
0O
0G
1V
1X
0P
#90000
1!
10
1O
1G
1P
1Y
1L
1R
0X
15
1$
#100000
0!
00
0O
0G
0P
#110000
1!
10
1O
1G
1P
1U
0Y
0L
1M
0V
1X
05
14
0$
1#
#120000
0!
1&
00
12
1Q
0O
0G
1V
0P
#130000
1!
10
1O
1G
1P
1Y
1L
0R
0V
0X
15
1$
#140000
0!
00
0O
0G
0P
#150000
1!
10
1O
1G
1P
0U
0W
0Y
0L
0N
0M
05
03
04
0$
0#
0"
#160000
0!
0&
00
02
0Q
0O
0G
1X
0P
#170000
1!
10
1O
1G
1P
1Y
1L
1R
0X
15
1$
#180000
0!
00
0O
0G
0P
#190000
1!
10
1O
1G
1P
1U
0Y
0L
1M
1X
05
14
0$
1#
#200000
0!
00
0O
0G
0P
#210000
1!
10
1O
1G
1P
1Y
1L
15
1$
#220000
0!
00
0O
0G
0P
#230000
1!
10
1O
1G
1P
#240000
0!
00
0O
0G
0P
#250000
1!
10
1O
1G
1P
#260000
0!
00
0O
0G
0P
#270000
1!
10
1O
1G
1P
#280000
0!
00
0O
0G
0P
#290000
1!
10
1O
1G
1P
#300000
0!
00
0O
0G
0P
#310000
1!
10
1O
1G
1P
#320000
0!
00
0O
0G
0P
#330000
1!
10
1O
1G
1P
#340000
0!
00
0O
0G
0P
#350000
1!
10
1O
1G
1P
#360000
0!
00
0O
0G
0P
#370000
1!
10
1O
1G
1P
#380000
0!
00
0O
0G
0P
#390000
1!
10
1O
1G
1P
#400000
0!
00
0O
0G
0P
#410000
1!
10
1O
1G
1P
#420000
0!
00
0O
0G
0P
#430000
1!
10
1O
1G
1P
#440000
0!
00
0O
0G
0P
#450000
1!
10
1O
1G
1P
#460000
0!
00
0O
0G
0P
#470000
1!
10
1O
1G
1P
#480000
0!
00
0O
0G
0P
#490000
1!
10
1O
1G
1P
#500000
0!
00
0O
0G
0P
#510000
1!
10
1O
1G
1P
#520000
0!
00
0O
0G
0P
#530000
1!
10
1O
1G
1P
#540000
0!
00
0O
0G
0P
#550000
1!
10
1O
1G
1P
#560000
0!
00
0O
0G
0P
#570000
1!
10
1O
1G
1P
#580000
0!
00
0O
0G
0P
#590000
1!
10
1O
1G
1P
#600000
0!
00
0O
0G
0P
#610000
1!
10
1O
1G
1P
#620000
0!
00
0O
0G
0P
#630000
1!
10
1O
1G
1P
#640000
0!
00
0O
0G
0P
#650000
1!
10
1O
1G
1P
#660000
0!
00
0O
0G
0P
#670000
1!
10
1O
1G
1P
#680000
0!
00
0O
0G
0P
#690000
1!
10
1O
1G
1P
#700000
0!
00
0O
0G
0P
#710000
1!
10
1O
1G
1P
#720000
0!
00
0O
0G
0P
#730000
1!
10
1O
1G
1P
#740000
0!
00
0O
0G
0P
#750000
1!
10
1O
1G
1P
#760000
0!
00
0O
0G
0P
#770000
1!
10
1O
1G
1P
#780000
0!
00
0O
0G
0P
#790000
1!
10
1O
1G
1P
#800000
0!
00
0O
0G
0P
#810000
1!
10
1O
1G
1P
#820000
0!
00
0O
0G
0P
#830000
1!
10
1O
1G
1P
#840000
0!
00
0O
0G
0P
#850000
1!
10
1O
1G
1P
#860000
0!
00
0O
0G
0P
#870000
1!
10
1O
1G
1P
#880000
0!
00
0O
0G
0P
#890000
1!
10
1O
1G
1P
#900000
0!
00
0O
0G
0P
#910000
1!
10
1O
1G
1P
#920000
0!
00
0O
0G
0P
#930000
1!
10
1O
1G
1P
#940000
0!
00
0O
0G
0P
#950000
1!
10
1O
1G
1P
#960000
0!
00
0O
0G
0P
#970000
1!
10
1O
1G
1P
#980000
0!
00
0O
0G
0P
#990000
1!
10
1O
1G
1P
