lab_02_01/simulation/qsim/lab_02_01.msim.vcd
$comment
	File created using the following command:
		vcd file lab_02_01.msim.vcd -direction
$end
$date
	Thu Sep 21 23:48:23 2023
$end
$version
	ModelSim Version 10.5b
$end
$timescale
	1ps
$end

$scope module twodigcountdeccomp_vhd_vec_tst $end
$var wire 1 ! clk $end
$var wire 1 " Co $end
$var wire 1 # D0 [3] $end
$var wire 1 $ D0 [2] $end
$var wire 1 % D0 [1] $end
$var wire 1 & D0 [0] $end
$var wire 1 ' D1 [3] $end
$var wire 1 ( D1 [2] $end
$var wire 1 ) D1 [1] $end
$var wire 1 * D1 [0] $end

$scope module i1 $end
$var wire 1 + gnd $end
$var wire 1 , vcc $end
$var wire 1 - unknown $end
$var wire 1 . devoe $end
$var wire 1 / devclrn $end
$var wire 1 0 devpor $end
$var wire 1 1 ww_devoe $end
$var wire 1 2 ww_devclrn $end
$var wire 1 3 ww_devpor $end
$var wire 1 4 ww_D0 [3] $end
$var wire 1 5 ww_D0 [2] $end
$var wire 1 6 ww_D0 [1] $end
$var wire 1 7 ww_D0 [0] $end
$var wire 1 8 ww_D1 [3] $end
$var wire 1 9 ww_D1 [2] $end
$var wire 1 : ww_D1 [1] $end
$var wire 1 ; ww_D1 [0] $end
$var wire 1 < ww_clk $end
$var wire 1 = ww_Co $end
$var wire 1 > \D0[0]~output_o\ $end
$var wire 1 ? \D0[1]~output_o\ $end
$var wire 1 @ \D0[2]~output_o\ $end
$var wire 1 A \D0[3]~output_o\ $end
$var wire 1 B \D1[0]~output_o\ $end
$var wire 1 C \D1[1]~output_o\ $end
$var wire 1 D \D1[2]~output_o\ $end
$var wire 1 E \D1[3]~output_o\ $end
$var wire 1 F \Co~output_o\ $end
$var wire 1 G \clk~input_o\ $end
$var wire 1 H \a0|a0|a0~0_combout\ $end
$var wire 1 I \a0|a0|a0~feeder_combout\ $end
$var wire 1 J \a0|a0|gen00:1:a1~0_combout\ $end
$var wire 1 K \a0|a0|gen00:1:a1~q\ $end
$var wire 1 L \a0|a0|gen00:2:a1~0_combout\ $end
$var wire 1 M \a0|a0|gen00:2:a1~feeder_combout\ $end
$var wire 1 N \a0|a0|gen00:2:a1~q\ $end
$var wire 1 O \a0|a0|gen00:3:a1~0_combout\ $end
$var wire 1 P \a0|a0|gen00:3:a1~q\ $end
$var wire 1 Q \a0|a0|a2|sDec10~combout\ $end
$var wire 1 R \a0|a0|a2|a0~feeder_combout\ $end
$var wire 1 S \a0|a0|a2|sNew0~0_combout\ $end
$var wire 1 T \a0|a0|a2|a0~q\ $end
$var wire 1 U \a0|a0|a0~q\ $end
$var wire 1 V \a1|action_02|gen:2:action|S~combout\ $end
$var wire 1 W \a1|action_02|gen:3:action|S~combout\ $end
$var wire 1 X \a0|a1|a0~0_combout\ $end
$var wire 1 Y \a0|a1|a0~feeder_combout\ $end
$var wire 1 Z \a0|a1|gen00:1:a1~0_combout\ $end
$var wire 1 [ \a0|a1|gen00:1:a1~feeder_combout\ $end
$var wire 1 \ \a0|a1|gen00:1:a1~q\ $end
$var wire 1 ] \a0|a1|gen00:2:a1~0_combout\ $end
$var wire 1 ^ \a0|a1|gen00:2:a1~feeder_combout\ $end
$var wire 1 _ \a0|a1|gen00:2:a1~q\ $end
$var wire 1 ` \a0|a1|gen00:3:a1~0_combout\ $end
$var wire 1 a \a0|a1|gen00:3:a1~q\ $end
$var wire 1 b \a0|a1|a2|sDec10~combout\ $end
$var wire 1 c \a0|a1|a2|a0~feeder_combout\ $end
$var wire 1 d \a0|a1|a2|sNew0~0_combout\ $end
$var wire 1 e \a0|a1|a2|a0~q\ $end
$var wire 1 f \a0|a1|a0~q\ $end
$var wire 1 g \a2|action_02|gen:2:action|S~combout\ $end
$var wire 1 h \a2|action_02|gen:3:action|S~combout\ $end
$var wire 1 i \a1|action_02|gen:3:action|ALT_INV_S~combout\ $end
$var wire 1 j \a0|a1|ALT_INV_a0~q\ $end
$var wire 1 k \a0|a1|ALT_INV_gen00:1:a1~q\ $end
$var wire 1 l \a0|a0|ALT_INV_a0~q\ $end
$var wire 1 m \a0|a0|ALT_INV_gen00:1:a1~q\ $end
$var wire 1 n \a0|a1|ALT_INV_gen00:2:a1~q\ $end
$var wire 1 o \a0|a0|ALT_INV_gen00:2:a1~q\ $end
$var wire 1 p \a2|action_02|gen:3:action|ALT_INV_S~combout\ $end
$var wire 1 q \a0|a0|a2|ALT_INV_a0~q\ $end
$var wire 1 r \a0|a1|a2|ALT_INV_a0~q\ $end
$var wire 1 s \a0|a1|a2|ALT_INV_sNew0~0_combout\ $end
$var wire 1 t \a0|a0|a2|ALT_INV_sNew0~0_combout\ $end
$var wire 1 u \ALT_INV_clk~input_o\ $end
$upscope $end
$upscope $end
$enddefinitions $end
#0
$dumpvars
0!
1"
0+
1,
x-
1.
1/
10
11
12
13
0<
1=
1>
0?
0@
1A
1B
0C
0D
1E
1F
0G
1H
1I
1J
0K
1L
1M
0N
1O
0P
0Q
1R
1S
0T
0U
0V
0W
1X
1Y
1Z
1[
0\
1]
1^
0_
1`
0a
0b
1c
1d
0e
0f
0g
0h
1i
1j
1k
1l
1m
1n
1o
1p
1q
1r
0s
0t
1u
14
05
06
17
18
09
0:
1;
1#
0$
0%
1&
1'
0(
0)
1*
$end
#10000
1!
1<
1G
0u
#20000
0!
0<
0G
1u
1U
0l
0H
0S
1t
0I
0>
07
0&
#30000
1!
1<
1G
0u
#40000
0!
0<
0G
1u
0U
1l
1H
1S
1K
0t
1I
0m
0J
0S
1V
1W
1>
0i
1t
17
1?
1&
16
1@
1%
0A
15
04
1$
0#
#50000
1!
1<
1G
0u
#60000
0!
0<
0G
1u
1U
0l
0H
0I
0>
07
0&
#70000
1!
1<
1G
0u
#80000
0!
0<
0G
1u
0U
1l
1H
0K
1I
1m
1J
1S
0V
0W
1>
1N
1i
0t
0o
17
0?
0L
0S
1V
1W
1&
0i
1t
06
0@
0M
0%
1A
05
14
0$
1@
1#
0A
15
04
1$
0#
#90000
1!
1<
1G
0u
#100000
0!
0<
0G
1u
1U
0l
0H
0I
0>
07
0&
#110000
1!
1<
1G
0u
#120000
0!
0<
0G
1u
0U
1l
1H
1K
1I
0m
0J
0V
1>
17
1?
1&
16
0@
1%
05
0$
#130000
1!
1<
1G
0u
#140000
0!
0<
0G
1u
1U
0l
0H
0I
0>
07
0&
#150000
1!
1<
1G
0u
#160000
0!
0<
0G
1u
0U
1l
1H
0K
1I
1m
1J
1V
1>
0N
1o
17
0?
1L
1S
0V
0W
1&
1P
1i
0t
06
1@
1M
0%
0O
0S
1W
15
0i
1t
1$
0@
1A
05
14
0$
1#
0A
04
0#
#170000
1!
1<
1G
0u
#180000
0!
0<
0G
1u
1U
0l
0H
0I
0>
07
0&
#190000
1!
1<
1G
0u
#200000
0!
0<
0G
1u
0U
1l
1H
1K
1I
0m
0J
1Q
1V
0W
1>
1i
1T
17
1?
0q
1&
1f
16
1@
0K
0P
0j
1%
1A
0X
0d
1m
15
1O
1J
0Q
1S
0V
1s
14
1$
0Y
0t
1#
0B
0?
0T
1q
0;
06
0@
0*
0%
05
0$
#210000
1!
1<
1G
0u
#220000
0!
0<
0G
1u
1U
0l
0H
0S
1t
0I
0>
07
0&
#230000
1!
1<
1G
0u
#240000
0!
0<
0G
1u
0U
1l
1H
1S
1K
0t
1I
0m
0J
0S
1V
1W
1>
0i
1t
17
1?
1&
16
1@
1%
0A
15
04
1$
0#
#250000
1!
1<
1G
0u
#260000
0!
0<
0G
1u
1U
0l
0H
0I
0>
07
0&
#270000
1!
1<
1G
0u
#280000
0!
0<
0G
1u
0U
1l
1H
0K
1I
1m
1J
1S
0V
0W
1>
1N
1i
0t
0o
17
0?
0L
0S
1V
1W
1&
0i
1t
06
0@
0M
0%
1A
05
14
0$
1@
1#
0A
15
04
1$
0#
#290000
1!
1<
1G
0u
#300000
0!
0<
0G
1u
1U
0l
0H
0I
0>
07
0&
#310000
1!
1<
1G
0u
#320000
0!
0<
0G
1u
0U
1l
1H
1K
1I
0m
0J
0V
1>
17
1?
1&
16
0@
1%
05
0$
#330000
1!
1<
1G
0u
#340000
0!
0<
0G
1u
1U
0l
0H
0I
0>
07
0&
#350000
1!
1<
1G
0u
#360000
0!
0<
0G
1u
0U
1l
1H
0K
1I
1m
1J
1V
1>
0N
1o
17
0?
1L
1S
0V
0W
1&
1P
1i
0t
06
1@
1M
0%
0O
0S
1W
15
0i
1t
1$
0@
1A
05
14
0$
1#
0A
04
0#
#370000
1!
1<
1G
0u
#380000
0!
0<
0G
1u
1U
0l
0H
0I
0>
07
0&
#390000
1!
1<
1G
0u
#400000
0!
0<
0G
1u
0U
1l
1H
1K
1I
0m
0J
1Q
1V
0W
1>
1i
1T
17
1?
0q
1&
0f
16
1@
0K
0P
1j
1%
1A
1X
1d
1m
15
1\
1O
1J
0Q
1S
0V
0s
14
1$
1Y
0t
0k
1#
0Z
0d
1g
1h
1B
0?
0T
0p
1s
0[
1q
1;
06
0@
1C
1*
0%
05
1:
1D
0$
1)
0E
19
08
1(
0'
#410000
1!
1<
1G
0u
#420000
0!
0<
0G
1u
1U
0l
0H
0S
1t
0I
0>
07
0&
#430000
1!
1<
1G
0u
#440000
0!
0<
0G
1u
0U
1l
1H
1S
1K
0t
1I
0m
0J
0S
1V
1W
1>
0i
1t
17
1?
1&
16
1@
1%
0A
15
04
1$
0#
#450000
1!
1<
1G
0u
#460000
0!
0<
0G
1u
1U
0l
0H
0I
0>
07
0&
#470000
1!
1<
1G
0u
#480000
0!
0<
0G
1u
0U
1l
1H
0K
1I
1m
1J
1S
0V
0W
1>
1N
1i
0t
0o
17
0?
0L
0S
1V
1W
1&
0i
1t
06
0@
0M
0%
1A
05
14
0$
1@
1#
0A
15
04
1$
0#
#490000
1!
1<
1G
0u
#500000
0!
0<
0G
1u
1U
0l
0H
0I
0>
07
0&
#510000
1!
1<
1G
0u
#520000
0!
0<
0G
1u
0U
1l
1H
1K
1I
0m
0J
0V
1>
17
1?
1&
16
0@
1%
05
0$
#530000
1!
1<
1G
0u
#540000
0!
0<
0G
1u
1U
0l
0H
0I
0>
07
0&
#550000
1!
1<
1G
0u
#560000
0!
0<
0G
1u
0U
1l
1H
0K
1I
1m
1J
1V
1>
0N
1o
17
0?
1L
1S
0V
0W
1&
1P
1i
0t
06
1@
1M
0%
0O
0S
1W
15
0i
1t
1$
0@
1A
05
14
0$
1#
0A
04
0#
#570000
1!
1<
1G
0u
#580000
0!
0<
0G
1u
1U
0l
0H
0I
0>
07
0&
#590000
1!
1<
1G
0u
#600000
0!
0<
0G
1u
0U
1l
1H
1K
1I
0m
0J
1Q
1V
0W
1>
1i
1T
17
1?
0q
1&
1f
16
1@
0K
0P
0j
1%
1A
0X
1m
15
1O
1J
0Q
1S
0V
14
1$
0Y
0t
1#
0B
0?
0T
1q
0;
06
0@
0*
0%
05
0$
#610000
1!
1<
1G
0u
#620000
0!
0<
0G
1u
1U
0l
0H
0S
1t
0I
0>
07
0&
#630000
1!
1<
1G
0u
#640000
0!
0<
0G
1u
0U
1l
1H
1S
1K
0t
1I
0m
0J
0S
1V
1W
1>
0i
1t
17
1?
1&
16
1@
1%
0A
15
04
1$
0#
#650000
1!
1<
1G
0u
#660000
0!
0<
0G
1u
1U
0l
0H
0I
0>
07
0&
#670000
1!
1<
1G
0u
#680000
0!
0<
0G
1u
0U
1l
1H
0K
1I
1m
1J
1S
0V
0W
1>
1N
1i
0t
0o
17
0?
0L
0S
1V
1W
1&
0i
1t
06
0@
0M
0%
1A
05
14
0$
1@
1#
0A
15
04
1$
0#
#690000
1!
1<
1G
0u
#700000
0!
0<
0G
1u
1U
0l
0H
0I
0>
07
0&
#710000
1!
1<
1G
0u
#720000
0!
0<
0G
1u
0U
1l
1H
1K
1I
0m
0J
0V
1>
17
1?
1&
16
0@
1%
05
0$
#730000
1!
1<
1G
0u
#740000
0!
0<
0G
1u
1U
0l
0H
0I
0>
07
0&
#750000
1!
1<
1G
0u
#760000
0!
0<
0G
1u
0U
1l
1H
0K
1I
1m
1J
1V
1>
0N
1o
17
0?
1L
1S
0V
0W
1&
1P
1i
0t
06
1@
1M
0%
0O
0S
1W
15
0i
1t
1$
0@
1A
05
14
0$
1#
0A
04
0#
#770000
1!
1<
1G
0u
#780000
0!
0<
0G
1u
1U
0l
0H
0I
0>
07
0&
#790000
1!
1<
1G
0u
#800000
0!
0<
0G
1u
0U
1l
1H
1K
1I
0m
0J
1Q
1V
0W
1>
1i
1T
17
1?
0q
1&
0f
16
1@
0K
0P
1j
1%
1A
1X
1m
15
0\
1O
1J
0Q
1S
0V
14
1$
1Y
0t
1k
1#
1Z
1d
0g
0h
1B
0?
1_
0T
1p
0s
1[
1q
0n
1;
06
0@
0C
0]
0d
1g
1h
1*
0%
0p
1s
05
0:
0D
0^
0$
0)
1E
09
18
0(
1D
1'
0E
19
08
1(
0'
#810000
1!
1<
1G
0u
#820000
0!
0<
0G
1u
1U
0l
0H
0S
1t
0I
0>
07
0&
#830000
1!
1<
1G
0u
#840000
0!
0<
0G
1u
0U
1l
1H
1S
1K
0t
1I
0m
0J
0S
1V
1W
1>
0i
1t
17
1?
1&
16
1@
1%
0A
15
04
1$
0#
#850000
1!
1<
1G
0u
#860000
0!
0<
0G
1u
1U
0l
0H
0I
0>
07
0&
#870000
1!
1<
1G
0u
#880000
0!
0<
0G
1u
0U
1l
1H
0K
1I
1m
1J
1S
0V
0W
1>
1N
1i
0t
0o
17
0?
0L
0S
1V
1W
1&
0i
1t
06
0@
0M
0%
1A
05
14
0$
1@
1#
0A
15
04
1$
0#
#890000
1!
1<
1G
0u
#900000
0!
0<
0G
1u
1U
0l
0H
0I
0>
07
0&
#910000
1!
1<
1G
0u
#920000
0!
0<
0G
1u
0U
1l
1H
1K
1I
0m
0J
0V
1>
17
1?
1&
16
0@
1%
05
0$
#930000
1!
1<
1G
0u
#940000
0!
0<
0G
1u
1U
0l
0H
0I
0>
07
0&
#950000
1!
1<
1G
0u
#960000
0!
0<
0G
1u
0U
1l
1H
0K
1I
1m
1J
1V
1>
0N
1o
17
0?
1L
1S
0V
0W
1&
1P
1i
0t
06
1@
1M
0%
0O
0S
1W
15
0i
1t
1$
0@
1A
05
14
0$
1#
0A
04
0#
#970000
1!
1<
1G
0u
#980000
0!
0<
0G
1u
1U
0l
0H
0I
0>
07
0&
#990000
1!
1<
1G
0u
