test/simulation/qsim/aaa.msim.vcd
$comment
	File created using the following command:
		vcd file aaa.msim.vcd -direction
$end
$date
	Sat Nov 11 12:51:05 2023
$end
$version
	ModelSim Version 10.5b
$end
$timescale
	1ps
$end

$scope module countmod16sync_vhd_vec_tst $end
$var wire 1 ! clk $end
$var wire 1 " mod8 $end
$var wire 1 # Q [3] $end
$var wire 1 $ Q [2] $end
$var wire 1 % Q [1] $end
$var wire 1 & Q [0] $end

$scope module i1 $end
$var wire 1 ' gnd $end
$var wire 1 ( vcc $end
$var wire 1 ) unknown $end
$var wire 1 * devoe $end
$var wire 1 + devclrn $end
$var wire 1 , devpor $end
$var wire 1 - ww_devoe $end
$var wire 1 . ww_devclrn $end
$var wire 1 / ww_devpor $end
$var wire 1 0 ww_clk $end
$var wire 1 1 ww_mod8 $end
$var wire 1 2 ww_Q [3] $end
$var wire 1 3 ww_Q [2] $end
$var wire 1 4 ww_Q [1] $end
$var wire 1 5 ww_Q [0] $end
$var wire 1 6 \clk~inputclkctrl_INCLK_bus\ [3] $end
$var wire 1 7 \clk~inputclkctrl_INCLK_bus\ [2] $end
$var wire 1 8 \clk~inputclkctrl_INCLK_bus\ [1] $end
$var wire 1 9 \clk~inputclkctrl_INCLK_bus\ [0] $end
$var wire 1 : \mod8~output_o\ $end
$var wire 1 ; \Q[0]~output_o\ $end
$var wire 1 < \Q[1]~output_o\ $end
$var wire 1 = \Q[2]~output_o\ $end
$var wire 1 > \Q[3]~output_o\ $end
$var wire 1 ? \clk~input_o\ $end
$var wire 1 @ \clk~inputclkctrl_outclk\ $end
$var wire 1 A \gen00:0:a00~0_combout\ $end
$var wire 1 B \gen00:0:a00~q\ $end
$var wire 1 C \gen00:1:a00~0_combout\ $end
$var wire 1 D \gen00:1:a00~q\ $end
$var wire 1 E \gen00:2:a00~0_combout\ $end
$var wire 1 F \gen00:2:a00~q\ $end
$var wire 1 G \clk_prcss:v_cmp~0_combout\ $end
$var wire 1 H \mod08dff~q\ $end
$var wire 1 I \gen00:3:a00~0_combout\ $end
$var wire 1 J \gen00:3:a00~q\ $end
$upscope $end
$upscope $end
$enddefinitions $end
#0
$dumpvars
0!
0"
0'
1(
x)
1*
1+
1,
1-
1.
1/
00
01
0:
0;
0<
0=
0>
0?
0@
1A
0B
0C
0D
0E
0F
0G
0H
0I
0J
02
03
04
05
16
17
18
09
0#
0$
0%
0&
$end
#10000
1!
10
1?
19
1@
1B
0A
1C
1;
15
1&
#20000
0!
00
0?
09
0@
#30000
1!
10
1?
19
1@
0B
1D
1A
1<
0;
14
05
0&
1%
#40000
0!
00
0?
09
0@
#50000
1!
10
1?
19
1@
1B
0A
0C
1E
1;
15
1&
#60000
0!
00
0?
09
0@
#70000
1!
10
1?
19
1@
0B
0D
1F
1A
1=
0<
0;
13
04
05
0&
0%
1$
#80000
0!
00
0?
09
0@
#90000
1!
10
1?
19
1@
1B
0A
1C
1;
15
1&
#100000
0!
00
0?
09
0@
#110000
1!
10
1?
19
1@
0B
1D
1A
1<
0;
14
05
0&
1%
#120000
0!
00
0?
09
0@
#130000
1!
10
1?
19
1@
1B
0A
0C
0E
1G
1I
1;
15
1&
#140000
0!
00
0?
09
0@
#150000
1!
10
1?
19
1@
0B
0D
0F
1H
1J
1A
0G
1>
1:
0=
0<
0;
12
11
03
04
05
0&
0%
0$
1#
1"
#160000
0!
00
0?
09
0@
#170000
1!
10
1?
19
1@
1B
0H
0A
1C
0:
1;
01
15
0"
1&
#180000
0!
00
0?
09
0@
#190000
1!
10
1?
19
1@
0B
1D
1A
1<
0;
14
05
0&
1%
#200000
0!
00
0?
09
0@
#210000
1!
10
1?
19
1@
1B
0A
0C
1E
1;
15
1&
#220000
0!
00
0?
09
0@
#230000
1!
10
1?
19
1@
0B
0D
1F
1A
1=
0<
0;
13
04
05
0&
0%
1$
#240000
0!
00
0?
09
0@
#250000
1!
10
1?
19
1@
1B
0A
1C
1;
15
1&
#260000
0!
00
0?
09
0@
#270000
1!
10
1?
19
1@
0B
1D
1A
1<
0;
14
05
0&
1%
#280000
0!
00
0?
09
0@
#290000
1!
10
1?
19
1@
1B
0A
0C
0E
1G
0I
1;
15
1&
#300000
0!
00
0?
09
0@
#310000
1!
10
1?
19
1@
0B
0D
0F
1H
0J
1A
0G
0>
1:
0=
0<
0;
02
11
03
04
05
0&
0%
0$
0#
1"
#320000
0!
00
0?
09
0@
#330000
1!
10
1?
19
1@
1B
0H
0A
1C
0:
1;
01
15
0"
1&
#340000
0!
00
0?
09
0@
#350000
1!
10
1?
19
1@
0B
1D
1A
1<
0;
14
05
0&
1%
#360000
0!
00
0?
09
0@
#370000
1!
10
1?
19
1@
1B
0A
0C
1E
1;
15
1&
#380000
0!
00
0?
09
0@
#390000
1!
10
1?
19
1@
0B
0D
1F
1A
1=
0<
0;
13
04
05
0&
0%
1$
#400000
0!
00
0?
09
0@
#410000
1!
10
1?
19
1@
1B
0A
1C
1;
15
1&
#420000
0!
00
0?
09
0@
#430000
1!
10
1?
19
1@
0B
1D
1A
1<
0;
14
05
0&
1%
#440000
0!
00
0?
09
0@
#450000
1!
10
1?
19
1@
1B
0A
0C
0E
1G
1I
1;
15
1&
#460000
0!
00
0?
09
0@
#470000
1!
10
1?
19
1@
0B
0D
0F
1H
1J
1A
0G
1>
1:
0=
0<
0;
12
11
03
04
05
0&
0%
0$
1#
1"
#480000
0!
00
0?
09
0@
#490000
1!
10
1?
19
1@
1B
0H
0A
1C
0:
1;
01
15
0"
1&
#500000
0!
00
0?
09
0@
#510000
1!
10
1?
19
1@
0B
1D
1A
1<
0;
14
05
0&
1%
#520000
0!
00
0?
09
0@
#530000
1!
10
1?
19
1@
1B
0A
0C
1E
1;
15
1&
#540000
0!
00
0?
09
0@
#550000
1!
10
1?
19
1@
0B
0D
1F
1A
1=
0<
0;
13
04
05
0&
0%
1$
#560000
0!
00
0?
09
0@
#570000
1!
10
1?
19
1@
1B
0A
1C
1;
15
1&
#580000
0!
00
0?
09
0@
#590000
1!
10
1?
19
1@
0B
1D
1A
1<
0;
14
05
0&
1%
#600000
0!
00
0?
09
0@
#610000
1!
10
1?
19
1@
1B
0A
0C
0E
1G
0I
1;
15
1&
#620000
0!
00
0?
09
0@
#630000
1!
10
1?
19
1@
0B
0D
0F
1H
0J
1A
0G
0>
1:
0=
0<
0;
02
11
03
04
05
0&
0%
0$
0#
1"
#640000
0!
00
0?
09
0@
#650000
1!
10
1?
19
1@
1B
0H
0A
1C
0:
1;
01
15
0"
1&
#660000
0!
00
0?
09
0@
#670000
1!
10
1?
19
1@
0B
1D
1A
1<
0;
14
05
0&
1%
#680000
0!
00
0?
09
0@
#690000
1!
10
1?
19
1@
1B
0A
0C
1E
1;
15
1&
#700000
0!
00
0?
09
0@
#710000
1!
10
1?
19
1@
0B
0D
1F
1A
1=
0<
0;
13
04
05
0&
0%
1$
#720000
0!
00
0?
09
0@
#730000
1!
10
1?
19
1@
1B
0A
1C
1;
15
1&
#740000
0!
00
0?
09
0@
#750000
1!
10
1?
19
1@
0B
1D
1A
1<
0;
14
05
0&
1%
#760000
0!
00
0?
09
0@
#770000
1!
10
1?
19
1@
1B
0A
0C
0E
1G
1I
1;
15
1&
#780000
0!
00
0?
09
0@
#790000
1!
10
1?
19
1@
0B
0D
0F
1H
1J
1A
0G
1>
1:
0=
0<
0;
12
11
03
04
05
0&
0%
0$
1#
1"
#800000
0!
00
0?
09
0@
#810000
1!
10
1?
19
1@
1B
0H
0A
1C
0:
1;
01
15
0"
1&
#820000
0!
00
0?
09
0@
#830000
1!
10
1?
19
1@
0B
1D
1A
1<
0;
14
05
0&
1%
#840000
0!
00
0?
09
0@
#850000
1!
10
1?
19
1@
1B
0A
0C
1E
1;
15
1&
#860000
0!
00
0?
09
0@
#870000
1!
10
1?
19
1@
0B
0D
1F
1A
1=
0<
0;
13
04
05
0&
0%
1$
#880000
0!
00
0?
09
0@
#890000
1!
10
1?
19
1@
1B
0A
1C
1;
15
1&
#900000
0!
00
0?
09
0@
#910000
1!
10
1?
19
1@
0B
1D
1A
1<
0;
14
05
0&
1%
#920000
0!
00
0?
09
0@
#930000
1!
10
1?
19
1@
1B
0A
0C
0E
1G
0I
1;
15
1&
#940000
0!
00
0?
09
0@
#950000
1!
10
1?
19
1@
0B
0D
0F
1H
0J
1A
0G
0>
1:
0=
0<
0;
02
11
03
04
05
0&
0%
0$
0#
1"
#960000
0!
00
0?
09
0@
#970000
1!
10
1?
19
1@
1B
0H
0A
1C
0:
1;
01
15
0"
1&
#980000
0!
00
0?
09
0@
#990000
1!
10
1?
19
1@
0B
1D
1A
1<
0;
14
05
0&
1%
