lab_07/simulation/qsim/lab_07.msim.vcd
$comment
	File created using the following command:
		vcd file lab_07.msim.vcd -direction
$end
$date
	Thu Nov 23 13:32:55 2023
$end
$version
	ModelSim Version 10.5b
$end
$timescale
	1ps
$end

$scope module lab_07var_vhd_vec_tst $end
$var wire 1 ! A0 [3] $end
$var wire 1 " A0 [2] $end
$var wire 1 # A0 [1] $end
$var wire 1 $ A0 [0] $end
$var wire 1 % A1 [3] $end
$var wire 1 & A1 [2] $end
$var wire 1 ' A1 [1] $end
$var wire 1 ( A1 [0] $end
$var wire 1 ) B0 [3] $end
$var wire 1 * B0 [2] $end
$var wire 1 + B0 [1] $end
$var wire 1 , B0 [0] $end
$var wire 1 - B1 [3] $end
$var wire 1 . B1 [2] $end
$var wire 1 / B1 [1] $end
$var wire 1 0 B1 [0] $end
$var wire 1 1 C0 [3] $end
$var wire 1 2 C0 [2] $end
$var wire 1 3 C0 [1] $end
$var wire 1 4 C0 [0] $end
$var wire 1 5 clk_dbg $end
$var wire 1 6 clk_ref $end
$var wire 1 7 PB0 $end
$var wire 1 8 PB1 $end
$var wire 1 9 Q0det [3] $end
$var wire 1 : Q0det [2] $end
$var wire 1 ; Q0det [1] $end
$var wire 1 < Q0det [0] $end
$var wire 1 = QSIPO [7] $end
$var wire 1 > QSIPO [6] $end
$var wire 1 ? QSIPO [5] $end
$var wire 1 @ QSIPO [4] $end
$var wire 1 A QSIPO [3] $end
$var wire 1 B QSIPO [2] $end
$var wire 1 C QSIPO [1] $end
$var wire 1 D QSIPO [0] $end
$var wire 1 E regDete [3] $end
$var wire 1 F regDete [2] $end
$var wire 1 G regDete [1] $end
$var wire 1 H regDete [0] $end
$var wire 1 I seqDetout $end
$var wire 1 J SSo $end

$scope module i1 $end
$var wire 1 K gnd $end
$var wire 1 L vcc $end
$var wire 1 M unknown $end
$var wire 1 N devoe $end
$var wire 1 O devclrn $end
$var wire 1 P devpor $end
$var wire 1 Q ww_devoe $end
$var wire 1 R ww_devclrn $end
$var wire 1 S ww_devpor $end
$var wire 1 T ww_clk_ref $end
$var wire 1 U ww_clk_dbg $end
$var wire 1 V ww_PB0 $end
$var wire 1 W ww_PB1 $end
$var wire 1 X ww_seqDetout $end
$var wire 1 Y ww_SSo $end
$var wire 1 Z ww_QSIPO [7] $end
$var wire 1 [ ww_QSIPO [6] $end
$var wire 1 \ ww_QSIPO [5] $end
$var wire 1 ] ww_QSIPO [4] $end
$var wire 1 ^ ww_QSIPO [3] $end
$var wire 1 _ ww_QSIPO [2] $end
$var wire 1 ` ww_QSIPO [1] $end
$var wire 1 a ww_QSIPO [0] $end
$var wire 1 b ww_A0 [3] $end
$var wire 1 c ww_A0 [2] $end
$var wire 1 d ww_A0 [1] $end
$var wire 1 e ww_A0 [0] $end
$var wire 1 f ww_A1 [3] $end
$var wire 1 g ww_A1 [2] $end
$var wire 1 h ww_A1 [1] $end
$var wire 1 i ww_A1 [0] $end
$var wire 1 j ww_B0 [3] $end
$var wire 1 k ww_B0 [2] $end
$var wire 1 l ww_B0 [1] $end
$var wire 1 m ww_B0 [0] $end
$var wire 1 n ww_B1 [3] $end
$var wire 1 o ww_B1 [2] $end
$var wire 1 p ww_B1 [1] $end
$var wire 1 q ww_B1 [0] $end
$var wire 1 r ww_C0 [3] $end
$var wire 1 s ww_C0 [2] $end
$var wire 1 t ww_C0 [1] $end
$var wire 1 u ww_C0 [0] $end
$var wire 1 v ww_Q0det [3] $end
$var wire 1 w ww_Q0det [2] $end
$var wire 1 x ww_Q0det [1] $end
$var wire 1 y ww_Q0det [0] $end
$var wire 1 z ww_regDete [3] $end
$var wire 1 { ww_regDete [2] $end
$var wire 1 | ww_regDete [1] $end
$var wire 1 } ww_regDete [0] $end
$var wire 1 ~ \romcomp|altsyncram_component|auto_generated|ram_block1a0_PORTAADDR_bus\ [7] $end
$var wire 1 !! \romcomp|altsyncram_component|auto_generated|ram_block1a0_PORTAADDR_bus\ [6] $end
$var wire 1 "! \romcomp|altsyncram_component|auto_generated|ram_block1a0_PORTAADDR_bus\ [5] $end
$var wire 1 #! \romcomp|altsyncram_component|auto_generated|ram_block1a0_PORTAADDR_bus\ [4] $end
$var wire 1 $! \romcomp|altsyncram_component|auto_generated|ram_block1a0_PORTAADDR_bus\ [3] $end
$var wire 1 %! \romcomp|altsyncram_component|auto_generated|ram_block1a0_PORTAADDR_bus\ [2] $end
$var wire 1 &! \romcomp|altsyncram_component|auto_generated|ram_block1a0_PORTAADDR_bus\ [1] $end
$var wire 1 '! \romcomp|altsyncram_component|auto_generated|ram_block1a0_PORTAADDR_bus\ [0] $end
$var wire 1 (! \romcomp|altsyncram_component|auto_generated|ram_block1a0_PORTADATAOUT_bus\ [17] $end
$var wire 1 )! \romcomp|altsyncram_component|auto_generated|ram_block1a0_PORTADATAOUT_bus\ [16] $end
$var wire 1 *! \romcomp|altsyncram_component|auto_generated|ram_block1a0_PORTADATAOUT_bus\ [15] $end
$var wire 1 +! \romcomp|altsyncram_component|auto_generated|ram_block1a0_PORTADATAOUT_bus\ [14] $end
$var wire 1 ,! \romcomp|altsyncram_component|auto_generated|ram_block1a0_PORTADATAOUT_bus\ [13] $end
$var wire 1 -! \romcomp|altsyncram_component|auto_generated|ram_block1a0_PORTADATAOUT_bus\ [12] $end
$var wire 1 .! \romcomp|altsyncram_component|auto_generated|ram_block1a0_PORTADATAOUT_bus\ [11] $end
$var wire 1 /! \romcomp|altsyncram_component|auto_generated|ram_block1a0_PORTADATAOUT_bus\ [10] $end
$var wire 1 0! \romcomp|altsyncram_component|auto_generated|ram_block1a0_PORTADATAOUT_bus\ [9] $end
$var wire 1 1! \romcomp|altsyncram_component|auto_generated|ram_block1a0_PORTADATAOUT_bus\ [8] $end
$var wire 1 2! \romcomp|altsyncram_component|auto_generated|ram_block1a0_PORTADATAOUT_bus\ [7] $end
$var wire 1 3! \romcomp|altsyncram_component|auto_generated|ram_block1a0_PORTADATAOUT_bus\ [6] $end
$var wire 1 4! \romcomp|altsyncram_component|auto_generated|ram_block1a0_PORTADATAOUT_bus\ [5] $end
$var wire 1 5! \romcomp|altsyncram_component|auto_generated|ram_block1a0_PORTADATAOUT_bus\ [4] $end
$var wire 1 6! \romcomp|altsyncram_component|auto_generated|ram_block1a0_PORTADATAOUT_bus\ [3] $end
$var wire 1 7! \romcomp|altsyncram_component|auto_generated|ram_block1a0_PORTADATAOUT_bus\ [2] $end
$var wire 1 8! \romcomp|altsyncram_component|auto_generated|ram_block1a0_PORTADATAOUT_bus\ [1] $end
$var wire 1 9! \romcomp|altsyncram_component|auto_generated|ram_block1a0_PORTADATAOUT_bus\ [0] $end
$var wire 1 :! \PB1~inputclkctrl_INCLK_bus\ [3] $end
$var wire 1 ;! \PB1~inputclkctrl_INCLK_bus\ [2] $end
$var wire 1 <! \PB1~inputclkctrl_INCLK_bus\ [1] $end
$var wire 1 =! \PB1~inputclkctrl_INCLK_bus\ [0] $end
$var wire 1 >! \clk0~clkctrl_INCLK_bus\ [3] $end
$var wire 1 ?! \clk0~clkctrl_INCLK_bus\ [2] $end
$var wire 1 @! \clk0~clkctrl_INCLK_bus\ [1] $end
$var wire 1 A! \clk0~clkctrl_INCLK_bus\ [0] $end
$var wire 1 B! \clk_ref~input_o\ $end
$var wire 1 C! \seqDetout~output_o\ $end
$var wire 1 D! \SSo~output_o\ $end
$var wire 1 E! \QSIPO[0]~output_o\ $end
$var wire 1 F! \QSIPO[1]~output_o\ $end
$var wire 1 G! \QSIPO[2]~output_o\ $end
$var wire 1 H! \QSIPO[3]~output_o\ $end
$var wire 1 I! \QSIPO[4]~output_o\ $end
$var wire 1 J! \QSIPO[5]~output_o\ $end
$var wire 1 K! \QSIPO[6]~output_o\ $end
$var wire 1 L! \QSIPO[7]~output_o\ $end
$var wire 1 M! \A0[0]~output_o\ $end
$var wire 1 N! \A0[1]~output_o\ $end
$var wire 1 O! \A0[2]~output_o\ $end
$var wire 1 P! \A0[3]~output_o\ $end
$var wire 1 Q! \A1[0]~output_o\ $end
$var wire 1 R! \A1[1]~output_o\ $end
$var wire 1 S! \A1[2]~output_o\ $end
$var wire 1 T! \A1[3]~output_o\ $end
$var wire 1 U! \B0[0]~output_o\ $end
$var wire 1 V! \B0[1]~output_o\ $end
$var wire 1 W! \B0[2]~output_o\ $end
$var wire 1 X! \B0[3]~output_o\ $end
$var wire 1 Y! \B1[0]~output_o\ $end
$var wire 1 Z! \B1[1]~output_o\ $end
$var wire 1 [! \B1[2]~output_o\ $end
$var wire 1 \! \B1[3]~output_o\ $end
$var wire 1 ]! \C0[0]~output_o\ $end
$var wire 1 ^! \C0[1]~output_o\ $end
$var wire 1 _! \C0[2]~output_o\ $end
$var wire 1 `! \C0[3]~output_o\ $end
$var wire 1 a! \Q0det[0]~output_o\ $end
$var wire 1 b! \Q0det[1]~output_o\ $end
$var wire 1 c! \Q0det[2]~output_o\ $end
$var wire 1 d! \Q0det[3]~output_o\ $end
$var wire 1 e! \regDete[0]~output_o\ $end
$var wire 1 f! \regDete[1]~output_o\ $end
$var wire 1 g! \regDete[2]~output_o\ $end
$var wire 1 h! \regDete[3]~output_o\ $end
$var wire 1 i! \clk_dbg~input_o\ $end
$var wire 1 j! \pseSystem~0_combout\ $end
$var wire 1 k! \PB1~input_o\ $end
$var wire 1 l! \PB0~input_o\ $end
$var wire 1 m! \comb~1_combout\ $end
$var wire 1 n! \pseSystem~q\ $end
$var wire 1 o! \clk0~combout\ $end
$var wire 1 p! \clk0~clkctrl_outclk\ $end
$var wire 1 q! \counter11bit1|gen00:0:a00~0_combout\ $end
$var wire 1 r! \PB1~inputclkctrl_outclk\ $end
$var wire 1 s! \counter11bit1|gen00:0:a00~q\ $end
$var wire 1 t! \counter11bit1|gen00:1:a00~0_combout\ $end
$var wire 1 u! \counter11bit1|gen00:1:a00~q\ $end
$var wire 1 v! \counter11bit1|gen00:2:a00~0_combout\ $end
$var wire 1 w! \counter11bit1|gen00:2:a00~q\ $end
$var wire 1 x! \counter11bit1|comb~0_combout\ $end
$var wire 1 y! \counter11bit1|mod08dff~feeder_combout\ $end
$var wire 1 z! \counter11bit1|mod08dff~q\ $end
$var wire 1 {! \counter11bit0|gen00:0:a00~0_combout\ $end
$var wire 1 |! \counter11bit0|gen00:0:a00~q\ $end
$var wire 1 }! \counter11bit0|gen00:1:a00~0_combout\ $end
$var wire 1 ~! \counter11bit0|gen00:1:a00~q\ $end
$var wire 1 !" \counter11bit0|gen00:2:a00~0_combout\ $end
$var wire 1 "" \counter11bit0|gen00:2:a00~q\ $end
$var wire 1 #" \counter11bit0|gen00:3:a00~0_combout\ $end
$var wire 1 $" \counter11bit0|gen00:3:a00~q\ $end
$var wire 1 %" \counter11bit0|v_cmp~0_combout\ $end
$var wire 1 &" \counter11bit0|gen00:4:a00~0_combout\ $end
$var wire 1 '" \counter11bit0|gen00:4:a00~q\ $end
$var wire 1 (" \counter11bit0|gen00:5:a00~0_combout\ $end
$var wire 1 )" \counter11bit0|gen00:5:a00~q\ $end
$var wire 1 *" \counter11bit0|gen00:6:a00~0_combout\ $end
$var wire 1 +" \counter11bit0|gen00:6:a00~q\ $end
$var wire 1 ," \counter11bit0|v_cmp~1_combout\ $end
$var wire 1 -" \counter11bit0|gen00:7:a00~0_combout\ $end
$var wire 1 ." \counter11bit0|gen00:7:a00~q\ $end
$var wire 1 /" \counter11bit0|gen00:8:a00~0_combout\ $end
$var wire 1 0" \counter11bit0|gen00:8:a00~q\ $end
$var wire 1 1" \counter11bit0|gen00:9:a00~0_combout\ $end
$var wire 1 2" \counter11bit0|gen00:9:a00~q\ $end
$var wire 1 3" \counter11bit0|clk_prcss:v_cmp~0_combout\ $end
$var wire 1 4" \counter11bit0|clk_prcss:v_cmp~1_combout\ $end
$var wire 1 5" \counter11bit0|gen00:10:a00~0_combout\ $end
$var wire 1 6" \counter11bit0|gen00:10:a00~q\ $end
$var wire 1 7" \~QUARTUS_CREATED_GND~I_combout\ $end
$var wire 1 8" \PISO00|DM_s~7_combout\ $end
$var wire 1 9" \PISO00|gen00:0:aa01~q\ $end
$var wire 1 :" \PISO00|DM_s[1]~6_combout\ $end
$var wire 1 ;" \PISO00|gen00:1:aa01~q\ $end
$var wire 1 <" \PISO00|DM_s[2]~5_combout\ $end
$var wire 1 =" \PISO00|gen00:2:aa01~q\ $end
$var wire 1 >" \PISO00|DM_s[3]~4_combout\ $end
$var wire 1 ?" \PISO00|gen00:3:aa01~q\ $end
$var wire 1 @" \PISO00|DM_s[4]~3_combout\ $end
$var wire 1 A" \PISO00|gen00:4:aa01~q\ $end
$var wire 1 B" \PISO00|DM_s[5]~2_combout\ $end
$var wire 1 C" \PISO00|gen00:5:aa01~q\ $end
$var wire 1 D" \PISO00|DM_s[6]~1_combout\ $end
$var wire 1 E" \PISO00|gen00:6:aa01~q\ $end
$var wire 1 F" \PISO00|DM_s[7]~0_combout\ $end
$var wire 1 G" \PISO00|gen00:7:aa01~q\ $end
$var wire 1 H" \seqdet|D_s[0]~0_combout\ $end
$var wire 1 I" \comb~0_combout\ $end
$var wire 1 J" \seqdet|gen00:0:ffi0~q\ $end
$var wire 1 K" \seqdet|D_s[1]~1_combout\ $end
$var wire 1 L" \seqdet|gen00:1:ffi0~q\ $end
$var wire 1 M" \seqdet|gen00:2:ffi0~q\ $end
$var wire 1 N" \PIPOstt0|gen00:2:aa00~q\ $end
$var wire 1 O" \PIPOstt0|gen00:1:aa00~feeder_combout\ $end
$var wire 1 P" \PIPOstt0|gen00:1:aa00~q\ $end
$var wire 1 Q" \PIPOstt0|gen00:0:aa00~feeder_combout\ $end
$var wire 1 R" \PIPOstt0|gen00:0:aa00~q\ $end
$var wire 1 S" \SeqDetected~0_combout\ $end
$var wire 1 T" \SeqDetected~combout\ $end
$var wire 1 U" \SIPO00|gen00:0:aa00~feeder_combout\ $end
$var wire 1 V" \SIPO00|gen00:0:aa00~q\ $end
$var wire 1 W" \SIPO00|gen00:1:aa00~feeder_combout\ $end
$var wire 1 X" \SIPO00|gen00:1:aa00~q\ $end
$var wire 1 Y" \SIPO00|gen00:2:aa00~feeder_combout\ $end
$var wire 1 Z" \SIPO00|gen00:2:aa00~q\ $end
$var wire 1 [" \SIPO00|gen00:3:aa00~feeder_combout\ $end
$var wire 1 \" \SIPO00|gen00:3:aa00~q\ $end
$var wire 1 ]" \SIPO00|gen00:4:aa00~feeder_combout\ $end
$var wire 1 ^" \SIPO00|gen00:4:aa00~q\ $end
$var wire 1 _" \SIPO00|gen00:5:aa00~feeder_combout\ $end
$var wire 1 `" \SIPO00|gen00:5:aa00~q\ $end
$var wire 1 a" \SIPO00|gen00:6:aa00~feeder_combout\ $end
$var wire 1 b" \SIPO00|gen00:6:aa00~q\ $end
$var wire 1 c" \SIPO00|gen00:7:aa00~feeder_combout\ $end
$var wire 1 d" \SIPO00|gen00:7:aa00~q\ $end
$var wire 1 e" \PIPOAdd|gen00:0:aa00~feeder_combout\ $end
$var wire 1 f" \PIPOAdd|gen00:0:aa00~q\ $end
$var wire 1 g" \PIPOAdd|gen00:1:aa00~feeder_combout\ $end
$var wire 1 h" \PIPOAdd|gen00:1:aa00~q\ $end
$var wire 1 i" \PIPOAdd|gen00:2:aa00~q\ $end
$var wire 1 j" \PIPOAdd|gen00:3:aa00~feeder_combout\ $end
$var wire 1 k" \PIPOAdd|gen00:3:aa00~q\ $end
$var wire 1 l" \PIPOAdd|gen00:4:aa00~feeder_combout\ $end
$var wire 1 m" \PIPOAdd|gen00:4:aa00~q\ $end
$var wire 1 n" \PIPOAdd|gen00:5:aa00~feeder_combout\ $end
$var wire 1 o" \PIPOAdd|gen00:5:aa00~q\ $end
$var wire 1 p" \PIPOAdd|gen00:6:aa00~feeder_combout\ $end
$var wire 1 q" \PIPOAdd|gen00:6:aa00~q\ $end
$var wire 1 r" \PIPOAdd|gen00:7:aa00~feeder_combout\ $end
$var wire 1 s" \PIPOAdd|gen00:7:aa00~q\ $end
$var wire 1 t" \PIPOmem|gen00:0:aa00~feeder_combout\ $end
$var wire 1 u" \PIPOmem|gen00:0:aa00~q\ $end
$var wire 1 v" \PIPOmem|gen00:1:aa00~feeder_combout\ $end
$var wire 1 w" \PIPOmem|gen00:1:aa00~q\ $end
$var wire 1 x" \PIPOmem|gen00:2:aa00~feeder_combout\ $end
$var wire 1 y" \PIPOmem|gen00:2:aa00~q\ $end
$var wire 1 z" \PIPOmem|gen00:3:aa00~feeder_combout\ $end
$var wire 1 {" \PIPOmem|gen00:3:aa00~q\ $end
$var wire 1 |" \PIPOmem|gen00:4:aa00~feeder_combout\ $end
$var wire 1 }" \PIPOmem|gen00:4:aa00~q\ $end
$var wire 1 ~" \PIPOmem|gen00:5:aa00~feeder_combout\ $end
$var wire 1 !# \PIPOmem|gen00:5:aa00~q\ $end
$var wire 1 "# \PIPOmem|gen00:6:aa00~feeder_combout\ $end
$var wire 1 ## \PIPOmem|gen00:6:aa00~q\ $end
$var wire 1 $# \PIPOmem|gen00:7:aa00~feeder_combout\ $end
$var wire 1 %# \PIPOmem|gen00:7:aa00~q\ $end
$var wire 1 &# \nOfSeqDetec|gen00:0:a00~0_combout\ $end
$var wire 1 '# \nOfSeqDetec|gen00:0:a00~feeder_combout\ $end
$var wire 1 (# \nOfSeqDetec|gen00:0:a00~q\ $end
$var wire 1 )# \nOfSeqDetec|gen00:1:a00~0_combout\ $end
$var wire 1 *# \nOfSeqDetec|gen00:1:a00~feeder_combout\ $end
$var wire 1 +# \nOfSeqDetec|gen00:1:a00~q\ $end
$var wire 1 ,# \nOfSeqDetec|gen00:2:a00~0_combout\ $end
$var wire 1 -# \nOfSeqDetec|gen00:2:a00~feeder_combout\ $end
$var wire 1 .# \nOfSeqDetec|gen00:2:a00~q\ $end
$var wire 1 /# \nOfSeqDetec|gen00:3:a00~0_combout\ $end
$var wire 1 0# \nOfSeqDetec|gen00:3:a00~q\ $end
$var wire 1 1# \seqdet|D_s\ [2] $end
$var wire 1 2# \seqdet|D_s\ [1] $end
$var wire 1 3# \seqdet|D_s\ [0] $end
$var wire 1 4# \romcomp|altsyncram_component|auto_generated|q_a\ [7] $end
$var wire 1 5# \romcomp|altsyncram_component|auto_generated|q_a\ [6] $end
$var wire 1 6# \romcomp|altsyncram_component|auto_generated|q_a\ [5] $end
$var wire 1 7# \romcomp|altsyncram_component|auto_generated|q_a\ [4] $end
$var wire 1 8# \romcomp|altsyncram_component|auto_generated|q_a\ [3] $end
$var wire 1 9# \romcomp|altsyncram_component|auto_generated|q_a\ [2] $end
$var wire 1 :# \romcomp|altsyncram_component|auto_generated|q_a\ [1] $end
$var wire 1 ;# \romcomp|altsyncram_component|auto_generated|q_a\ [0] $end
$var wire 1 <# \ALT_INV_clk0~combout\ $end
$var wire 1 =# \ALT_INV_comb~0_combout\ $end
$var wire 1 ># \nOfSeqDetec|ALT_INV_gen00:2:a00~q\ $end
$var wire 1 ?# \nOfSeqDetec|ALT_INV_gen00:1:a00~q\ $end
$var wire 1 @# \nOfSeqDetec|ALT_INV_gen00:0:a00~q\ $end
$var wire 1 A# \ALT_INV_clk0~clkctrl_outclk\ $end
$var wire 1 B# \ALT_INV_PB1~inputclkctrl_outclk\ $end
$var wire 1 C# \ALT_INV_comb~1_combout\ $end
$upscope $end
$upscope $end
$enddefinitions $end
#0
$dumpvars
05
06
17
18
0I
0J
0K
1L
xM
1N
1O
1P
1Q
1R
1S
0T
0U
1V
1W
0X
0Y
0B!
0C!
0D!
0E!
0F!
0G!
0H!
0I!
0J!
0K!
0L!
0M!
0N!
0O!
0P!
0Q!
0R!
0S!
0T!
0U!
0V!
0W!
0X!
0Y!
0Z!
0[!
0\!
0]!
0^!
0_!
0`!
0a!
0b!
0c!
0d!
0e!
0f!
0g!
0h!
0i!
1j!
1k!
1l!
0m!
0n!
0o!
0p!
1q!
1r!
0s!
0t!
0u!
0v!
0w!
0x!
0y!
0z!
1{!
0|!
0}!
0~!
0!"
0""
0#"
0$"
0%"
0&"
0'"
0("
0)"
0*"
0+"
0,"
0-"
0."
0/"
00"
01"
02"
03"
04"
05"
06"
07"
08"
09"
0:"
0;"
0<"
0="
0>"
0?"
0@"
0A"
0B"
0C"
0D"
0E"
0F"
0G"
1H"
0I"
0J"
0K"
0L"
0M"
0N"
0O"
0P"
0Q"
0R"
0S"
0T"
0U"
0V"
0W"
0X"
0Y"
0Z"
0["
0\"
0]"
0^"
0_"
0`"
0a"
0b"
0c"
0d"
0e"
0f"
0g"
0h"
0i"
0j"
0k"
0l"
0m"
0n"
0o"
0p"
0q"
0r"
0s"
0t"
0u"
0v"
0w"
0x"
0y"
0z"
0{"
0|"
0}"
0~"
0!#
0"#
0##
0$#
0%#
1&#
1'#
0(#
1)#
1*#
0+#
1,#
1-#
0.#
1/#
00#
1<#
1=#
1>#
1?#
1@#
1A#
0B#
1C#
0~
0!!
0"!
0#!
0$!
0%!
0&!
0'!
0Z
0[
0\
0]
0^
0_
0`
0a
0b
0c
0d
0e
0f
0g
0h
0i
0j
0k
0l
0m
0n
0o
0p
0q
0r
0s
0t
0u
0v
0w
0x
0y
0z
0{
0|
0}
0(!
0)!
0*!
0+!
0,!
0-!
0.!
0/!
00!
01!
02!
03!
04!
05!
06!
07!
08!
09!
01#
x2#
x3#
04#
05#
06#
07#
08#
09#
0:#
0;#
1>!
1?!
1@!
0A!
1:!
1;!
1<!
1=!
0!
0"
0#
0$
0%
0&
0'
0(
0)
0*
0+
0,
0-
0.
0/
00
01
02
03
04
09
0:
0;
0<
0=
0>
0?
0@
0A
0B
0C
0D
0E
0F
0G
0H
$end
#10000
15
1U
1i!
1o!
0<#
1A!
1J"
0H"
1K"
1Q"
1p!
0A#
1]!
1|!
1u
0{!
1}!
14
#20000
05
0U
0i!
0o!
1<#
0A!
0p!
1A#
1s!
1R"
0q!
1t!
1e!
1}
1H
#30000
15
1U
1i!
1o!
0<#
1A!
0J"
1L"
1O"
1H"
0Q"
1p!
0A#
1^!
0]!
0|!
1~!
1t
0u
1{!
04
13
#40000
05
0U
0i!
0o!
1<#
0A!
1P"
0p!
1A#
1f!
0s!
1u!
0R"
1|
1q!
1G
0e!
0}
0H
#50000
15
1U
1i!
1o!
0<#
1A!
1J"
1Q"
1p!
0A#
1]!
1|!
1u
0{!
0}!
1!"
14
#60000
05
0U
0i!
0o!
1<#
0A!
0p!
1A#
1s!
1R"
0q!
0t!
1v!
1e!
1}
1H
#70000
15
1U
1i!
1o!
0<#
1A!
1p!
0A#
0|!
0~!
1""
1{!
#80000
05
0U
0i!
0o!
1<#
0A!
0p!
1A#
0s!
0u!
1w!
1q!
#90000
15
1U
1i!
1o!
0<#
1A!
1p!
0A#
1|!
0{!
1}!
#100000
05
0U
0i!
0o!
1<#
0A!
0p!
1A#
1s!
0q!
1t!
#110000
15
1U
1i!
1o!
0<#
1A!
1p!
0A#
0|!
1~!
1{!
#120000
05
0U
0i!
0o!
1<#
0A!
0p!
1A#
0s!
1u!
1q!
#130000
15
1U
1i!
1o!
0<#
1A!
1p!
0A#
1|!
0{!
0}!
0!"
1#"
#140000
05
0U
0i!
0o!
1<#
0A!
0p!
1A#
1s!
0q!
0t!
0v!
1x!
1y!
#150000
15
1U
1i!
1o!
0<#
1A!
1p!
0A#
0|!
0~!
0""
1$"
1'!
1e"
1{!
#160000
05
0U
0i!
0o!
1<#
0A!
0p!
1A#
0s!
0u!
0w!
1z!
1I"
1q!
0x!
0=#
0y!
0J"
0L"
0O"
0K"
0Q"
0^!
0]!
0t
0u
04
03
#170000
15
1U
1i!
1o!
0<#
1A!
1p!
0A#
1|!
1f"
0{!
1}!
1M!
1e
1$
#170500
19!
18!
17!
16!
15!
1;#
1:#
19#
18#
17#
1@"
1|"
1>"
1z"
1<"
1x"
1:"
1v"
18"
1t"
#180000
05
0U
0i!
0o!
1<#
0A!
0P"
0p!
1A#
0f!
1s!
0z!
19"
1;"
1="
1?"
1A"
0R"
1u"
1w"
1y"
1{"
1}"
0|
08"
1B"
0I"
0q!
1t!
0G
1=#
1Y!
1X!
1W!
1V!
1U!
0e!
1q
1j
1k
1l
1m
0}
10
1,
1+
1*
1)
0H
#190000
15
1U
1i!
1o!
0<#
1A!
1J"
0H"
1K"
1Q"
1p!
0A#
1]!
0|!
1~!
1u
1{!
14
#200000
05
0U
0i!
0o!
1<#
0A!
0p!
1A#
0s!
1u!
09"
1C"
1R"
1D"
0:"
1q!
1e!
1}
1H
#210000
15
1U
1i!
1o!
0<#
1A!
0J"
1L"
1O"
1H"
0Q"
1p!
0A#
1^!
0]!
1|!
1t
0u
0{!
0}!
1!"
04
13
#220000
05
0U
0i!
0o!
1<#
0A!
1P"
0p!
1A#
1f!
1s!
0;"
1E"
0R"
1|
1F"
0<"
0q!
0t!
1v!
1G
0e!
0}
0H
#230000
15
1U
1i!
1o!
0<#
1A!
1J"
1Q"
1p!
0A#
1]!
0|!
0~!
1""
1u
1{!
14
#240000
05
0U
0i!
0o!
1<#
0A!
0p!
1A#
0s!
0u!
1w!
0="
1G"
1R"
0H"
0K"
11#
1U"
0>"
1q!
1e!
1D!
1}
1Y
1H
1J
#250000
15
1U
1i!
1o!
0<#
1A!
0J"
0L"
1M"
0O"
01#
0Q"
1p!
0A#
1_!
0^!
0]!
1|!
1V"
1s
0t
0u
1W"
0{!
1}!
04
03
12
1E!
1a
1D
#260000
05
0U
0i!
0o!
1<#
0A!
1N"
0P"
0p!
1A#
0f!
1g!
1s!
0?"
0R"
0|
1{
0@"
0q!
1t!
0G
1F
0e!
0}
0H
#270000
15
1U
1i!
1o!
0<#
1A!
0M"
1p!
0A#
0_!
0|!
1~!
1X"
0s
1Y"
1{!
02
1F!
1`
1C
#280000
05
0U
0i!
0o!
1<#
0A!
0N"
0p!
1A#
0g!
0s!
1u!
0A"
0{
0B"
1q!
0F
#290000
15
1U
1i!
1o!
0<#
1A!
1p!
0A#
1|!
1Z"
1["
0{!
0}!
0!"
0#"
1%"
1&"
1G!
1_
1B
#300000
05
0U
0i!
0o!
1<#
0A!
0p!
1A#
1s!
0C"
0D"
0q!
0t!
0v!
1x!
1y!
#310000
15
1U
1i!
1o!
0<#
1A!
1p!
0A#
0|!
0~!
0""
0$"
1'"
1\"
0'!
1&!
1]"
0&"
1("
1g"
0e"
1{!
0%"
1&"
0("
1H!
1^
1A
#320000
05
0U
0i!
0o!
1<#
0A!
0p!
1A#
0s!
0u!
0w!
1z!
0E"
18"
1:"
1<"
1>"
1@"
0F"
1I"
1q!
0x!
0=#
0y!
#330000
15
1U
1i!
1o!
0<#
1A!
1p!
0A#
1|!
1^"
0f"
1h"
1_"
0{!
1}!
1N!
0M!
1I!
1d
0e
1]
0$
1#
1@
#330500
09!
08!
07!
06!
05!
14!
0;#
0:#
09#
08#
07#
16#
1B"
1~"
0@"
0|"
0>"
0z"
0<"
0x"
0:"
0v"
08"
0t"
#340000
05
0U
0i!
0o!
1<#
0A!
0p!
1A#
1s!
0z!
1C"
0G"
0u"
0w"
0y"
0{"
0}"
1!#
1H"
0U"
0B"
1D"
0I"
0q!
1t!
1=#
1Z!
0Y!
0X!
0W!
0V!
0U!
0D!
1p
0q
0j
0k
0l
0m
0Y
00
1/
0,
0+
0*
0)
0J
#350000
15
1U
1i!
1o!
0<#
1A!
1J"
0H"
1K"
1Q"
1p!
0A#
1]!
0|!
1~!
0V"
1`"
1u
1a"
0W"
1{!
14
1J!
0E!
1\
0a
0D
1?
#360000
05
0U
0i!
0o!
1<#
0A!
0p!
1A#
0s!
1u!
0C"
1E"
1R"
1F"
0D"
1q!
1e!
1}
1H
#370000
15
1U
1i!
1o!
0<#
1A!
0J"
1L"
1O"
1H"
0Q"
1p!
0A#
1^!
0]!
1|!
0X"
1b"
1t
0u
1c"
0Y"
0{!
0}!
1!"
04
13
1K!
0F!
1[
0`
0C
1>
#380000
05
0U
0i!
0o!
1<#
0A!
1P"
0p!
1A#
1f!
1s!
0E"
1G"
0R"
1|
0H"
0K"
1U"
0F"
0q!
0t!
1v!
1G
0e!
1D!
0}
1Y
0H
1J
#390000
15
1U
1i!
1o!
0<#
1A!
0L"
0O"
1p!
0A#
0^!
0|!
0~!
1""
1V"
0Z"
1d"
0t
0["
1W"
1{!
03
1L!
0G!
1E!
1Z
0_
1a
1D
0B
1=
#400000
05
0U
0i!
0o!
1<#
0A!
0P"
0p!
1A#
0f!
0s!
0u!
1w!
0G"
0|
1H"
0U"
1q!
0G
0D!
0Y
0J
#410000
15
1U
1i!
1o!
0<#
1A!
1J"
0H"
1K"
1Q"
1p!
0A#
1]!
1|!
0V"
1X"
0\"
1u
0]"
1Y"
0W"
0{!
1}!
14
0H!
1F!
0E!
0^
1`
0a
0D
1C
0A
#420000
05
0U
0i!
0o!
1<#
0A!
0p!
1A#
1s!
1R"
0q!
1t!
1e!
1}
1H
#430000
15
1U
1i!
1o!
0<#
1A!
0J"
1L"
1O"
1H"
0Q"
1p!
0A#
1^!
0]!
0|!
1~!
0X"
1Z"
0^"
1t
0u
0_"
1["
0Y"
1{!
04
13
0I!
1G!
0F!
0]
1_
0`
0C
1B
0@
#440000
05
0U
0i!
0o!
1<#
0A!
1P"
0p!
1A#
1f!
0s!
1u!
0R"
1|
1q!
1G
0e!
0}
0H
#450000
15
1U
1i!
1o!
0<#
1A!
1J"
1Q"
1p!
0A#
1]!
1|!
0Z"
1\"
0`"
1u
0a"
1]"
0["
0{!
0}!
0!"
1#"
14
0J!
1H!
0G!
0\
1^
0_
0B
1A
0?
#460000
05
0U
0i!
0o!
1<#
0A!
0p!
1A#
1s!
1R"
0q!
0t!
0v!
1x!
1y!
1e!
1}
1H
