copy_of_lab0202/simulation/qsim/lab_02_02.msim.vcd
$comment
	File created using the following command:
		vcd file lab_02_02.msim.vcd -direction
$end
$date
	Sun Sep 24 17:34:53 2023
$end
$version
	ModelSim Version 10.5b
$end
$timescale
	1ps
$end

$scope module lab_02_02_vhd_vec_tst $end
$var wire 1 ! clk_PB0 $end
$var wire 1 " ctrl_SW_4 $end
$var wire 1 # DEC0 [7] $end
$var wire 1 $ DEC0 [6] $end
$var wire 1 % DEC0 [5] $end
$var wire 1 & DEC0 [4] $end
$var wire 1 ' DEC0 [3] $end
$var wire 1 ( DEC0 [2] $end
$var wire 1 ) DEC0 [1] $end
$var wire 1 * DEC0 [0] $end
$var wire 1 + DEC1 [7] $end
$var wire 1 , DEC1 [6] $end
$var wire 1 - DEC1 [5] $end
$var wire 1 . DEC1 [4] $end
$var wire 1 / DEC1 [3] $end
$var wire 1 0 DEC1 [2] $end
$var wire 1 1 DEC1 [1] $end
$var wire 1 2 DEC1 [0] $end
$var wire 1 3 DEC2 [7] $end
$var wire 1 4 DEC2 [6] $end
$var wire 1 5 DEC2 [5] $end
$var wire 1 6 DEC2 [4] $end
$var wire 1 7 DEC2 [3] $end
$var wire 1 8 DEC2 [2] $end
$var wire 1 9 DEC2 [1] $end
$var wire 1 : DEC2 [0] $end
$var wire 1 ; DEC3 [7] $end
$var wire 1 < DEC3 [6] $end
$var wire 1 = DEC3 [5] $end
$var wire 1 > DEC3 [4] $end
$var wire 1 ? DEC3 [3] $end
$var wire 1 @ DEC3 [2] $end
$var wire 1 A DEC3 [1] $end
$var wire 1 B DEC3 [0] $end
$var wire 1 C DEC4 [7] $end
$var wire 1 D DEC4 [6] $end
$var wire 1 E DEC4 [5] $end
$var wire 1 F DEC4 [4] $end
$var wire 1 G DEC4 [3] $end
$var wire 1 H DEC4 [2] $end
$var wire 1 I DEC4 [1] $end
$var wire 1 J DEC4 [0] $end
$var wire 1 K DEC5 [7] $end
$var wire 1 L DEC5 [6] $end
$var wire 1 M DEC5 [5] $end
$var wire 1 N DEC5 [4] $end
$var wire 1 O DEC5 [3] $end
$var wire 1 P DEC5 [2] $end
$var wire 1 Q DEC5 [1] $end
$var wire 1 R DEC5 [0] $end
$var wire 1 S plse_PB1 $end
$var wire 1 T SW [3] $end
$var wire 1 U SW [2] $end
$var wire 1 V SW [1] $end
$var wire 1 W SW [0] $end

$scope module i1 $end
$var wire 1 X gnd $end
$var wire 1 Y vcc $end
$var wire 1 Z unknown $end
$var wire 1 [ devoe $end
$var wire 1 \ devclrn $end
$var wire 1 ] devpor $end
$var wire 1 ^ ww_devoe $end
$var wire 1 _ ww_devclrn $end
$var wire 1 ` ww_devpor $end
$var wire 1 a ww_SW [3] $end
$var wire 1 b ww_SW [2] $end
$var wire 1 c ww_SW [1] $end
$var wire 1 d ww_SW [0] $end
$var wire 1 e ww_DEC0 [7] $end
$var wire 1 f ww_DEC0 [6] $end
$var wire 1 g ww_DEC0 [5] $end
$var wire 1 h ww_DEC0 [4] $end
$var wire 1 i ww_DEC0 [3] $end
$var wire 1 j ww_DEC0 [2] $end
$var wire 1 k ww_DEC0 [1] $end
$var wire 1 l ww_DEC0 [0] $end
$var wire 1 m ww_DEC1 [7] $end
$var wire 1 n ww_DEC1 [6] $end
$var wire 1 o ww_DEC1 [5] $end
$var wire 1 p ww_DEC1 [4] $end
$var wire 1 q ww_DEC1 [3] $end
$var wire 1 r ww_DEC1 [2] $end
$var wire 1 s ww_DEC1 [1] $end
$var wire 1 t ww_DEC1 [0] $end
$var wire 1 u ww_DEC2 [7] $end
$var wire 1 v ww_DEC2 [6] $end
$var wire 1 w ww_DEC2 [5] $end
$var wire 1 x ww_DEC2 [4] $end
$var wire 1 y ww_DEC2 [3] $end
$var wire 1 z ww_DEC2 [2] $end
$var wire 1 { ww_DEC2 [1] $end
$var wire 1 | ww_DEC2 [0] $end
$var wire 1 } ww_DEC3 [7] $end
$var wire 1 ~ ww_DEC3 [6] $end
$var wire 1 !! ww_DEC3 [5] $end
$var wire 1 "! ww_DEC3 [4] $end
$var wire 1 #! ww_DEC3 [3] $end
$var wire 1 $! ww_DEC3 [2] $end
$var wire 1 %! ww_DEC3 [1] $end
$var wire 1 &! ww_DEC3 [0] $end
$var wire 1 '! ww_DEC4 [7] $end
$var wire 1 (! ww_DEC4 [6] $end
$var wire 1 )! ww_DEC4 [5] $end
$var wire 1 *! ww_DEC4 [4] $end
$var wire 1 +! ww_DEC4 [3] $end
$var wire 1 ,! ww_DEC4 [2] $end
$var wire 1 -! ww_DEC4 [1] $end
$var wire 1 .! ww_DEC4 [0] $end
$var wire 1 /! ww_DEC5 [7] $end
$var wire 1 0! ww_DEC5 [6] $end
$var wire 1 1! ww_DEC5 [5] $end
$var wire 1 2! ww_DEC5 [4] $end
$var wire 1 3! ww_DEC5 [3] $end
$var wire 1 4! ww_DEC5 [2] $end
$var wire 1 5! ww_DEC5 [1] $end
$var wire 1 6! ww_DEC5 [0] $end
$var wire 1 7! ww_plse_PB1 $end
$var wire 1 8! ww_clk_PB0 $end
$var wire 1 9! ww_ctrl_SW_4 $end
$var wire 1 :! \~QUARTUS_CREATED_ADC1~_CHSEL_bus\ [4] $end
$var wire 1 ;! \~QUARTUS_CREATED_ADC1~_CHSEL_bus\ [3] $end
$var wire 1 <! \~QUARTUS_CREATED_ADC1~_CHSEL_bus\ [2] $end
$var wire 1 =! \~QUARTUS_CREATED_ADC1~_CHSEL_bus\ [1] $end
$var wire 1 >! \~QUARTUS_CREATED_ADC1~_CHSEL_bus\ [0] $end
$var wire 1 ?! \a0|gen03~0clkctrl_INCLK_bus\ [3] $end
$var wire 1 @! \a0|gen03~0clkctrl_INCLK_bus\ [2] $end
$var wire 1 A! \a0|gen03~0clkctrl_INCLK_bus\ [1] $end
$var wire 1 B! \a0|gen03~0clkctrl_INCLK_bus\ [0] $end
$var wire 1 C! \a0|gen02~0clkctrl_INCLK_bus\ [3] $end
$var wire 1 D! \a0|gen02~0clkctrl_INCLK_bus\ [2] $end
$var wire 1 E! \a0|gen02~0clkctrl_INCLK_bus\ [1] $end
$var wire 1 F! \a0|gen02~0clkctrl_INCLK_bus\ [0] $end
$var wire 1 G! \clk_PB0~inputclkctrl_INCLK_bus\ [3] $end
$var wire 1 H! \clk_PB0~inputclkctrl_INCLK_bus\ [2] $end
$var wire 1 I! \clk_PB0~inputclkctrl_INCLK_bus\ [1] $end
$var wire 1 J! \clk_PB0~inputclkctrl_INCLK_bus\ [0] $end
$var wire 1 K! \~QUARTUS_CREATED_GND~I_combout\ $end
$var wire 1 L! \~QUARTUS_CREATED_UNVM~~busy\ $end
$var wire 1 M! \~QUARTUS_CREATED_ADC1~~eoc\ $end
$var wire 1 N! \DEC0[0]~output_o\ $end
$var wire 1 O! \DEC0[1]~output_o\ $end
$var wire 1 P! \DEC0[2]~output_o\ $end
$var wire 1 Q! \DEC0[3]~output_o\ $end
$var wire 1 R! \DEC0[4]~output_o\ $end
$var wire 1 S! \DEC0[5]~output_o\ $end
$var wire 1 T! \DEC0[6]~output_o\ $end
$var wire 1 U! \DEC0[7]~output_o\ $end
$var wire 1 V! \DEC1[0]~output_o\ $end
$var wire 1 W! \DEC1[1]~output_o\ $end
$var wire 1 X! \DEC1[2]~output_o\ $end
$var wire 1 Y! \DEC1[3]~output_o\ $end
$var wire 1 Z! \DEC1[4]~output_o\ $end
$var wire 1 [! \DEC1[5]~output_o\ $end
$var wire 1 \! \DEC1[6]~output_o\ $end
$var wire 1 ]! \DEC1[7]~output_o\ $end
$var wire 1 ^! \DEC2[0]~output_o\ $end
$var wire 1 _! \DEC2[1]~output_o\ $end
$var wire 1 `! \DEC2[2]~output_o\ $end
$var wire 1 a! \DEC2[3]~output_o\ $end
$var wire 1 b! \DEC2[4]~output_o\ $end
$var wire 1 c! \DEC2[5]~output_o\ $end
$var wire 1 d! \DEC2[6]~output_o\ $end
$var wire 1 e! \DEC2[7]~output_o\ $end
$var wire 1 f! \DEC3[0]~output_o\ $end
$var wire 1 g! \DEC3[1]~output_o\ $end
$var wire 1 h! \DEC3[2]~output_o\ $end
$var wire 1 i! \DEC3[3]~output_o\ $end
$var wire 1 j! \DEC3[4]~output_o\ $end
$var wire 1 k! \DEC3[5]~output_o\ $end
$var wire 1 l! \DEC3[6]~output_o\ $end
$var wire 1 m! \DEC3[7]~output_o\ $end
$var wire 1 n! \DEC4[0]~output_o\ $end
$var wire 1 o! \DEC4[1]~output_o\ $end
$var wire 1 p! \DEC4[2]~output_o\ $end
$var wire 1 q! \DEC4[3]~output_o\ $end
$var wire 1 r! \DEC4[4]~output_o\ $end
$var wire 1 s! \DEC4[5]~output_o\ $end
$var wire 1 t! \DEC4[6]~output_o\ $end
$var wire 1 u! \DEC4[7]~output_o\ $end
$var wire 1 v! \DEC5[0]~output_o\ $end
$var wire 1 w! \DEC5[1]~output_o\ $end
$var wire 1 x! \DEC5[2]~output_o\ $end
$var wire 1 y! \DEC5[3]~output_o\ $end
$var wire 1 z! \DEC5[4]~output_o\ $end
$var wire 1 {! \DEC5[5]~output_o\ $end
$var wire 1 |! \DEC5[6]~output_o\ $end
$var wire 1 }! \DEC5[7]~output_o\ $end
$var wire 1 ~! \clk_PB0~input_o\ $end
$var wire 1 !" \clk_PB0~inputclkctrl_outclk\ $end
$var wire 1 "" \SW[2]~input_o\ $end
$var wire 1 #" \a0|gen00:0:gen01:a0|gen00:2:a0~feeder_combout\ $end
$var wire 1 $" \a0|gen00:0:gen01:a0|gen00:2:a0~q\ $end
$var wire 1 %" \SW[0]~input_o\ $end
$var wire 1 &" \a0|gen00:0:gen01:a0|gen00:0:a0~q\ $end
$var wire 1 '" \SW[1]~input_o\ $end
$var wire 1 (" \a0|gen00:0:gen01:a0|gen00:1:a0~q\ $end
$var wire 1 )" \SW[3]~input_o\ $end
$var wire 1 *" \a0|gen00:0:gen01:a0|gen00:3:a0~feeder_combout\ $end
$var wire 1 +" \a0|gen00:0:gen01:a0|gen00:3:a0~q\ $end
$var wire 1 ," \gen00:0:aa1|D~0_combout\ $end
$var wire 1 -" \gen00:0:aa1|D~1_combout\ $end
$var wire 1 ." \gen00:0:aa1|D~2_combout\ $end
$var wire 1 /" \gen00:0:aa1|D~3_combout\ $end
$var wire 1 0" \gen00:0:aa1|D~4_combout\ $end
$var wire 1 1" \gen00:0:aa1|D~5_combout\ $end
$var wire 1 2" \gen00:0:aa1|D~6_combout\ $end
$var wire 1 3" \a0|gen00:1:gen01:a0|gen00:0:a0~q\ $end
$var wire 1 4" \a0|gen00:1:gen01:a0|gen00:3:a0~feeder_combout\ $end
$var wire 1 5" \a0|gen00:1:gen01:a0|gen00:3:a0~q\ $end
$var wire 1 6" \a0|gen00:1:gen01:a0|gen00:1:a0~q\ $end
$var wire 1 7" \a0|gen00:1:gen01:a0|gen00:2:a0~feeder_combout\ $end
$var wire 1 8" \a0|gen00:1:gen01:a0|gen00:2:a0~q\ $end
$var wire 1 9" \gen00:1:aa1|D~0_combout\ $end
$var wire 1 :" \gen00:1:aa1|D~1_combout\ $end
$var wire 1 ;" \gen00:1:aa1|D~2_combout\ $end
$var wire 1 <" \gen00:1:aa1|D~3_combout\ $end
$var wire 1 =" \gen00:1:aa1|D~4_combout\ $end
$var wire 1 >" \gen00:1:aa1|D~5_combout\ $end
$var wire 1 ?" \gen00:1:aa1|D~6_combout\ $end
$var wire 1 @" \a0|gen00:2:gen01:a0|gen00:3:a0~feeder_combout\ $end
$var wire 1 A" \a0|gen00:2:gen01:a0|gen00:3:a0~q\ $end
$var wire 1 B" \a0|gen00:2:gen01:a0|gen00:2:a0~feeder_combout\ $end
$var wire 1 C" \a0|gen00:2:gen01:a0|gen00:2:a0~q\ $end
$var wire 1 D" \a0|gen00:2:gen01:a0|gen00:1:a0~feeder_combout\ $end
$var wire 1 E" \a0|gen00:2:gen01:a0|gen00:1:a0~q\ $end
$var wire 1 F" \a0|gen00:2:gen01:a0|gen00:0:a0~q\ $end
$var wire 1 G" \gen00:2:aa1|D~0_combout\ $end
$var wire 1 H" \gen00:2:aa1|D~1_combout\ $end
$var wire 1 I" \gen00:2:aa1|D~2_combout\ $end
$var wire 1 J" \gen00:2:aa1|D~3_combout\ $end
$var wire 1 K" \gen00:2:aa1|D~4_combout\ $end
$var wire 1 L" \gen00:2:aa1|D~5_combout\ $end
$var wire 1 M" \gen00:2:aa1|D~6_combout\ $end
$var wire 1 N" \a0|gen00:3:gen01:a0|gen00:1:a0~feeder_combout\ $end
$var wire 1 O" \a0|gen00:3:gen01:a0|gen00:1:a0~q\ $end
$var wire 1 P" \a0|gen00:3:gen01:a0|gen00:2:a0~q\ $end
$var wire 1 Q" \a0|gen00:3:gen01:a0|gen00:3:a0~feeder_combout\ $end
$var wire 1 R" \a0|gen00:3:gen01:a0|gen00:3:a0~q\ $end
$var wire 1 S" \a0|gen00:3:gen01:a0|gen00:0:a0~feeder_combout\ $end
$var wire 1 T" \a0|gen00:3:gen01:a0|gen00:0:a0~q\ $end
$var wire 1 U" \gen00:3:aa1|D~0_combout\ $end
$var wire 1 V" \gen00:3:aa1|D~1_combout\ $end
$var wire 1 W" \gen00:3:aa1|D~2_combout\ $end
$var wire 1 X" \gen00:3:aa1|D~3_combout\ $end
$var wire 1 Y" \gen00:3:aa1|D~4_combout\ $end
$var wire 1 Z" \gen00:3:aa1|D~5_combout\ $end
$var wire 1 [" \gen00:3:aa1|D~6_combout\ $end
$var wire 1 \" \plse_PB1~input_o\ $end
$var wire 1 ]" \a0|gen02~0_combout\ $end
$var wire 1 ^" \a0|gen02~0clkctrl_outclk\ $end
$var wire 1 _" \ctrl_SW_4~input_o\ $end
$var wire 1 `" \a0|a4|action_02|gen:0:action|Co~0_combout\ $end
$var wire 1 a" \a0|a4|action_02|gen:1:action|Co~0_combout\ $end
$var wire 1 b" \a0|a4|action_02|gen:2:action|S~0_combout\ $end
$var wire 1 c" \a0|a2|O[2]~2_combout\ $end
$var wire 1 d" \a0|gen00:4:gen02:a1|gen00:2:a0~feeder_combout\ $end
$var wire 1 e" \a0|gen00:4:gen02:a1|gen00:2:a0~q\ $end
$var wire 1 f" \a0|a4|action_02|gen:1:action|S~0_combout\ $end
$var wire 1 g" \a0|a2|O[1]~3_combout\ $end
$var wire 1 h" \a0|gen00:4:gen02:a1|gen00:1:a0~q\ $end
$var wire 1 i" \a0|a2|O[0]~0_combout\ $end
$var wire 1 j" \a0|gen00:4:gen02:a1|gen00:0:a0~feeder_combout\ $end
$var wire 1 k" \a0|gen00:4:gen02:a1|gen00:0:a0~q\ $end
$var wire 1 l" \a0|a4|action_02|gen:3:action|S~0_combout\ $end
$var wire 1 m" \a0|a4|action_02|gen:2:action|Co~0_combout\ $end
$var wire 1 n" \a0|a2|O[3]~1_combout\ $end
$var wire 1 o" \a0|gen00:4:gen02:a1|gen00:3:a0~q\ $end
$var wire 1 p" \gen00:4:aa1|D~0_combout\ $end
$var wire 1 q" \gen00:4:aa1|D~1_combout\ $end
$var wire 1 r" \gen00:4:aa1|D~2_combout\ $end
$var wire 1 s" \gen00:4:aa1|D~3_combout\ $end
$var wire 1 t" \gen00:4:aa1|D~4_combout\ $end
$var wire 1 u" \gen00:4:aa1|D~5_combout\ $end
$var wire 1 v" \gen00:4:aa1|D~6_combout\ $end
$var wire 1 w" \a0|gen03~0_combout\ $end
$var wire 1 x" \a0|gen03~0clkctrl_outclk\ $end
$var wire 1 y" \a0|a7|O~2_combout\ $end
$var wire 1 z" \a0|gen00:5:gen03:a1|gen00:3:a0~q\ $end
$var wire 1 {" \a0|a7|O~3_combout\ $end
$var wire 1 |" \a0|gen00:5:gen03:a1|gen00:2:a0~q\ $end
$var wire 1 }" \a0|a7|O~4_combout\ $end
$var wire 1 ~" \a0|gen00:5:gen03:a1|gen00:1:a0~q\ $end
$var wire 1 !# \a0|a7|O[0]~0_combout\ $end
$var wire 1 "# \a0|a7|O[0]~1_combout\ $end
$var wire 1 ## \a0|gen00:5:gen03:a1|gen00:0:a0~q\ $end
$var wire 1 $# \gen00:5:aa1|D~0_combout\ $end
$var wire 1 %# \gen00:5:aa1|D~1_combout\ $end
$var wire 1 &# \gen00:5:aa1|D~2_combout\ $end
$var wire 1 '# \gen00:5:aa1|D~3_combout\ $end
$var wire 1 (# \gen00:5:aa1|D~4_combout\ $end
$var wire 1 )# \gen00:5:aa1|D~5_combout\ $end
$var wire 1 *# \gen00:5:aa1|D~6_combout\ $end
$var wire 1 +# \ALT_INV_clk_PB0~inputclkctrl_outclk\ $end
$upscope $end
$upscope $end
$enddefinitions $end
#0
$dumpvars
0!
0"
1S
0X
1Y
xZ
1[
1\
1]
1^
1_
1`
17!
08!
09!
0K!
zL!
zM!
0N!
0O!
0P!
0Q!
0R!
0S!
1T!
1U!
0V!
0W!
0X!
0Y!
0Z!
0[!
1\!
1]!
0^!
0_!
0`!
0a!
0b!
0c!
1d!
1e!
0f!
0g!
0h!
0i!
0j!
0k!
1l!
1m!
0n!
0o!
0p!
0q!
0r!
0s!
1t!
1u!
0v!
0w!
0x!
0y!
0z!
0{!
1|!
1}!
0~!
0!"
0""
0#"
0$"
0%"
0&"
0'"
0("
0)"
0*"
0+"
0,"
0-"
0."
0/"
00"
01"
12"
03"
04"
05"
06"
07"
08"
09"
0:"
0;"
0<"
0="
0>"
1?"
0@"
0A"
0B"
0C"
0D"
0E"
0F"
0G"
0H"
0I"
0J"
0K"
0L"
1M"
0N"
0O"
0P"
0Q"
0R"
0S"
0T"
0U"
0V"
0W"
0X"
0Y"
0Z"
1["
1\"
1]"
1^"
0_"
0`"
1a"
0b"
0c"
0d"
0e"
0f"
0g"
0h"
0i"
0j"
0k"
0l"
1m"
0n"
0o"
0p"
0q"
0r"
0s"
0t"
0u"
1v"
1w"
1x"
0y"
0z"
0{"
0|"
0}"
0~"
0!#
0"#
0##
0$#
0%#
0&#
0'#
0(#
0)#
1*#
1+#
0T
0U
0V
0W
0a
0b
0c
0d
1e
1f
0g
0h
0i
0j
0k
0l
1m
1n
0o
0p
0q
0r
0s
0t
1u
1v
0w
0x
0y
0z
0{
0|
1}
1~
0!!
0"!
0#!
0$!
0%!
0&!
1'!
1(!
0)!
0*!
0+!
0,!
0-!
0.!
1/!
10!
01!
02!
03!
04!
05!
06!
1G!
1H!
1I!
0J!
1C!
1D!
1E!
1F!
1?!
1@!
1A!
1B!
0:!
0;!
0<!
0=!
0>!
1#
1$
0%
0&
0'
0(
0)
0*
1+
1,
0-
0.
0/
00
01
02
13
14
05
06
07
08
09
0:
1;
1<
0=
0>
0?
0@
0A
0B
1C
1D
0E
0F
0G
0H
0I
0J
1K
1L
0M
0N
0O
0P
0Q
0R
$end
#5000
1!
18!
1~!
1J!
0]"
0w"
0F!
0B!
1!"
0+#
0x"
0^"
#10000
0!
08!
0~!
0J!
1]"
1w"
1F!
1B!
0!"
1+#
1x"
1^"
#15000
1!
18!
1~!
1J!
0]"
0w"
0F!
0B!
1!"
0+#
0x"
0^"
#20000
0!
1W
08!
1d
1%"
0~!
0J!
1]"
1w"
1F!
1B!
0!"
1+#
1x"
1^"
1&"
1,"
1/"
10"
11"
1S!
1R!
1Q!
1N!
1g
1h
1i
1l
1*
1'
1&
1%
#25000
1!
18!
1~!
1J!
0]"
0w"
0F!
0B!
1!"
0+#
0x"
0^"
#30000
0!
08!
0~!
0J!
1]"
1w"
1F!
1B!
0!"
1+#
1x"
1^"
13"
19"
1<"
1="
1>"
1`"
1f"
1[!
1Z!
1Y!
1V!
1o
1p
1q
1t
12
1/
1.
1-
#35000
1!
18!
1~!
1J!
0]"
0w"
0F!
0B!
1!"
0+#
0x"
0^"
#40000
0!
0W
1V
08!
0d
1c
1'"
0%"
0~!
0J!
1]"
1w"
1F!
1B!
0!"
1+#
1x"
1^"
0&"
1("
1F"
1G"
1J"
1K"
1L"
1S"
0a"
0,"
1."
0/"
00"
02"
0`"
0f"
0T!
0R!
0Q!
1P!
0N!
1c!
1b!
1a!
1^!
1a"
0f
0h
0i
1j
0l
1w
1x
1y
1|
0*
1(
0'
0&
0$
1:
17
16
15
#45000
1!
18!
1~!
1J!
0]"
0w"
0F!
0B!
1!"
0+#
0x"
0^"
#50000
0!
08!
0~!
0J!
1]"
1w"
1F!
1B!
0!"
1+#
1x"
1^"
03"
16"
1T"
1U"
1X"
1Y"
1Z"
1D"
0a"
09"
1;"
0<"
0="
0?"
1f"
1i"
0\!
0Z!
0Y!
1X!
0V!
1k!
1j!
1i!
1f!
1j"
0n
0p
0q
1r
0t
1!!
1"!
1#!
1&!
02
10
0/
0.
0,
1B
1?
1>
1=
#55000
1!
18!
1~!
1J!
0]"
0w"
0F!
0B!
1!"
0+#
0x"
0^"
#60000
0!
1W
08!
1d
1%"
0~!
0J!
1]"
1w"
1F!
1B!
0!"
1+#
1x"
1^"
1&"
1E"
0F"
1k"
0S"
0G"
1I"
0J"
0K"
0M"
1N"
0."
10"
1p"
1s"
1t"
1u"
1"#
1R!
0P!
0d!
0b!
0a!
1`!
0^!
1s!
1r!
1q!
1n!
1h
0j
0v
0x
0y
1z
0|
1)!
1*!
1+!
1.!
0(
1&
0:
18
07
06
04
1J
1G
1F
1E
#65000
1!
18!
1~!
1J!
0]"
0w"
0F!
0B!
1!"
0+#
0x"
0^"
#70000
0!
08!
0~!
0J!
1]"
1w"
1F!
1B!
0!"
1+#
1x"
1^"
13"
1O"
0T"
1##
0U"
1W"
0X"
0Y"
0["
1g"
0;"
1="
1`"
0f"
0i"
1$#
1'#
1(#
1)#
1Z!
0X!
0l!
0j!
0i!
1h!
0f!
0j"
1{!
1z!
1y!
1v!
1p
0r
0~
0"!
0#!
1$!
0&!
11!
12!
13!
16!
00
1.
0B
1@
0?
0>
0<
1R
1O
1N
1M
#75000
1!
18!
1~!
1J!
0]"
0w"
0F!
0B!
1!"
0+#
0x"
0^"
#80000
0!
0W
0V
1U
08!
0d
0c
1b
1""
0'"
0%"
0~!
0J!
1]"
1w"
1#"
1F!
1B!
0!"
1+#
1x"
1^"
1$"
0&"
0("
1F"
1h"
0k"
0I"
1K"
1S"
0`"
1f"
1,"
1/"
01"
17"
1b"
0m"
0"#
0p"
1r"
0s"
0t"
0v"
1}"
0S!
1Q!
1N!
1b!
0`!
1a"
0t!
0r!
0q!
1p!
0n!
0g
1i
1l
1x
0z
1m"
0(!
0*!
0+!
1,!
0.!
1*
1'
0%
08
16
0J
1H
0G
0F
0D
#85000
1!
18!
1~!
1J!
0]"
0w"
0F!
0B!
1!"
0+#
0x"
0^"
#90000
0!
08!
0~!
0J!
1]"
1w"
1F!
1B!
0!"
1+#
1x"
1^"
03"
06"
18"
1T"
1~"
0##
0W"
1Y"
1B"
0b"
0m"
0D"
19"
1<"
0>"
0f"
1i"
0$#
1&#
0'#
0(#
0*#
0[!
1Y!
1V!
1j!
0h!
1j"
0|!
0z!
0y!
1x!
0v!
0o
1q
1t
1"!
0$!
00!
02!
03!
14!
06!
12
1/
0-
0@
1>
0R
1P
0O
0N
0L
#95000
1!
18!
1~!
1J!
0]"
0w"
0F!
0B!
1!"
0+#
0x"
0^"
#100000
0!
1W
08!
1d
1%"
0~!
0J!
1]"
1w"
1F!
1B!
0!"
1+#
1x"
1^"
1&"
1C"
0E"
0F"
1k"
0S"
0N"
1G"
1J"
0L"
0,"
1-"
0/"
0r"
1t"
1"#
0Q!
1O!
0N!
0c!
1a!
1^!
1r!
0p!
0i
1k
0l
0w
1y
1|
1*!
0,!
0*
1)
0'
1:
17
05
0H
1F
#105000
1!
18!
1~!
1J!
0]"
0w"
0F!
0B!
1!"
0+#
0x"
0^"
#110000
0!
08!
0~!
0J!
1]"
1w"
1F!
1B!
0!"
1+#
1x"
1^"
13"
0O"
1P"
0T"
1##
1c"
1U"
1X"
0Z"
0g"
09"
1:"
0<"
1`"
1f"
0i"
0&#
1(#
0Y!
1W!
0V!
0k!
1i!
1f!
0j"
1d"
1z!
0x!
0q
1s
0t
0!!
1#!
1&!
12!
04!
02
11
0/
1B
1?
0=
0P
1N
#115000
1!
18!
1~!
1J!
0]"
0w"
0F!
0B!
1!"
0+#
0x"
0^"
#120000
0!
0W
1V
08!
0d
1c
1'"
0%"
0~!
0J!
1]"
1w"
1F!
1B!
0!"
1+#
1x"
1^"
0&"
1("
1F"
1e"
0h"
0k"
0G"
1H"
0J"
1S"
0a"
00"
0`"
0f"
0"#
0}"
1p"
1s"
0u"
1{"
0R!
0a!
1_!
0^!
1a"
0s!
1q!
1n!
0h
0y
1{
0|
0)!
1+!
1.!
0&
0:
19
07
1J
1G
0E
#125000
1!
18!
1~!
1J!
0]"
0w"
0F!
0B!
1!"
0+#
0x"
0^"
#130000
0!
08!
0~!
0J!
1]"
1w"
1F!
1B!
0!"
1+#
1x"
1^"
03"
16"
1T"
1|"
0~"
0##
0U"
1V"
0X"
1D"
0a"
0="
1f"
1i"
1$#
1'#
0)#
0Z!
0i!
1g!
0f!
1j"
0{!
1y!
1v!
0p
0#!
1%!
0&!
01!
13!
16!
0.
0B
1A
0?
1R
1O
0M
#135000
1!
18!
1~!
1J!
0]"
0w"
0F!
0B!
1!"
0+#
0x"
0^"
#140000
0!
1W
08!
1d
1%"
0~!
0J!
1]"
1w"
1F!
1B!
0!"
1+#
1x"
1^"
1&"
1E"
0F"
1k"
0S"
0K"
1N"
0-"
1/"
10"
11"
12"
0p"
1q"
0s"
1"#
1T!
1S!
1R!
1Q!
0O!
0b!
0q!
1o!
0n!
1f
1g
1h
1i
0k
0x
0+!
1-!
0.!
0)
1'
1&
1%
1$
06
0J
1I
0G
#145000
1!
18!
1~!
1J!
0]"
0w"
0F!
0B!
1!"
0+#
0x"
0^"
#150000
0!
08!
0~!
0J!
1]"
1w"
1F!
1B!
0!"
1+#
1x"
1^"
13"
1O"
0T"
1##
0Y"
1g"
0:"
1<"
1="
1>"
1?"
1`"
0f"
0i"
0$#
1%#
0'#
1\!
1[!
1Z!
1Y!
0W!
0j!
0j"
0y!
1w!
0v!
1n
1o
1p
1q
0s
0"!
03!
15!
06!
01
1/
1.
1-
1,
0>
0R
1Q
0O
#155000
1!
18!
1~!
1J!
0]"
0w"
0F!
0B!
1!"
0+#
0x"
0^"
#160000
0!
0W
0V
0U
1T
08!
0d
0c
0b
1a
1)"
0""
0'"
0%"
0~!
0J!
1]"
1w"
0#"
1*"
1F!
1B!
0!"
1+#
1x"
1^"
0$"
0&"
0("
1+"
1F"
1h"
0k"
0H"
1J"
1K"
1L"
1M"
1S"
14"
1l"
1!#
0`"
1f"
0/"
00"
01"
02"
07"
1b"
0"#
0t"
1}"
0T!
0S!
0R!
0Q!
1d!
1c!
1b!
1a!
0_!
1a"
0r!
0f
0g
0h
0i
1v
1w
1x
1y
0{
1m"
0*!
0'
0&
0%
0$
09
17
16
15
14
0F
0!#
#165000
1!
18!
1~!
1J!
0]"
0w"
0F!
0B!
1!"
0+#
0x"
0^"
#170000
0!
08!
0~!
0J!
1]"
1w"
1F!
1B!
0!"
1+#
1x"
1^"
03"
15"
06"
08"
1T"
1~"
0##
0V"
1X"
1Y"
1Z"
1["
0B"
0b"
0D"
1@"
0l"
1!#
0<"
0="
0>"
0?"
0f"
1i"
0(#
0\!
0[!
0Z!
0Y!
1l!
1k!
1j!
1i!
0g!
1j"
0z!
0n
0o
0p
0q
1~
1!!
1"!
1#!
0%!
02!
0/
0.
0-
0,
0A
1?
1>
1=
1<
0N
#175000
1!
18!
1~!
1J!
0]"
0w"
0F!
0B!
1!"
0+#
0x"
0^"
#180000
0!
1W
08!
1d
1%"
0~!
0J!
1]"
1w"
1F!
1B!
0!"
1+#
1x"
1^"
1&"
1A"
0C"
0E"
0F"
1k"
0S"
0N"
0J"
0K"
0L"
0M"
1Q"
10"
0q"
1s"
1t"
1u"
1v"
1"#
1R!
0d!
0c!
0b!
0a!
1t!
1s!
1r!
1q!
0o!
1h
0v
0w
0x
0y
1(!
1)!
1*!
1+!
0-!
1&
07
06
05
04
0I
1G
1F
1E
1D
#185000
1!
18!
1~!
1J!
0]"
0w"
0F!
0B!
1!"
0+#
0x"
0^"
#190000
0!
08!
0~!
0J!
1]"
1w"
1F!
1B!
0!"
1+#
1x"
1^"
13"
0O"
0P"
1R"
0T"
1##
1n"
0c"
0X"
0Y"
0Z"
0["
0g"
1="
1`"
1f"
0i"
0%#
1'#
1(#
1)#
1*#
1Z!
0l!
0k!
0j!
0i!
0j"
0d"
1|!
1{!
1z!
1y!
0w!
1p
0~
0!!
0"!
0#!
10!
11!
12!
13!
05!
1.
0?
0>
0=
0<
0Q
1O
1N
1M
1L
#195000
1!
18!
1~!
1J!
0]"
0w"
0F!
0B!
1!"
0+#
0x"
0^"
#200000
0!
0W
1V
08!
0d
1c
1'"
0%"
0~!
0J!
1]"
1w"
1F!
1B!
0!"
1+#
1x"
1^"
0&"
1("
1F"
0e"
0h"
0k"
1o"
1K"
1S"
0a"
1/"
00"
0`"
0f"
1y"
0"#
0}"
0s"
0t"
0u"
0v"
0{"
0R!
1Q!
1b!
1a"
0t!
0s!
0r!
0q!
0h
1i
1x
0(!
0)!
0*!
0+!
1'
0&
16
0G
0F
0E
0D
#205000
1!
18!
1~!
1J!
0]"
0w"
0F!
0B!
1!"
0+#
0x"
0^"
#210000
0!
08!
0~!
0J!
1]"
1w"
1F!
1B!
0!"
1+#
1x"
1^"
03"
16"
1T"
1z"
0|"
0~"
0##
1Y"
1D"
0a"
1<"
0="
1f"
1i"
0'#
0(#
0)#
0*#
0Z!
1Y!
1j!
1j"
0|!
0{!
0z!
0y!
0p
1q
1"!
00!
01!
02!
03!
1/
0.
1>
0O
0N
0M
0L
