lab_04/simulation/qsim/lab_04.msim.vcd
$comment
	File created using the following command:
		vcd file lab_04.msim.vcd -direction
$end
$date
	Fri Oct  6 21:30:38 2023
$end
$version
	ModelSim Version 10.5b
$end
$timescale
	1ps
$end

$scope module ramachine_gate_vhd_vec_tst $end
$var wire 1 ! clk $end
$var wire 1 " Q [3] $end
$var wire 1 # Q [2] $end
$var wire 1 $ Q [1] $end
$var wire 1 % Q [0] $end
$var wire 1 & RSTN $end

$scope module i1 $end
$var wire 1 ' gnd $end
$var wire 1 ( vcc $end
$var wire 1 ) unknown $end
$var wire 1 * devoe $end
$var wire 1 + devclrn $end
$var wire 1 , devpor $end
$var wire 1 - ww_devoe $end
$var wire 1 . ww_devclrn $end
$var wire 1 / ww_devpor $end
$var wire 1 0 ww_clk $end
$var wire 1 1 ww_RSTN $end
$var wire 1 2 ww_Q [3] $end
$var wire 1 3 ww_Q [2] $end
$var wire 1 4 ww_Q [1] $end
$var wire 1 5 ww_Q [0] $end
$var wire 1 6 \~QUARTUS_CREATED_ADC1~_CHSEL_bus\ [4] $end
$var wire 1 7 \~QUARTUS_CREATED_ADC1~_CHSEL_bus\ [3] $end
$var wire 1 8 \~QUARTUS_CREATED_ADC1~_CHSEL_bus\ [2] $end
$var wire 1 9 \~QUARTUS_CREATED_ADC1~_CHSEL_bus\ [1] $end
$var wire 1 : \~QUARTUS_CREATED_ADC1~_CHSEL_bus\ [0] $end
$var wire 1 ; \RSTN~inputclkctrl_INCLK_bus\ [3] $end
$var wire 1 < \RSTN~inputclkctrl_INCLK_bus\ [2] $end
$var wire 1 = \RSTN~inputclkctrl_INCLK_bus\ [1] $end
$var wire 1 > \RSTN~inputclkctrl_INCLK_bus\ [0] $end
$var wire 1 ? \clk~inputclkctrl_INCLK_bus\ [3] $end
$var wire 1 @ \clk~inputclkctrl_INCLK_bus\ [2] $end
$var wire 1 A \clk~inputclkctrl_INCLK_bus\ [1] $end
$var wire 1 B \clk~inputclkctrl_INCLK_bus\ [0] $end
$var wire 1 C \~QUARTUS_CREATED_GND~I_combout\ $end
$var wire 1 D \~QUARTUS_CREATED_UNVM~~busy\ $end
$var wire 1 E \~QUARTUS_CREATED_ADC1~~eoc\ $end
$var wire 1 F \Q[0]~output_o\ $end
$var wire 1 G \Q[1]~output_o\ $end
$var wire 1 H \Q[2]~output_o\ $end
$var wire 1 I \Q[3]~output_o\ $end
$var wire 1 J \clk~input_o\ $end
$var wire 1 K \clk~inputclkctrl_outclk\ $end
$var wire 1 L \gen00:3:ffi0~0_combout\ $end
$var wire 1 M \RSTN~input_o\ $end
$var wire 1 N \RSTN~inputclkctrl_outclk\ $end
$var wire 1 O \gen00:3:ffi0~q\ $end
$var wire 1 P \gen00:2:ffi0~0_combout\ $end
$var wire 1 Q \gen00:2:ffi0~q\ $end
$var wire 1 R \gen00:1:ffi0~0_combout\ $end
$var wire 1 S \gen00:1:ffi0~q\ $end
$var wire 1 T \gen00:0:ffi0~0_combout\ $end
$var wire 1 U \gen00:0:ffi0~q\ $end
$var wire 1 V \ALT_INV_gen00:1:ffi0~q\ $end
$upscope $end
$upscope $end
$enddefinitions $end
#0
$dumpvars
0!
1&
0'
1(
x)
1*
1+
1,
1-
1.
1/
00
11
0C
zD
zE
0F
1G
0H
0I
0J
0K
0L
1M
1N
0O
1P
0Q
1R
0S
0T
0U
1V
02
03
14
05
1?
1@
1A
0B
1;
1<
1=
1>
06
07
08
09
0:
0"
0#
1$
0%
$end
#20000
1!
0&
10
01
0M
1J
0>
1B
1K
0N
#40000
0!
00
0J
0B
0K
#60000
1!
1&
10
11
1M
1J
1>
1B
1K
1N
1Q
1S
0V
1H
1T
0G
13
04
1#
0$
#80000
0!
00
0J
0B
0K
#100000
1!
10
1J
1B
1K
1U
1F
1L
0P
15
1%
#120000
0!
00
0J
0B
0K
#140000
1!
10
1J
1B
1K
1O
0Q
0H
1I
0L
0T
03
12
0#
1"
#160000
0!
00
0J
0B
0K
#180000
1!
10
1J
1B
1K
0O
0U
0F
0I
1T
05
02
0%
0"
#200000
0!
00
0J
0B
0K
#220000
1!
10
1J
1B
1K
1U
1F
0R
15
1%
#240000
0!
00
0J
0B
0K
#260000
1!
10
1J
1B
1K
0S
1V
1P
0T
1G
14
1$
#280000
0!
00
0J
0B
0K
#300000
1!
10
1J
1B
1K
1Q
0U
0F
1H
1L
0P
1R
05
13
0%
1#
#320000
0!
00
0J
0B
0K
#340000
1!
10
1J
1B
1K
1O
0Q
1S
0V
0H
1I
0R
0G
03
12
04
0#
1"
0$
#360000
0!
00
0J
0B
0K
#380000
1!
10
1J
1B
1K
0S
1V
1P
1R
1G
14
1$
#400000
0!
00
0J
0B
0K
#420000
1!
10
1J
1B
1K
1Q
1S
0V
1H
0R
0G
13
04
1#
0$
#440000
0!
00
0J
0B
0K
#460000
1!
10
1J
1B
1K
0S
1V
0L
1T
1G
14
1$
#480000
0!
00
0J
0B
0K
#500000
1!
10
1J
1B
1K
0O
1U
1F
0I
1L
0P
15
02
1%
0"
#520000
0!
00
0J
0B
0K
#540000
1!
10
1J
1B
1K
1O
0Q
0H
1I
1P
1R
03
12
0#
1"
#560000
0!
00
0J
0B
0K
#580000
1!
10
1J
1B
1K
1Q
1S
0V
1H
0R
0G
13
04
1#
0$
#600000
0!
00
0J
0B
0K
#620000
1!
10
1J
1B
1K
0S
1V
0L
0P
0T
1G
14
1$
#640000
0!
00
0J
0B
0K
#660000
1!
10
1J
1B
1K
0O
0Q
0U
0F
0H
0I
1P
1R
05
03
02
0%
0#
0"
#680000
0!
00
0J
0B
0K
#700000
1!
10
1J
1B
1K
1Q
1S
0V
1H
1T
0G
13
04
1#
0$
#720000
0!
00
0J
0B
0K
#740000
1!
10
1J
1B
1K
1U
1F
1L
0P
15
1%
#760000
0!
00
0J
0B
0K
#780000
1!
10
1J
1B
1K
1O
0Q
0H
1I
0L
0T
03
12
0#
1"
#800000
0!
00
0J
0B
0K
#820000
1!
10
1J
1B
1K
0O
0U
0F
0I
1T
05
02
0%
0"
#840000
0!
00
0J
0B
0K
#860000
1!
10
1J
1B
1K
1U
1F
0R
15
1%
#880000
0!
00
0J
0B
0K
#900000
1!
10
1J
1B
1K
0S
1V
1P
0T
1G
14
1$
#920000
0!
00
0J
0B
0K
#940000
1!
10
1J
1B
1K
1Q
0U
0F
1H
1L
0P
1R
05
13
0%
1#
#960000
0!
00
0J
0B
0K
#980000
1!
10
1J
1B
1K
1O
0Q
1S
0V
0H
1I
0R
0G
03
12
04
0#
1"
0$
