fulladd_pjct/simulation/qsim/FULLADD.msim.vcd
$comment
	File created using the following command:
		vcd file FULLADD.msim.vcd -direction
$end
$date
	Thu Aug 31 15:50:45 2023
$end
$version
	ModelSim Version 10.5b
$end
$timescale
	1ps
$end

$scope module four_bit_sum_seven_seg_vhd_vec_tst $end
$var wire 1 ! A [3] $end
$var wire 1 " A [2] $end
$var wire 1 # A [1] $end
$var wire 1 $ A [0] $end
$var wire 1 % A_dec [7] $end
$var wire 1 & A_dec [6] $end
$var wire 1 ' A_dec [5] $end
$var wire 1 ( A_dec [4] $end
$var wire 1 ) A_dec [3] $end
$var wire 1 * A_dec [2] $end
$var wire 1 + A_dec [1] $end
$var wire 1 , A_dec [0] $end
$var wire 1 - B [3] $end
$var wire 1 . B [2] $end
$var wire 1 / B [1] $end
$var wire 1 0 B [0] $end
$var wire 1 1 B_dec [7] $end
$var wire 1 2 B_dec [6] $end
$var wire 1 3 B_dec [5] $end
$var wire 1 4 B_dec [4] $end
$var wire 1 5 B_dec [3] $end
$var wire 1 6 B_dec [2] $end
$var wire 1 7 B_dec [1] $end
$var wire 1 8 B_dec [0] $end
$var wire 1 9 Cout $end
$var wire 1 : ctrl $end
$var wire 1 ; S_dec [7] $end
$var wire 1 < S_dec [6] $end
$var wire 1 = S_dec [5] $end
$var wire 1 > S_dec [4] $end
$var wire 1 ? S_dec [3] $end
$var wire 1 @ S_dec [2] $end
$var wire 1 A S_dec [1] $end
$var wire 1 B S_dec [0] $end

$scope module i1 $end
$var wire 1 C gnd $end
$var wire 1 D vcc $end
$var wire 1 E unknown $end
$var wire 1 F devoe $end
$var wire 1 G devclrn $end
$var wire 1 H devpor $end
$var wire 1 I ww_devoe $end
$var wire 1 J ww_devclrn $end
$var wire 1 K ww_devpor $end
$var wire 1 L ww_A [3] $end
$var wire 1 M ww_A [2] $end
$var wire 1 N ww_A [1] $end
$var wire 1 O ww_A [0] $end
$var wire 1 P ww_B [3] $end
$var wire 1 Q ww_B [2] $end
$var wire 1 R ww_B [1] $end
$var wire 1 S ww_B [0] $end
$var wire 1 T ww_ctrl $end
$var wire 1 U ww_A_dec [7] $end
$var wire 1 V ww_A_dec [6] $end
$var wire 1 W ww_A_dec [5] $end
$var wire 1 X ww_A_dec [4] $end
$var wire 1 Y ww_A_dec [3] $end
$var wire 1 Z ww_A_dec [2] $end
$var wire 1 [ ww_A_dec [1] $end
$var wire 1 \ ww_A_dec [0] $end
$var wire 1 ] ww_B_dec [7] $end
$var wire 1 ^ ww_B_dec [6] $end
$var wire 1 _ ww_B_dec [5] $end
$var wire 1 ` ww_B_dec [4] $end
$var wire 1 a ww_B_dec [3] $end
$var wire 1 b ww_B_dec [2] $end
$var wire 1 c ww_B_dec [1] $end
$var wire 1 d ww_B_dec [0] $end
$var wire 1 e ww_S_dec [7] $end
$var wire 1 f ww_S_dec [6] $end
$var wire 1 g ww_S_dec [5] $end
$var wire 1 h ww_S_dec [4] $end
$var wire 1 i ww_S_dec [3] $end
$var wire 1 j ww_S_dec [2] $end
$var wire 1 k ww_S_dec [1] $end
$var wire 1 l ww_S_dec [0] $end
$var wire 1 m ww_Cout $end
$var wire 1 n a_aQUARTUS_CREATED_ADC1_a_CHSEL_bus [4] $end
$var wire 1 o a_aQUARTUS_CREATED_ADC1_a_CHSEL_bus [3] $end
$var wire 1 p a_aQUARTUS_CREATED_ADC1_a_CHSEL_bus [2] $end
$var wire 1 q a_aQUARTUS_CREATED_ADC1_a_CHSEL_bus [1] $end
$var wire 1 r a_aQUARTUS_CREATED_ADC1_a_CHSEL_bus [0] $end
$var wire 1 s a_aQUARTUS_CREATED_ADC2_a_CHSEL_bus [4] $end
$var wire 1 t a_aQUARTUS_CREATED_ADC2_a_CHSEL_bus [3] $end
$var wire 1 u a_aQUARTUS_CREATED_ADC2_a_CHSEL_bus [2] $end
$var wire 1 v a_aQUARTUS_CREATED_ADC2_a_CHSEL_bus [1] $end
$var wire 1 w a_aQUARTUS_CREATED_ADC2_a_CHSEL_bus [0] $end
$var wire 1 x a_aQUARTUS_CREATED_GND_aI_combout $end
$var wire 1 y a_aQUARTUS_CREATED_UNVM_a_abusy $end
$var wire 1 z a_aQUARTUS_CREATED_ADC1_a_aeoc $end
$var wire 1 { a_aQUARTUS_CREATED_ADC2_a_aeoc $end
$var wire 1 | A_dec_a0_a_aoutput_o $end
$var wire 1 } A_dec_a1_a_aoutput_o $end
$var wire 1 ~ A_dec_a2_a_aoutput_o $end
$var wire 1 !! A_dec_a3_a_aoutput_o $end
$var wire 1 "! A_dec_a4_a_aoutput_o $end
$var wire 1 #! A_dec_a5_a_aoutput_o $end
$var wire 1 $! A_dec_a6_a_aoutput_o $end
$var wire 1 %! A_dec_a7_a_aoutput_o $end
$var wire 1 &! B_dec_a0_a_aoutput_o $end
$var wire 1 '! B_dec_a1_a_aoutput_o $end
$var wire 1 (! B_dec_a2_a_aoutput_o $end
$var wire 1 )! B_dec_a3_a_aoutput_o $end
$var wire 1 *! B_dec_a4_a_aoutput_o $end
$var wire 1 +! B_dec_a5_a_aoutput_o $end
$var wire 1 ,! B_dec_a6_a_aoutput_o $end
$var wire 1 -! B_dec_a7_a_aoutput_o $end
$var wire 1 .! S_dec_a0_a_aoutput_o $end
$var wire 1 /! S_dec_a1_a_aoutput_o $end
$var wire 1 0! S_dec_a2_a_aoutput_o $end
$var wire 1 1! S_dec_a3_a_aoutput_o $end
$var wire 1 2! S_dec_a4_a_aoutput_o $end
$var wire 1 3! S_dec_a5_a_aoutput_o $end
$var wire 1 4! S_dec_a6_a_aoutput_o $end
$var wire 1 5! S_dec_a7_a_aoutput_o $end
$var wire 1 6! Cout_aoutput_o $end
$var wire 1 7! A_a1_a_ainput_o $end
$var wire 1 8! A_a2_a_ainput_o $end
$var wire 1 9! A_a3_a_ainput_o $end
$var wire 1 :! A_a0_a_ainput_o $end
$var wire 1 ;! action_02_aD_a0_combout $end
$var wire 1 <! action_02_aD_a1_combout $end
$var wire 1 =! action_02_aD_a2_combout $end
$var wire 1 >! action_02_aD_a3_combout $end
$var wire 1 ?! action_02_aD_a4_combout $end
$var wire 1 @! action_02_aD_a5_combout $end
$var wire 1 A! action_02_aD_a6_combout $end
$var wire 1 B! B_a3_a_ainput_o $end
$var wire 1 C! B_a0_a_ainput_o $end
$var wire 1 D! B_a1_a_ainput_o $end
$var wire 1 E! B_a2_a_ainput_o $end
$var wire 1 F! action_03_aD_a0_combout $end
$var wire 1 G! action_03_aD_a1_combout $end
$var wire 1 H! action_03_aD_a2_combout $end
$var wire 1 I! action_03_aD_a3_combout $end
$var wire 1 J! action_03_aD_a4_combout $end
$var wire 1 K! action_03_aD_a5_combout $end
$var wire 1 L! action_03_aD_a6_combout $end
$var wire 1 M! ctrl_ainput_o $end
$var wire 1 N! action_01_aaction_02_a_agen_a0_aaction_aCo_a0_combout $end
$var wire 1 O! action_01_aaction_02_a_agen_a1_aaction_aCo_a0_combout $end
$var wire 1 P! action_01_aaction_02_a_agen_a1_aaction_aS_a0_combout $end
$var wire 1 Q! action_04_aD_a1_combout $end
$var wire 1 R! action_01_aaction_02_a_agen_a0_aaction_aS_acombout $end
$var wire 1 S! action_01_aaction_02_a_agen_a1_aaction_aS_acombout $end
$var wire 1 T! action_01_aaction_02_a_agen_a2_aaction_aS_acombout $end
$var wire 1 U! action_01_aaction_02_a_agen_a3_aaction_aS_a0_combout $end
$var wire 1 V! action_01_aaction_02_a_agen_a3_aaction_aS_a1_combout $end
$var wire 1 W! action_04_aD_a0_combout $end
$var wire 1 X! action_04_aD_a2_combout $end
$var wire 1 Y! action_04_aD_a3_combout $end
$var wire 1 Z! action_04_aD_a4_combout $end
$var wire 1 [! action_04_aD_a5_combout $end
$var wire 1 \! action_04_aD_a6_combout $end
$var wire 1 ]! action_04_aD_a7_combout $end
$var wire 1 ^! action_04_aD_a8_combout $end
$var wire 1 _! action_01_aaction_02_a_agen_a2_aaction_aCo_a0_combout $end
$var wire 1 `! action_01_aaction_02_a_agen_a3_aaction_aCo_a0_combout $end
$var wire 1 a! ALT_INV_action_01_aaction_02_a_agen_a3_aaction_aCo_a0_combout $end
$upscope $end
$upscope $end
$enddefinitions $end
#0
$dumpvars
19
1:
0C
1D
xE
1F
1G
1H
1I
1J
1K
1T
1m
0x
zy
zz
z{
0|
0}
0~
0!!
0"!
0#!
1$!
1%!
0&!
0'!
0(!
0)!
0*!
0+!
1,!
1-!
0.!
0/!
00!
01!
02!
03!
14!
15!
16!
07!
08!
09!
0:!
0;!
0<!
0=!
0>!
0?!
0@!
1A!
0B!
0C!
0D!
0E!
0F!
0G!
0H!
0I!
0J!
0K!
1L!
1M!
1N!
0O!
1P!
1Q!
0R!
0S!
1T!
0U!
1V!
0W!
0X!
0Y!
0Z!
0[!
0\!
0]!
1^!
0_!
0`!
1a!
0!
0"
0#
0$
0-
0.
0/
00
0L
0M
0N
0O
0P
0Q
0R
0S
1U
1V
0W
0X
0Y
0Z
0[
0\
1]
1^
0_
0`
0a
0b
0c
0d
1e
1f
0g
0h
0i
0j
0k
0l
0n
0o
0p
0q
0r
0s
0t
0u
0v
0w
1%
1&
0'
0(
0)
0*
0+
0,
11
12
03
04
05
06
07
08
1;
1<
0=
0>
0?
0@
0A
0B
$end
#1000
1$
1O
1:!
1;!
1>!
1?!
1@!
1R!
1#!
1"!
1!!
1|
1W!
1[!
1\!
1]!
1W
1X
1Y
1\
13!
12!
11!
1X!
1,
1)
1(
1'
1g
1h
1i
1.!
1?
1>
1=
1l
1B
#2000
0$
1#
0O
1N
17!
0:!
0R!
0;!
1=!
0>!
0?!
0A!
0P!
1S!
0$!
0"!
0!!
1~
0|
0Q!
0W!
1Z!
0[!
0\!
0^!
0V
0X
0Y
1Z
0\
04!
02!
01!
10!
0X!
0,
1*
0)
0(
0&
0f
0h
0i
1j
0.!
1@
0?
0>
0<
0l
0B
#3000
1$
1O
1:!
0=!
1?!
1R!
1"!
0~
0Z!
1\!
1X
0Z
12!
00!
0*
1(
1h
0j
0@
1>
#4000
0$
0#
1"
0O
0N
1M
18!
07!
0:!
0R!
1P!
0S!
1;!
1>!
0@!
1Q!
0T!
0#!
1!!
1|
0Q!
1W!
1[!
0]!
0W
1Y
1\
03!
11!
1X!
1,
1)
0'
0g
1i
1.!
1?
0=
1l
1B
#5000
1$
1O
1:!
0;!
1<!
0>!
1R!
0!!
1}
0|
0W!
1Y!
0[!
0Y
1[
0\
01!
1/!
0X!
0,
1+
0)
0i
1k
0.!
1A
0?
0l
0B
#6000
0$
1#
0O
1N
17!
0:!
0R!
0?!
0P!
1S!
0"!
1Q!
0\!
0X
02!
0(
0h
0>
#7000
1$
1O
1:!
0<!
1>!
1?!
1@!
1A!
1R!
1$!
1#!
1"!
1!!
0}
0Y!
1[!
1\!
1]!
1^!
1V
1W
1X
1Y
0[
14!
13!
12!
11!
0/!
0+
1)
1(
1'
1&
1f
1g
1h
1i
0k
0A
1?
1>
1=
1<
#8000
0$
0#
0"
1!
0O
0N
0M
1L
19!
08!
07!
0:!
0R!
1P!
0S!
0Q!
1T!
0>!
0?!
0@!
0A!
0V!
0$!
0#!
0"!
0!!
1Q!
0[!
0\!
0]!
0^!
0V
0W
0X
0Y
04!
03!
02!
01!
0)
0(
0'
0&
0f
0g
0h
0i
0?
0>
0=
0<
#9000
1$
1O
1:!
1?!
1R!
1"!
1\!
1X
12!
1(
1h
1>
#10000
0$
1#
0O
1N
17!
0:!
0R!
1>!
0?!
0P!
1S!
0"!
1!!
0Q!
1[!
0\!
0X
1Y
02!
11!
1)
0(
0h
1i
1?
0>
#11000
1$
1O
1:!
1;!
1<!
0>!
1R!
0!!
1}
1|
1X!
1Y!
0[!
0Y
1[
1\
01!
1/!
1.!
1,
1+
0)
0i
1k
1l
1B
1A
0?
#12000
0$
0#
1"
0O
0N
1M
18!
07!
0:!
0R!
1P!
0S!
0;!
1=!
1A!
1Q!
0T!
1$!
1~
0|
0Q!
0X!
1Z!
1^!
1V
1Z
0\
14!
10!
0.!
0,
1*
1&
1f
1j
0l
0B
1@
1<
#13000
1$
1O
1:!
1;!
0<!
0=!
1@!
0A!
1R!
0$!
1#!
0~
0}
1|
1X!
0Y!
0Z!
1]!
0^!
0V
1W
0Z
0[
1\
04!
13!
00!
0/!
1.!
1,
0+
0*
1'
0&
0f
1g
0j
0k
1l
1B
0A
0@
1=
0<
#14000
0$
1#
0O
1N
17!
0:!
0R!
0;!
1<!
1=!
0@!
0P!
1S!
0#!
1~
1}
0|
1Q!
0X!
1Y!
1Z!
0]!
0W
1Z
1[
0\
03!
10!
1/!
0.!
0,
1+
1*
0'
0g
1j
1k
0l
0B
1A
1@
0=
#15000
1$
1O
1:!
1>!
1R!
1!!
1[!
1Y
11!
1)
1i
1?
#16000
0$
0#
0"
0!
10
0O
0N
0M
0L
1S
1C!
09!
08!
07!
0:!
1P!
0S!
0Q!
1T!
0<!
0=!
0>!
1A!
1V!
1F!
1I!
1J!
1K!
0N!
1+!
1*!
1)!
1&!
1$!
0!!
0~
0}
1O!
0P!
1S!
1W!
0Y!
0Z!
1\!
1]!
1^!
1Q!
1_
1`
1a
1d
1V
0Y
0Z
0[
14!
13!
12!
00!
0/!
1X!
0W!
0[!
0^!
0T!
1U!
1_!
18
15
14
13
0+
0*
0)
1&
1f
1g
1h
0j
0k
04!
01!
1.!
1`!
0V!
1[!
1^!
0X!
0A
0@
1>
1=
1<
0a!
0f
0i
1l
0.!
14!
11!
1Y!
1Z!
0\!
0]!
0^!
1B
0?
0<
06!
0l
1f
1i
04!
03!
02!
10!
1/!
0m
0B
1?
1<
0f
0g
0h
1j
1k
09
1A
1@
0>
0=
0<
#17000
1$
1O
1:!
1;!
1>!
1?!
1@!
1N!
0R!
1#!
1"!
1!!
1|
0[!
0O!
1P!
0S!
1W
1X
1Y
1\
01!
1^!
1T!
0U!
0_!
1,
1)
1(
1'
0i
14!
0`!
1V!
0Y!
0Z!
0^!
0?
1a!
1f
04!
00!
0/!
1^!
1<
16!
0f
0j
0k
14!
1m
0A
0@
0<
1f
19
1<
#18000
0$
1#
0O
1N
17!
0:!
0N!
1R!
0;!
1=!
0>!
0?!
0A!
0P!
1S!
0$!
0"!
0!!
1~
0|
0Q!
1\!
1]!
0^!
1P!
0S!
0V
0X
0Y
1Z
0\
04!
13!
12!
1W!
1[!
1^!
1Q!
0,
1*
0)
0(
0&
0f
1g
1h
14!
11!
1X!
1>
1=
0<
1f
1i
1.!
1?
1<
1l
1B
#19000
1$
1O
1:!
0=!
1?!
1N!
0R!
1"!
0~
0W!
0[!
0\!
0]!
0P!
1S!
1X
0Z
03!
02!
01!
1Z!
1]!
0^!
0Q!
0X!
0*
1(
0g
0h
0i
0.!
04!
13!
10!
0?
0>
0=
0l
0f
1g
1j
0B
1@
1=
0<
#20000
0$
0#
1"
0O
0N
1M
18!
07!
0:!
0N!
1R!
1P!
0S!
1;!
1>!
0@!
1Q!
0T!
0#!
1!!
1|
0Q!
1Y!
0Z!
1\!
0]!
1O!
0P!
1S!
0W
1Y
1\
03!
12!
00!
1/!
0Y!
1[!
1]!
1^!
1T!
1,
1)
0'
0g
1h
0j
1k
14!
13!
11!
0/!
0[!
0^!
1A
0@
1>
0=
1f
1g
1i
0k
04!
01!
0A
1?
1=
1<
0f
0i
0?
0<
#21000
1$
1O
1:!
0;!
1<!
0>!
1N!
0R!
0!!
1}
0|
1Z!
0\!
0O!
1P!
0S!
0Y
1[
0\
02!
10!
0Z!
0]!
1^!
0T!
0,
1+
0)
0h
1j
14!
03!
00!
1W!
1[!
1\!
0^!
1@
0>
1f
0g
0j
04!
12!
11!
1X!
0@
0=
1<
0f
1h
1i
1.!
1?
1>
0<
1l
1B
#22000
0$
1#
0O
1N
17!
0:!
0N!
1R!
0?!
0P!
1S!
0"!
1Q!
0W!
1]!
1^!
1P!
0S!
0X
14!
13!
1Y!
0[!
0]!
0^!
0Q!
0X!
0(
1f
1g
0.!
04!
03!
01!
1/!
1=
1<
0l
0f
0g
0i
1k
0B
1A
0?
0=
0<
#23000
1$
1O
1:!
0<!
1>!
1?!
1@!
1A!
1N!
0R!
1$!
1#!
1"!
1!!
0}
1W!
0Y!
1[!
0P!
1S!
1V
1W
1X
1Y
0[
11!
0/!
0W!
1Y!
0[!
0\!
1Q!
1X!
0+
1)
1(
1'
1&
1i
0k
1.!
02!
01!
1/!
0X!
0A
1?
1l
0h
0i
1k
0.!
1B
1A
0?
0>
0l
0B
#24000
0$
0#
0"
1!
0O
0N
0M
1L
19!
08!
07!
0:!
0N!
1R!
1P!
0S!
0Q!
1T!
0>!
0?!
0@!
0A!
0V!
0$!
0#!
0"!
0!!
1Q!
1X!
0Y!
1\!
1O!
0P!
1S!
0V
0W
0X
0Y
12!
0/!
1.!
1Y!
0\!
0T!
1U!
1_!
0X!
0)
0(
0'
0&
1h
0k
1l
0.!
02!
1/!
1V!
1Z!
1[!
1B
0A
1>
0l
0h
1k
11!
10!
0Y!
0Z!
1\!
1]!
1^!
0B
1A
0>
1i
1j
14!
13!
12!
00!
0/!
1@
1?
1f
1g
1h
0j
0k
0A
0@
1>
1=
1<
#25000
1$
1O
1:!
1?!
1N!
0R!
1"!
1Y!
0[!
0\!
0]!
0^!
0O!
1P!
0S!
1X
04!
03!
02!
01!
1/!
1W!
0Y!
1[!
1\!
1T!
0U!
0_!
1(
0f
0g
0h
0i
1k
12!
11!
0/!
0V!
0W!
0[!
0\!
1^!
1X!
1A
0?
0>
0=
0<
1h
1i
0k
1.!
14!
02!
01!
0X!
0^!
0A
1?
1>
1l
1f
0h
0i
04!
0.!
1B
0?
0>
1<
0f
0l
0B
0<
#26000
0$
1#
0O
1N
17!
0:!
0N!
1R!
1>!
0?!
0P!
1S!
0"!
1!!
0Q!
1Y!
1P!
0S!
0X
1Y
1/!
0Y!
1\!
1Q!
1X!
1)
0(
1k
1.!
12!
0/!
0X!
1A
1l
1h
0k
0.!
1B
0A
1>
0l
0B
#27000
1$
1O
1:!
1;!
1<!
0>!
1N!
0R!
0!!
1}
1|
0\!
0P!
1S!
0Y
1[
1\
02!
1[!
0Q!
1,
1+
0)
0h
11!
0>
1i
1?
#28000
0$
0#
1"
0O
0N
1M
18!
07!
0:!
0N!
1R!
1P!
0S!
0;!
1=!
1A!
1Q!
0T!
1$!
1~
0|
0Q!
0[!
1]!
1O!
0P!
1S!
1V
1Z
0\
13!
01!
1Y!
1Z!
1[!
0]!
1T!
1X!
0,
1*
1&
1g
0i
1.!
03!
11!
10!
1/!
0Z!
0[!
0?
1=
1l
0g
1i
1j
1k
01!
00!
1B
1A
1@
1?
0=
0i
0j
0@
0?
#29000
1$
1O
1:!
1;!
0<!
0=!
1@!
0A!
1N!
0R!
0$!
1#!
0~
0}
1|
0X!
0Y!
1[!
0O!
1P!
0S!
0V
1W
0Z
0[
1\
11!
0/!
0.!
0[!
0T!
1,
0+
0*
1'
0&
1i
0k
0l
01!
1Y!
1Z!
1^!
0B
0A
1?
0i
14!
10!
1/!
0?
1f
1j
1k
1A
1@
1<
#30000
0$
1#
0O
1N
17!
0:!
0N!
1R!
0;!
1<!
1=!
0@!
0P!
1S!
0#!
1~
1}
0|
1Q!
1X!
1[!
0^!
1P!
0S!
0W
1Z
1[
0\
04!
11!
1.!
0Y!
0Z!
0[!
1]!
0Q!
0X!
0,
1+
1*
0'
0f
1i
1l
0.!
13!
01!
00!
0/!
1X!
1B
1?
0<
0l
1g
0i
0j
0k
1.!
0B
0A
0@
0?
1=
1l
1B
#31000
1$
1O
1:!
1>!
1N!
0R!
1!!
0X!
1Y!
1Z!
0]!
1^!
0P!
1S!
1Y
14!
03!
10!
1/!
0.!
0^!
1Q!
1)
1f
0g
1j
1k
0l
04!
0B
1A
1@
0=
1<
0f
0<
#32000
0$
0#
0"
0!
00
1/
0O
0N
0M
0L
0S
1R
1D!
0C!
09!
08!
07!
0:!
0Q!
1T!
0<!
0=!
0>!
1A!
1V!
0F!
1H!
0I!
0J!
0L!
1O!
0,!
0*!
0)!
1(!
0&!
1$!
0!!
0~
0}
1Q!
0T!
1U!
1_!
0Y!
1]!
0^
0`
0a
1b
0d
1V
0Y
0Z
0[
13!
0/!
1`!
0V!
1Y!
0Z!
0]!
08
16
05
04
02
0+
0*
0)
1&
0a!
1g
0k
03!
00!
1/!
1Z!
0A
1=
06!
0g
0j
1k
10!
0m
1A
0@
0=
1j
09
1@
#33000
1$
1O
1:!
1;!
1>!
1?!
1@!
1R!
1#!
1"!
1!!
1|
1[!
1W
1X
1Y
1\
11!
1,
1)
1(
1'
1i
1?
#34000
0$
1#
0O
1N
17!
0:!
0R!
0;!
1=!
0>!
0?!
0A!
0O!
1P!
0S!
0$!
0"!
0!!
1~
0|
1T!
0U!
0_!
0[!
1^!
0V
0X
0Y
1Z
0\
14!
01!
0`!
1V!
0Y!
0Z!
0^!
0,
1*
0)
0(
0&
1a!
1f
0i
04!
00!
0/!
1^!
0?
1<
16!
0f
0j
0k
14!
1m
0A
0@
0<
1f
19
1<
#35000
1$
1O
1:!
0=!
1?!
1R!
1"!
0~
1W!
1[!
1\!
1]!
1X
0Z
13!
12!
11!
1X!
0*
1(
1g
1h
1i
1.!
1?
1>
1=
1l
1B
#36000
0$
0#
1"
0O
0N
1M
18!
07!
0:!
0R!
1O!
0P!
1S!
1;!
1>!
0@!
0Q!
0T!
0#!
1!!
1|
1T!
0W!
1Y!
0[!
0\!
0]!
0^!
0W
1Y
1\
04!
03!
02!
01!
1/!
0X!
0Y!
1Z!
1]!
1,
1)
0'
0f
0g
0h
0i
1k
13!
10!
0/!
0.!
1A
0?
0>
0=
0<
1g
1j
0k
0l
0B
0A
1@
1=
#37000
1$
1O
1:!
0;!
1<!
0>!
1R!
0!!
1}
0|
0Z!
1\!
0Y
1[
0\
12!
00!
0,
1+
0)
1h
0j
0@
1>
#38000
0$
1#
0O
1N
17!
0:!
0R!
0?!
0O!
1P!
0S!
0"!
0T!
0\!
0]!
1^!
0X
14!
03!
02!
1W!
1[!
1\!
0^!
0(
1f
0g
0h
04!
12!
11!
1X!
0>
0=
1<
0f
1h
1i
1.!
1?
1>
0<
1l
1B
#39000
1$
1O
1:!
0<!
1>!
1?!
1@!
1A!
1R!
1$!
1#!
1"!
1!!
0}
0W!
1Y!
0[!
1V
1W
1X
1Y
0[
01!
1/!
0X!
0+
1)
1(
1'
1&
0i
1k
0.!
1A
0?
0l
0B
#40000
0$
0#
0"
1!
0O
0N
0M
1L
19!
08!
07!
0:!
0R!
1O!
0P!
1S!
1Q!
1T!
0>!
0?!
0@!
0A!
0V!
0$!
0#!
0"!
0!!
0T!
1U!
1_!
0Y!
1[!
0\!
0V
0W
0X
0Y
02!
11!
0/!
1V!
1Y!
1Z!
0[!
0)
0(
0'
0&
0h
1i
0k
01!
10!
1/!
0Z!
0A
1?
0>
0i
1j
1k
00!
1A
1@
0?
0j
0@
#41000
1$
1O
1:!
1?!
1R!
1"!
0Y!
1[!
1\!
1]!
1^!
1X
14!
13!
12!
11!
0/!
1(
1f
1g
1h
1i
0k
0A
1?
1>
1=
1<
#42000
0$
1#
0O
1N
17!
0:!
0R!
1>!
0?!
0O!
1P!
0S!
0"!
1!!
1T!
0U!
0_!
1W!
0]!
0^!
0X
1Y
04!
03!
1X!
0V!
0W!
0[!
0\!
1^!
1)
0(
0f
0g
14!
02!
01!
1.!
0X!
0^!
0=
0<
1f
0h
0i
1l
04!
0.!
1B
0?
0>
1<
0f
0l
0B
0<
#43000
1$
1O
1:!
1;!
1<!
0>!
1R!
0!!
1}
1|
1\!
0Y
1[
1\
12!
1,
1+
0)
1h
1>
#44000
0$
0#
1"
0O
0N
1M
18!
07!
0:!
0R!
1O!
0P!
1S!
0;!
1=!
1A!
0Q!
0T!
1$!
1~
0|
1T!
1Y!
1Z!
0\!
1V
1Z
0\
02!
10!
1/!
0Y!
0Z!
1[!
0,
1*
1&
0h
1j
1k
11!
00!
0/!
1A
1@
0>
1i
0j
0k
0A
0@
1?
#45000
1$
1O
1:!
1;!
0<!
0=!
1@!
0A!
1R!
0$!
1#!
0~
0}
1|
1X!
1Y!
0[!
0V
1W
0Z
0[
1\
01!
1/!
1.!
1,
0+
0*
1'
0&
0i
1k
1l
1B
1A
0?
#46000
0$
1#
0O
1N
17!
0:!
0R!
0;!
1<!
1=!
0@!
0O!
1P!
0S!
0#!
1~
1}
0|
0T!
0X!
0Y!
0W
1Z
1[
0\
0/!
0.!
1Y!
1Z!
1^!
0,
1+
1*
0'
0k
0l
14!
10!
1/!
0B
0A
1f
1j
1k
1A
1@
1<
#47000
1$
1O
1:!
1>!
1R!
1!!
1X!
0Y!
0Z!
1]!
0^!
1Y
04!
13!
00!
0/!
1.!
1)
0f
1g
0j
0k
1l
1B
0A
0@
1=
0<
#48000
0$
0#
0"
0!
10
0O
0N
0M
0L
1S
1C!
09!
08!
07!
0:!
1O!
0P!
1S!
1Q!
1T!
0<!
0=!
0>!
1A!
1V!
0H!
1J!
0N!
1*!
0(!
1$!
0!!
0~
0}
1P!
0S!
0X!
1\!
0T!
1U!
1_!
1`
0b
1V
0Y
0Z
0[
12!
0.!
1`!
0V!
1Y!
0]!
0Q!
06
14
0+
0*
0)
1&
0a!
1h
0l
03!
1/!
1X!
0Y!
0\!
1]!
0B
1>
06!
0g
1k
13!
02!
0/!
1.!
0m
1A
0=
1g
0h
0k
1l
09
1B
0A
0>
1=
#49000
1$
1O
1:!
1;!
1>!
1?!
1@!
1N!
0R!
1#!
1"!
1!!
1|
0X!
1Y!
1Z!
0]!
1^!
0P!
1S!
1W
1X
1Y
1\
14!
03!
10!
1/!
0.!
0^!
1Q!
1,
1)
1(
1'
1f
0g
1j
1k
0l
04!
0B
1A
1@
0=
1<
0f
0<
#50000
0$
1#
0O
1N
17!
0:!
0N!
1R!
0;!
1=!
0>!
0?!
0A!
0O!
1P!
0S!
0$!
0"!
0!!
1~
0|
1T!
0U!
0_!
0Y!
0Z!
1]!
1O!
0P!
1S!
0V
0X
0Y
1Z
0\
13!
00!
0/!
0T!
1U!
1_!
0`!
1V!
1Y!
0]!
0,
1*
0)
0(
0&
1a!
1g
0j
0k
03!
1/!
1`!
0V!
0Y!
1[!
1\!
1]!
1^!
0A
0@
1=
16!
0a!
0g
1k
14!
13!
12!
11!
0/!
1Y!
1Z!
0\!
0]!
0^!
1m
1A
0=
06!
1f
1g
1h
1i
0k
19
04!
03!
02!
10!
1/!
0m
0A
1?
1>
1=
1<
0f
0g
0h
1j
1k
09
1A
1@
0>
0=
0<
#51000
1$
1O
1:!
0=!
1?!
1N!
0R!
1"!
0~
0[!
0O!
1P!
0S!
1X
0Z
01!
1^!
1T!
0U!
0_!
0*
1(
0i
14!
0`!
1V!
0Y!
0Z!
0^!
0?
1a!
1f
04!
00!
0/!
1^!
1<
16!
0f
0j
0k
14!
1m
0A
0@
0<
1f
19
1<
#52000
0$
0#
1"
0O
0N
1M
18!
07!
0:!
0N!
1R!
1O!
0P!
1S!
1;!
1>!
0@!
0Q!
0T!
0#!
1!!
1|
1T!
1[!
1\!
1]!
1P!
0S!
0W
1Y
1\
13!
12!
11!
1Q!
1W!
1,
1)
0'
1g
1h
1i
1X!
1?
1>
1=
1.!
1l
1B
#53000
1$
1O
1:!
0;!
1<!
0>!
1N!
0R!
0!!
1}
0|
0W!
0[!
0\!
0]!
0P!
1S!
0Y
1[
0\
03!
02!
01!
1Z!
1]!
0^!
0Q!
0X!
0,
1+
0)
0g
0h
0i
0.!
04!
13!
10!
0?
0>
0=
0l
0f
1g
1j
0B
1@
1=
0<
#54000
0$
1#
0O
1N
17!
0:!
0N!
1R!
0?!
0O!
1P!
0S!
0"!
0T!
1W!
0Z!
1[!
1\!
1^!
1O!
0P!
1S!
0X
14!
12!
11!
00!
1T!
1X!
0W!
0(
1f
1h
1i
0j
1.!
0X!
0[!
0^!
0@
1?
1>
1<
1l
04!
01!
0.!
1B
0f
0i
0l
0B
0?
0<
#55000
1$
1O
1:!
0<!
1>!
1?!
1@!
1A!
1N!
0R!
1$!
1#!
1"!
1!!
0}
1Z!
0\!
0O!
1P!
0S!
1V
1W
1X
1Y
0[
02!
10!
0Z!
0]!
1^!
0T!
0+
1)
1(
1'
1&
0h
1j
14!
03!
00!
1W!
1[!
1\!
0^!
1@
0>
1f
0g
0j
04!
12!
11!
1X!
0@
0=
1<
0f
1h
1i
1.!
1?
1>
0<
1l
1B
#56000
0$
0#
0"
1!
0O
0N
0M
1L
19!
08!
07!
0:!
0N!
1R!
1O!
0P!
1S!
1Q!
1T!
0>!
0?!
0@!
0A!
0V!
0$!
0#!
0"!
0!!
0T!
1U!
1_!
0W!
1Y!
0[!
0\!
1P!
0S!
0V
0W
0X
0Y
02!
01!
1/!
0Q!
0X!
1V!
0Y!
1]!
0)
0(
0'
0&
0h
0i
1k
13!
0/!
0.!
1Y!
1\!
0]!
1A
0?
0>
1g
0k
0l
03!
12!
1/!
0B
0A
1=
0g
1h
1k
1A
1>
0=
#57000
1$
1O
1:!
1?!
1N!
0R!
1"!
1W!
0Y!
1[!
0P!
1S!
1X
11!
0/!
0W!
1Y!
0[!
0\!
1Q!
1X!
1(
1i
0k
1.!
02!
01!
1/!
0X!
0A
1?
1l
0h
0i
1k
0.!
1B
1A
0?
0>
0l
0B
