PROJETOFINAL/simulation/qsim/finalProj.msim.vcd
$comment
	File created using the following command:
		vcd file finalProj.msim.vcd -direction
$end
$date
	Fri Nov 17 10:18:28 2023
$end
$version
	ModelSim Version 10.5b
$end
$timescale
	1ps
$end

$scope module vgasyncent_vhd_vec_tst $end
$var wire 1 ! clk $end
$var wire 1 " clk_20Hz $end
$var wire 1 # hPos [11] $end
$var wire 1 $ hPos [10] $end
$var wire 1 % hPos [9] $end
$var wire 1 & hPos [8] $end
$var wire 1 ' hPos [7] $end
$var wire 1 ( hPos [6] $end
$var wire 1 ) hPos [5] $end
$var wire 1 * hPos [4] $end
$var wire 1 + hPos [3] $end
$var wire 1 , hPos [2] $end
$var wire 1 - hPos [1] $end
$var wire 1 . hPos [0] $end
$var wire 1 / hSync $end
$var wire 1 0 rgbEn $end
$var wire 1 1 vPos [11] $end
$var wire 1 2 vPos [10] $end
$var wire 1 3 vPos [9] $end
$var wire 1 4 vPos [8] $end
$var wire 1 5 vPos [7] $end
$var wire 1 6 vPos [6] $end
$var wire 1 7 vPos [5] $end
$var wire 1 8 vPos [4] $end
$var wire 1 9 vPos [3] $end
$var wire 1 : vPos [2] $end
$var wire 1 ; vPos [1] $end
$var wire 1 < vPos [0] $end
$var wire 1 = vSync $end

$scope module i1 $end
$var wire 1 > gnd $end
$var wire 1 ? vcc $end
$var wire 1 @ unknown $end
$var wire 1 A devoe $end
$var wire 1 B devclrn $end
$var wire 1 C devpor $end
$var wire 1 D ww_devoe $end
$var wire 1 E ww_devclrn $end
$var wire 1 F ww_devpor $end
$var wire 1 G ww_clk $end
$var wire 1 H ww_vPos [11] $end
$var wire 1 I ww_vPos [10] $end
$var wire 1 J ww_vPos [9] $end
$var wire 1 K ww_vPos [8] $end
$var wire 1 L ww_vPos [7] $end
$var wire 1 M ww_vPos [6] $end
$var wire 1 N ww_vPos [5] $end
$var wire 1 O ww_vPos [4] $end
$var wire 1 P ww_vPos [3] $end
$var wire 1 Q ww_vPos [2] $end
$var wire 1 R ww_vPos [1] $end
$var wire 1 S ww_vPos [0] $end
$var wire 1 T ww_hPos [11] $end
$var wire 1 U ww_hPos [10] $end
$var wire 1 V ww_hPos [9] $end
$var wire 1 W ww_hPos [8] $end
$var wire 1 X ww_hPos [7] $end
$var wire 1 Y ww_hPos [6] $end
$var wire 1 Z ww_hPos [5] $end
$var wire 1 [ ww_hPos [4] $end
$var wire 1 \ ww_hPos [3] $end
$var wire 1 ] ww_hPos [2] $end
$var wire 1 ^ ww_hPos [1] $end
$var wire 1 _ ww_hPos [0] $end
$var wire 1 ` ww_clk_20Hz $end
$var wire 1 a ww_vSync $end
$var wire 1 b ww_hSync $end
$var wire 1 c ww_rgbEn $end
$var wire 1 d \~QUARTUS_CREATED_ADC1~_CHSEL_bus\ [4] $end
$var wire 1 e \~QUARTUS_CREATED_ADC1~_CHSEL_bus\ [3] $end
$var wire 1 f \~QUARTUS_CREATED_ADC1~_CHSEL_bus\ [2] $end
$var wire 1 g \~QUARTUS_CREATED_ADC1~_CHSEL_bus\ [1] $end
$var wire 1 h \~QUARTUS_CREATED_ADC1~_CHSEL_bus\ [0] $end
$var wire 1 i \~QUARTUS_CREATED_ADC2~_CHSEL_bus\ [4] $end
$var wire 1 j \~QUARTUS_CREATED_ADC2~_CHSEL_bus\ [3] $end
$var wire 1 k \~QUARTUS_CREATED_ADC2~_CHSEL_bus\ [2] $end
$var wire 1 l \~QUARTUS_CREATED_ADC2~_CHSEL_bus\ [1] $end
$var wire 1 m \~QUARTUS_CREATED_ADC2~_CHSEL_bus\ [0] $end
$var wire 1 n \clk~inputclkctrl_INCLK_bus\ [3] $end
$var wire 1 o \clk~inputclkctrl_INCLK_bus\ [2] $end
$var wire 1 p \clk~inputclkctrl_INCLK_bus\ [1] $end
$var wire 1 q \clk~inputclkctrl_INCLK_bus\ [0] $end
$var wire 1 r \~QUARTUS_CREATED_GND~I_combout\ $end
$var wire 1 s \~QUARTUS_CREATED_UNVM~~busy\ $end
$var wire 1 t \~QUARTUS_CREATED_ADC1~~eoc\ $end
$var wire 1 u \~QUARTUS_CREATED_ADC2~~eoc\ $end
$var wire 1 v \vPos[0]~output_o\ $end
$var wire 1 w \vPos[1]~output_o\ $end
$var wire 1 x \vPos[2]~output_o\ $end
$var wire 1 y \vPos[3]~output_o\ $end
$var wire 1 z \vPos[4]~output_o\ $end
$var wire 1 { \vPos[5]~output_o\ $end
$var wire 1 | \vPos[6]~output_o\ $end
$var wire 1 } \vPos[7]~output_o\ $end
$var wire 1 ~ \vPos[8]~output_o\ $end
$var wire 1 !! \vPos[9]~output_o\ $end
$var wire 1 "! \vPos[10]~output_o\ $end
$var wire 1 #! \vPos[11]~output_o\ $end
$var wire 1 $! \hPos[0]~output_o\ $end
$var wire 1 %! \hPos[1]~output_o\ $end
$var wire 1 &! \hPos[2]~output_o\ $end
$var wire 1 '! \hPos[3]~output_o\ $end
$var wire 1 (! \hPos[4]~output_o\ $end
$var wire 1 )! \hPos[5]~output_o\ $end
$var wire 1 *! \hPos[6]~output_o\ $end
$var wire 1 +! \hPos[7]~output_o\ $end
$var wire 1 ,! \hPos[8]~output_o\ $end
$var wire 1 -! \hPos[9]~output_o\ $end
$var wire 1 .! \hPos[10]~output_o\ $end
$var wire 1 /! \hPos[11]~output_o\ $end
$var wire 1 0! \clk_20Hz~output_o\ $end
$var wire 1 1! \vSync~output_o\ $end
$var wire 1 2! \hSync~output_o\ $end
$var wire 1 3! \rgbEn~output_o\ $end
$var wire 1 4! \clk~input_o\ $end
$var wire 1 5! \clk~inputclkctrl_outclk\ $end
$var wire 1 6! \Add17~0_combout\ $end
$var wire 1 7! \Add17~1\ $end
$var wire 1 8! \Add17~2_combout\ $end
$var wire 1 9! \Add16~0_combout\ $end
$var wire 1 :! \Add16~1\ $end
$var wire 1 ;! \Add16~2_combout\ $end
$var wire 1 <! \Add16~3\ $end
$var wire 1 =! \Add16~4_combout\ $end
$var wire 1 >! \Add16~5\ $end
$var wire 1 ?! \Add16~6_combout\ $end
$var wire 1 @! \Add16~7\ $end
$var wire 1 A! \Add16~8_combout\ $end
$var wire 1 B! \Add16~9\ $end
$var wire 1 C! \Add16~10_combout\ $end
$var wire 1 D! \Add16~15\ $end
$var wire 1 E! \Add16~16_combout\ $end
$var wire 1 F! \clock_cycle~1_combout\ $end
$var wire 1 G! \Add16~17\ $end
$var wire 1 H! \Add16~18_combout\ $end
$var wire 1 I! \clock_cycle~2_combout\ $end
$var wire 1 J! \Add16~19\ $end
$var wire 1 K! \Add16~20_combout\ $end
$var wire 1 L! \Add16~21\ $end
$var wire 1 M! \Add16~22_combout\ $end
$var wire 1 N! \Add16~23\ $end
$var wire 1 O! \Add16~24_combout\ $end
$var wire 1 P! \Add16~25\ $end
$var wire 1 Q! \Add16~26_combout\ $end
$var wire 1 R! \Add16~27\ $end
$var wire 1 S! \Add16~28_combout\ $end
$var wire 1 T! \Add16~29\ $end
$var wire 1 U! \Add16~30_combout\ $end
$var wire 1 V! \Equal0~5_combout\ $end
$var wire 1 W! \Equal0~6_combout\ $end
$var wire 1 X! \Equal0~7_combout\ $end
$var wire 1 Y! \Add16~31\ $end
$var wire 1 Z! \Add16~32_combout\ $end
$var wire 1 [! \Add16~33\ $end
$var wire 1 \! \Add16~34_combout\ $end
$var wire 1 ]! \Add16~35\ $end
$var wire 1 ^! \Add16~36_combout\ $end
$var wire 1 _! \Add16~37\ $end
$var wire 1 `! \Add16~38_combout\ $end
$var wire 1 a! \Add16~39\ $end
$var wire 1 b! \Add16~40_combout\ $end
$var wire 1 c! \Add16~41\ $end
$var wire 1 d! \Add16~42_combout\ $end
$var wire 1 e! \Add16~43\ $end
$var wire 1 f! \Add16~44_combout\ $end
$var wire 1 g! \Add16~45\ $end
$var wire 1 h! \Add16~46_combout\ $end
$var wire 1 i! \Add16~47\ $end
$var wire 1 j! \Add16~48_combout\ $end
$var wire 1 k! \Add16~49\ $end
$var wire 1 l! \Add16~50_combout\ $end
$var wire 1 m! \Add16~51\ $end
$var wire 1 n! \Add16~52_combout\ $end
$var wire 1 o! \Add16~53\ $end
$var wire 1 p! \Add16~54_combout\ $end
$var wire 1 q! \Equal0~1_combout\ $end
$var wire 1 r! \Add16~55\ $end
$var wire 1 s! \Add16~56_combout\ $end
$var wire 1 t! \Add16~57\ $end
$var wire 1 u! \Add16~58_combout\ $end
$var wire 1 v! \Add16~59\ $end
$var wire 1 w! \Add16~60_combout\ $end
$var wire 1 x! \Add16~61\ $end
$var wire 1 y! \Add16~62_combout\ $end
$var wire 1 z! \Equal0~0_combout\ $end
$var wire 1 {! \Equal0~2_combout\ $end
$var wire 1 |! \Equal0~3_combout\ $end
$var wire 1 }! \Equal0~4_combout\ $end
$var wire 1 ~! \Equal0~8_combout\ $end
$var wire 1 !" \clock_cycle~0_combout\ $end
$var wire 1 "" \Add16~11\ $end
$var wire 1 #" \Add16~12_combout\ $end
$var wire 1 $" \Add16~13\ $end
$var wire 1 %" \Add16~14_combout\ $end
$var wire 1 &" \Equal2~0_combout\ $end
$var wire 1 '" \Equal3~0_combout\ $end
$var wire 1 (" \lines[1]~1_combout\ $end
$var wire 1 )" \Add17~3\ $end
$var wire 1 *" \Add17~4_combout\ $end
$var wire 1 +" \lines[2]~2_combout\ $end
$var wire 1 ," \Add17~5\ $end
$var wire 1 -" \Add17~6_combout\ $end
$var wire 1 ." \lines[3]~3_combout\ $end
$var wire 1 /" \Add17~7\ $end
$var wire 1 0" \Add17~8_combout\ $end
$var wire 1 1" \lines[4]~4_combout\ $end
$var wire 1 2" \Add17~9\ $end
$var wire 1 3" \Add17~10_combout\ $end
$var wire 1 4" \lines[5]~5_combout\ $end
$var wire 1 5" \Add17~11\ $end
$var wire 1 6" \Add17~12_combout\ $end
$var wire 1 7" \lines[6]~6_combout\ $end
$var wire 1 8" \Add17~13\ $end
$var wire 1 9" \Add17~14_combout\ $end
$var wire 1 :" \lines[7]~7_combout\ $end
$var wire 1 ;" \Add17~15\ $end
$var wire 1 <" \Add17~16_combout\ $end
$var wire 1 =" \lines[8]~8_combout\ $end
$var wire 1 >" \Add17~17\ $end
$var wire 1 ?" \Add17~18_combout\ $end
$var wire 1 @" \lines[9]~9_combout\ $end
$var wire 1 A" \Equal6~0_combout\ $end
$var wire 1 B" \Add17~19\ $end
$var wire 1 C" \Add17~20_combout\ $end
$var wire 1 D" \lines[10]~10_combout\ $end
$var wire 1 E" \Add17~21\ $end
$var wire 1 F" \Add17~22_combout\ $end
$var wire 1 G" \lines[11]~11_combout\ $end
$var wire 1 H" \Add17~23\ $end
$var wire 1 I" \Add17~24_combout\ $end
$var wire 1 J" \lines[12]~31_combout\ $end
$var wire 1 K" \Add17~25\ $end
$var wire 1 L" \Add17~26_combout\ $end
$var wire 1 M" \lines[13]~30_combout\ $end
$var wire 1 N" \Add17~27\ $end
$var wire 1 O" \Add17~28_combout\ $end
$var wire 1 P" \lines[14]~29_combout\ $end
$var wire 1 Q" \Add17~29\ $end
$var wire 1 R" \Add17~30_combout\ $end
$var wire 1 S" \lines[15]~28_combout\ $end
$var wire 1 T" \Equal4~5_combout\ $end
$var wire 1 U" \Add17~31\ $end
$var wire 1 V" \Add17~32_combout\ $end
$var wire 1 W" \lines[16]~27_combout\ $end
$var wire 1 X" \Add17~33\ $end
$var wire 1 Y" \Add17~34_combout\ $end
$var wire 1 Z" \lines[17]~26_combout\ $end
$var wire 1 [" \Add17~35\ $end
$var wire 1 \" \Add17~36_combout\ $end
$var wire 1 ]" \lines[18]~25_combout\ $end
$var wire 1 ^" \Add17~37\ $end
$var wire 1 _" \Add17~38_combout\ $end
$var wire 1 `" \lines[19]~24_combout\ $end
$var wire 1 a" \Add17~39\ $end
$var wire 1 b" \Add17~40_combout\ $end
$var wire 1 c" \lines[20]~23_combout\ $end
$var wire 1 d" \Add17~41\ $end
$var wire 1 e" \Add17~42_combout\ $end
$var wire 1 f" \lines[21]~22_combout\ $end
$var wire 1 g" \Add17~43\ $end
$var wire 1 h" \Add17~44_combout\ $end
$var wire 1 i" \lines[22]~21_combout\ $end
$var wire 1 j" \Add17~45\ $end
$var wire 1 k" \Add17~46_combout\ $end
$var wire 1 l" \lines[23]~20_combout\ $end
$var wire 1 m" \Add17~47\ $end
$var wire 1 n" \Add17~48_combout\ $end
$var wire 1 o" \lines[24]~19_combout\ $end
$var wire 1 p" \Add17~49\ $end
$var wire 1 q" \Add17~50_combout\ $end
$var wire 1 r" \lines[25]~18_combout\ $end
$var wire 1 s" \Add17~51\ $end
$var wire 1 t" \Add17~52_combout\ $end
$var wire 1 u" \lines[26]~17_combout\ $end
$var wire 1 v" \Add17~53\ $end
$var wire 1 w" \Add17~54_combout\ $end
$var wire 1 x" \lines[27]~16_combout\ $end
$var wire 1 y" \Equal4~1_combout\ $end
$var wire 1 z" \Add17~55\ $end
$var wire 1 {" \Add17~56_combout\ $end
$var wire 1 |" \lines[28]~15_combout\ $end
$var wire 1 }" \Add17~57\ $end
$var wire 1 ~" \Add17~58_combout\ $end
$var wire 1 !# \lines[29]~14_combout\ $end
$var wire 1 "# \Add17~59\ $end
$var wire 1 ## \Add17~60_combout\ $end
$var wire 1 $# \lines[30]~13_combout\ $end
$var wire 1 %# \Add17~61\ $end
$var wire 1 &# \Add17~62_combout\ $end
$var wire 1 '# \lines[31]~12_combout\ $end
$var wire 1 (# \Equal4~0_combout\ $end
$var wire 1 )# \Equal4~2_combout\ $end
$var wire 1 *# \Equal4~3_combout\ $end
$var wire 1 +# \Equal4~4_combout\ $end
$var wire 1 ,# \Equal4~6_combout\ $end
$var wire 1 -# \Equal4~7_combout\ $end
$var wire 1 .# \Equal6~1_combout\ $end
$var wire 1 /# \Equal7~0_combout\ $end
$var wire 1 0# \lines[0]~0_combout\ $end
$var wire 1 1# \Add1~0_combout\ $end
$var wire 1 2# \Add1~1\ $end
$var wire 1 3# \Add1~2_combout\ $end
$var wire 1 4# \Add1~3\ $end
$var wire 1 5# \Add1~4_combout\ $end
$var wire 1 6# \Add1~5\ $end
$var wire 1 7# \Add1~6_combout\ $end
$var wire 1 8# \Add1~7\ $end
$var wire 1 9# \Add1~8_combout\ $end
$var wire 1 :# \Add1~9\ $end
$var wire 1 ;# \Add1~10_combout\ $end
$var wire 1 <# \Add1~11\ $end
$var wire 1 =# \Add1~12_combout\ $end
$var wire 1 ># \Add1~13\ $end
$var wire 1 ?# \Add1~14_combout\ $end
$var wire 1 @# \Add1~15\ $end
$var wire 1 A# \Add1~16_combout\ $end
$var wire 1 B# \Add1~17\ $end
$var wire 1 C# \Add1~18_combout\ $end
$var wire 1 D# \Add1~19\ $end
$var wire 1 E# \Add1~20_combout\ $end
$var wire 1 F# \Add3~1_cout\ $end
$var wire 1 G# \Add3~2_combout\ $end
$var wire 1 H# \Add3~3\ $end
$var wire 1 I# \Add3~4_combout\ $end
$var wire 1 J# \Add3~5\ $end
$var wire 1 K# \Add3~6_combout\ $end
$var wire 1 L# \Add3~7\ $end
$var wire 1 M# \Add3~8_combout\ $end
$var wire 1 N# \Add3~9\ $end
$var wire 1 O# \Add3~10_combout\ $end
$var wire 1 P# \Add3~11\ $end
$var wire 1 Q# \Add3~12_combout\ $end
$var wire 1 R# \Add3~13\ $end
$var wire 1 S# \Add3~14_combout\ $end
$var wire 1 T# \Equal4~8_combout\ $end
$var wire 1 U# \Equal6~2_combout\ $end
$var wire 1 V# \Equal5~0_combout\ $end
$var wire 1 W# \Equal4~9_combout\ $end
$var wire 1 X# \Selector7~0_combout\ $end
$var wire 1 Y# \Selector7~1_combout\ $end
$var wire 1 Z# \vState.vBs~q\ $end
$var wire 1 [# \Selector11~0_combout\ $end
$var wire 1 \# \Selector8~0_combout\ $end
$var wire 1 ]# \vState.vCs~q\ $end
$var wire 1 ^# \Selector9~0_combout\ $end
$var wire 1 _# \vState.vDs~q\ $end
$var wire 1 `# \Equal4~10_combout\ $end
$var wire 1 a# \Selector6~0_combout\ $end
$var wire 1 b# \vState.vAs~q\ $end
$var wire 1 c# \vSync_s~0_combout\ $end
$var wire 1 d# \vSync_s~1_combout\ $end
$var wire 1 e# \vSync_s~q\ $end
$var wire 1 f# \Selector2~0_combout\ $end
$var wire 1 g# \Equal0~9_combout\ $end
$var wire 1 h# \Equal0~10_combout\ $end
$var wire 1 i# \Selector0~0_combout\ $end
$var wire 1 j# \hState.hAs~q\ $end
$var wire 1 k# \Equal1~0_combout\ $end
$var wire 1 l# \Selector1~0_combout\ $end
$var wire 1 m# \hState.hBs~q\ $end
$var wire 1 n# \Selector2~1_combout\ $end
$var wire 1 o# \hState.hCs~q\ $end
$var wire 1 p# \Equal2~1_combout\ $end
$var wire 1 q# \Selector3~0_combout\ $end
$var wire 1 r# \hState.hDs~q\ $end
$var wire 1 s# \hSync_s~0_combout\ $end
$var wire 1 t# \hSync_s~1_combout\ $end
$var wire 1 u# \hSync_s~q\ $end
$var wire 1 v# \vEn~2_combout\ $end
$var wire 1 w# \vEn~3_combout\ $end
$var wire 1 x# \vEn~q\ $end
$var wire 1 y# \hEn~0_combout\ $end
$var wire 1 z# \hEn~1_combout\ $end
$var wire 1 {# \hEn~q\ $end
$var wire 1 |# \rgbEn~0_combout\ $end
$var wire 1 }# clock_cycle [31] $end
$var wire 1 ~# clock_cycle [30] $end
$var wire 1 !$ clock_cycle [29] $end
$var wire 1 "$ clock_cycle [28] $end
$var wire 1 #$ clock_cycle [27] $end
$var wire 1 $$ clock_cycle [26] $end
$var wire 1 %$ clock_cycle [25] $end
$var wire 1 &$ clock_cycle [24] $end
$var wire 1 '$ clock_cycle [23] $end
$var wire 1 ($ clock_cycle [22] $end
$var wire 1 )$ clock_cycle [21] $end
$var wire 1 *$ clock_cycle [20] $end
$var wire 1 +$ clock_cycle [19] $end
$var wire 1 ,$ clock_cycle [18] $end
$var wire 1 -$ clock_cycle [17] $end
$var wire 1 .$ clock_cycle [16] $end
$var wire 1 /$ clock_cycle [15] $end
$var wire 1 0$ clock_cycle [14] $end
$var wire 1 1$ clock_cycle [13] $end
$var wire 1 2$ clock_cycle [12] $end
$var wire 1 3$ clock_cycle [11] $end
$var wire 1 4$ clock_cycle [10] $end
$var wire 1 5$ clock_cycle [9] $end
$var wire 1 6$ clock_cycle [8] $end
$var wire 1 7$ clock_cycle [7] $end
$var wire 1 8$ clock_cycle [6] $end
$var wire 1 9$ clock_cycle [5] $end
$var wire 1 :$ clock_cycle [4] $end
$var wire 1 ;$ clock_cycle [3] $end
$var wire 1 <$ clock_cycle [2] $end
$var wire 1 =$ clock_cycle [1] $end
$var wire 1 >$ clock_cycle [0] $end
$var wire 1 ?$ lines [31] $end
$var wire 1 @$ lines [30] $end
$var wire 1 A$ lines [29] $end
$var wire 1 B$ lines [28] $end
$var wire 1 C$ lines [27] $end
$var wire 1 D$ lines [26] $end
$var wire 1 E$ lines [25] $end
$var wire 1 F$ lines [24] $end
$var wire 1 G$ lines [23] $end
$var wire 1 H$ lines [22] $end
$var wire 1 I$ lines [21] $end
$var wire 1 J$ lines [20] $end
$var wire 1 K$ lines [19] $end
$var wire 1 L$ lines [18] $end
$var wire 1 M$ lines [17] $end
$var wire 1 N$ lines [16] $end
$var wire 1 O$ lines [15] $end
$var wire 1 P$ lines [14] $end
$var wire 1 Q$ lines [13] $end
$var wire 1 R$ lines [12] $end
$var wire 1 S$ lines [11] $end
$var wire 1 T$ lines [10] $end
$var wire 1 U$ lines [9] $end
$var wire 1 V$ lines [8] $end
$var wire 1 W$ lines [7] $end
$var wire 1 X$ lines [6] $end
$var wire 1 Y$ lines [5] $end
$var wire 1 Z$ lines [4] $end
$var wire 1 [$ lines [3] $end
$var wire 1 \$ lines [2] $end
$var wire 1 ]$ lines [1] $end
$var wire 1 ^$ lines [0] $end
$var wire 1 _$ ALT_INV_clock_cycle [4] $end
$var wire 1 `$ ALT_INV_lines [0] $end
$upscope $end
$upscope $end
$enddefinitions $end
#0
$dumpvars
0!
0"
0/
00
0=
0>
1?
x@
1A
1B
1C
1D
1E
1F
0G
0`
0a
0b
0c
0r
zs
zt
zu
1v
0w
1x
1y
1z
0{
1|
1}
1~
1!!
1"!
1#!
0$!
0%!
0&!
0'!
1(!
1)!
1*!
0+!
1,!
1-!
1.!
1/!
00!
01!
02!
03!
04!
05!
16!
07!
08!
19!
0:!
0;!
1<!
0=!
0>!
0?!
1@!
0A!
0B!
0C!
1D!
0E!
0F!
0G!
0H!
0I!
1J!
0K!
0L!
0M!
1N!
0O!
0P!
0Q!
1R!
0S!
0T!
0U!
1V!
0W!
0X!
1Y!
0Z!
0[!
0\!
1]!
0^!
0_!
0`!
1a!
0b!
0c!
0d!
1e!
0f!
0g!
0h!
1i!
0j!
0k!
0l!
1m!
0n!
0o!
0p!
1q!
1r!
0s!
0t!
0u!
1v!
0w!
0x!
0y!
1z!
1{!
1|!
1}!
0~!
0!"
1""
0#"
0$"
0%"
0&"
1'"
0("
1)"
0*"
0+"
0,"
0-"
0."
1/"
00"
01"
02"
03"
04"
15"
06"
07"
08"
09"
0:"
1;"
0<"
0="
0>"
0?"
0@"
0A"
1B"
0C"
0D"
0E"
0F"
0G"
1H"
0I"
0J"
0K"
0L"
0M"
1N"
0O"
0P"
0Q"
0R"
0S"
1T"
1U"
0V"
0W"
0X"
0Y"
0Z"
1["
0\"
0]"
0^"
0_"
0`"
1a"
0b"
0c"
0d"
0e"
0f"
1g"
0h"
0i"
0j"
0k"
0l"
1m"
0n"
0o"
0p"
0q"
0r"
1s"
0t"
0u"
0v"
0w"
0x"
1y"
1z"
0{"
0|"
0}"
0~"
0!#
1"#
0##
0$#
0%#
0&#
0'#
1(#
1)#
1*#
1+#
1,#
1-#
0.#
0/#
00#
01#
02#
13#
14#
15#
06#
17#
18#
09#
0:#
1;#
1<#
1=#
0>#
1?#
1@#
1A#
0B#
1C#
1D#
1E#
0F#
1G#
1H#
1I#
0J#
0K#
1L#
1M#
0N#
1O#
1P#
1Q#
0R#
1S#
1T#
0U#
0V#
1W#
0X#
0Y#
0Z#
0[#
0\#
0]#
0^#
0_#
0`#
0a#
0b#
0c#
0d#
0e#
0f#
0g#
0h#
0i#
0j#
0k#
0l#
0m#
0n#
0o#
0p#
0q#
0r#
0s#
0t#
0u#
0v#
0w#
0x#
0y#
0z#
0{#
0|#
1H
1I
1J
1K
1L
1M
0N
1O
1P
1Q
0R
1S
1T
1U
1V
1W
0X
1Y
1Z
1[
0\
0]
0^
0_
0}#
0~#
0!$
0"$
0#$
0$$
0%$
0&$
0'$
0($
0)$
0*$
0+$
0,$
0-$
0.$
0/$
00$
01$
02$
03$
04$
05$
06$
07$
08$
09$
0:$
0;$
0<$
0=$
0>$
0?$
0@$
0A$
0B$
0C$
0D$
0E$
0F$
0G$
0H$
0I$
0J$
0K$
0L$
0M$
0N$
0O$
0P$
0Q$
0R$
0S$
0T$
0U$
0V$
0W$
0X$
0Y$
0Z$
0[$
0\$
0]$
0^$
1_$
1`$
1n
1o
1p
0q
0d
0e
0f
0g
0h
0i
0j
0k
0l
0m
1#
1$
1%
1&
0'
1(
1)
1*
0+
0,
0-
0.
11
12
13
14
15
16
07
18
19
1:
0;
1<
$end
#2500
1!
1G
14!
1q
15!
1>$
1$!
09!
1:!
1_
1;!
1.
#5000
0!
0G
04!
0q
05!
#7500
1!
1G
14!
1q
15!
0>$
1=$
1%!
0$!
0;!
0<!
19!
0:!
1^
0_
1;!
1<!
1=!
0.
1-
0=!
#10000
0!
0G
04!
0q
05!
#12500
1!
1G
14!
1q
15!
1>$
1$!
09!
1:!
1_
0;!
0<!
1.
1=!
#15000
0!
0G
04!
0q
05!
#17500
1!
1G
14!
1q
15!
0>$
0=$
1<$
1&!
0%!
0$!
0=!
1>!
1;!
1<!
19!
0:!
1]
0^
0_
0;!
1=!
0>!
1?!
0.
0-
1,
0?!
#20000
0!
0G
04!
0q
05!
#22500
1!
1G
14!
1q
15!
1>$
1$!
09!
1:!
1_
1;!
1.
#25000
0!
0G
04!
0q
05!
#27500
1!
1G
14!
1q
15!
0>$
1=$
1%!
0$!
0;!
0<!
19!
0:!
1^
0_
1;!
1<!
0=!
1>!
0.
1-
1?!
1=!
0>!
0?!
#30000
0!
0G
04!
0q
05!
#32500
1!
1G
14!
1q
15!
1>$
1$!
09!
1:!
1_
0;!
0<!
1.
0=!
1>!
1?!
#35000
0!
0G
04!
0q
05!
#37500
1!
1G
14!
1q
15!
0>$
0=$
0<$
1;$
1'!
0&!
0%!
0$!
0?!
0@!
1W!
1=!
0>!
1;!
1<!
19!
0:!
1\
0]
0^
0_
0;!
0=!
1?!
1@!
1A!
0.
0-
0,
1+
0A!
#40000
0!
0G
04!
0q
05!
#42500
1!
1G
14!
1q
15!
1>$
1$!
09!
1:!
1_
1;!
1.
#45000
0!
0G
04!
0q
05!
#47500
1!
1G
14!
1q
15!
0>$
1=$
1%!
0$!
0;!
0<!
19!
0:!
1^
0_
1;!
1<!
1=!
0.
1-
0=!
#50000
0!
0G
04!
0q
05!
#52500
1!
1G
14!
1q
15!
1>$
1$!
09!
1:!
1_
0;!
0<!
1.
1=!
#55000
0!
0G
04!
0q
05!
#57500
1!
1G
14!
1q
15!
0>$
0=$
1<$
1&!
0%!
0$!
0=!
1>!
1;!
1<!
19!
0:!
1]
0^
0_
0;!
1=!
0>!
0?!
0@!
0.
0-
1,
1A!
1?!
1@!
0A!
#60000
0!
0G
04!
0q
05!
#62500
1!
1G
14!
1q
15!
1>$
1$!
09!
1:!
1_
1;!
1.
#65000
0!
0G
04!
0q
05!
#67500
1!
1G
14!
1q
15!
0>$
1=$
1%!
0$!
0;!
0<!
19!
0:!
1^
0_
1;!
1<!
0=!
1>!
0.
1-
0?!
0@!
1=!
0>!
1?!
1@!
1A!
0A!
#70000
0!
0G
04!
0q
05!
#72500
1!
1G
14!
1q
15!
1>$
1$!
09!
1:!
1X!
1_
1~!
0;!
0<!
1.
0=!
1>!
1g#
0?!
0@!
1A!
#75000
0!
0G
04!
0q
05!
#77500
1!
1G
14!
1q
15!
0>$
0=$
0<$
0;$
1:$
0_$
0'!
0&!
0%!
0$!
0A!
1B!
1F#
1?!
1@!
0W!
1=!
0>!
1;!
1<!
19!
0:!
0X!
0(!
0\
0]
0^
0_
0~!
0;!
0=!
0?!
1A!
0B!
0G#
0H#
1C!
0[
0.
0-
0,
0+
0*
0)!
0I#
1J#
0C!
1!"
0g#
0Z
0*!
0!"
1K#
0)
0Y
1+!
0(
1X
1'
#80000
0!
0G
04!
0q
05!
#82500
1!
1G
14!
1q
15!
1>$
1$!
09!
1:!
1_
1;!
1.
#85000
0!
0G
04!
0q
05!
#87500
1!
1G
14!
1q
15!
0>$
1=$
1%!
0$!
0;!
0<!
19!
0:!
1^
0_
1;!
1<!
1=!
0.
1-
0=!
#90000
0!
0G
04!
0q
05!
#92500
1!
1G
14!
1q
15!
1>$
1$!
09!
1:!
1_
0;!
0<!
1.
1=!
#95000
0!
0G
04!
0q
05!
#97500
1!
1G
14!
1q
15!
0>$
0=$
1<$
1&!
0%!
0$!
0=!
1>!
1;!
1<!
19!
0:!
1]
0^
0_
0;!
1=!
0>!
1?!
0.
0-
1,
0?!
#100000
0!
0G
04!
0q
05!
#102500
1!
1G
14!
1q
15!
1>$
1$!
09!
1:!
1_
1;!
1.
#105000
0!
0G
04!
0q
05!
#107500
1!
1G
14!
1q
15!
0>$
1=$
1%!
0$!
0;!
0<!
19!
0:!
1^
0_
1;!
1<!
0=!
1>!
0.
1-
1?!
1=!
0>!
0?!
#110000
0!
0G
04!
0q
05!
#112500
1!
1G
14!
1q
15!
1>$
1$!
09!
1:!
1_
0;!
0<!
1.
0=!
1>!
1?!
#115000
0!
0G
04!
0q
05!
#117500
1!
1G
14!
1q
15!
0>$
0=$
0<$
1;$
1'!
0&!
0%!
0$!
0?!
0@!
1W!
1=!
0>!
1;!
1<!
19!
0:!
1\
0]
0^
0_
0;!
0=!
1?!
1@!
0A!
1B!
0.
0-
0,
1+
1C!
1A!
0B!
0C!
1!"
0!"
#120000
0!
0G
04!
0q
05!
#122500
1!
1G
14!
1q
15!
1>$
1$!
09!
1:!
1_
1;!
1.
#125000
0!
0G
04!
0q
05!
#127500
1!
1G
14!
1q
15!
0>$
1=$
1%!
0$!
0;!
0<!
19!
0:!
1^
0_
1;!
1<!
1=!
0.
1-
0=!
#130000
0!
0G
04!
0q
05!
#132500
1!
1G
14!
1q
15!
1>$
1$!
09!
1:!
1_
0;!
0<!
1.
1=!
#135000
0!
0G
04!
0q
05!
#137500
1!
1G
14!
1q
15!
0>$
0=$
1<$
1&!
0%!
0$!
0=!
1>!
1;!
1<!
19!
0:!
1]
0^
0_
0;!
1=!
0>!
0?!
0@!
0.
0-
1,
0A!
1B!
1?!
1@!
1A!
0B!
1C!
1!"
0C!
0!"
#140000
0!
0G
04!
0q
05!
#142500
1!
1G
14!
1q
15!
1>$
1$!
09!
1:!
1_
1;!
1.
#145000
0!
0G
04!
0q
05!
#147500
1!
1G
14!
1q
15!
0>$
1=$
1%!
0$!
0;!
0<!
19!
0:!
1^
0_
1;!
1<!
0=!
1>!
0.
1-
0?!
0@!
1=!
0>!
1?!
1@!
0A!
1B!
1C!
1A!
0B!
0C!
1!"
0!"
#150000
0!
0G
04!
0q
05!
#152500
1!
1G
14!
1q
15!
1>$
1$!
09!
1:!
1X!
1_
1~!
0;!
0<!
1.
0=!
1>!
1g#
0?!
0@!
0A!
1B!
1C!
1!"
#155000
0!
0G
04!
0q
05!
