copy_lab05/simulation/qsim/lab_05.msim.vcd
$comment
	File created using the following command:
		vcd file lab_05.msim.vcd -direction
$end
$date
	Thu Nov  9 15:35:39 2023
$end
$version
	ModelSim Version 10.5b
$end
$timescale
	1ps
$end

$scope module sync_9_count_vhd_vec_tst $end
$var wire 1 ! auto_ps $end
$var wire 1 " clk $end
$var wire 1 # cmp_in [3] $end
$var wire 1 $ cmp_in [2] $end
$var wire 1 % cmp_in [1] $end
$var wire 1 & cmp_in [0] $end
$var wire 1 ' Co $end
$var wire 1 ( outp [3] $end
$var wire 1 ) outp [2] $end
$var wire 1 * outp [1] $end
$var wire 1 + outp [0] $end
$var wire 1 , pb_pause $end
$var wire 1 - pb_rst $end
$var wire 1 . psed_o $end

$scope module i1 $end
$var wire 1 / gnd $end
$var wire 1 0 vcc $end
$var wire 1 1 unknown $end
$var wire 1 2 devoe $end
$var wire 1 3 devclrn $end
$var wire 1 4 devpor $end
$var wire 1 5 ww_devoe $end
$var wire 1 6 ww_devclrn $end
$var wire 1 7 ww_devpor $end
$var wire 1 8 ww_clk $end
$var wire 1 9 ww_pb_rst $end
$var wire 1 : ww_auto_ps $end
$var wire 1 ; ww_pb_pause $end
$var wire 1 < ww_cmp_in [3] $end
$var wire 1 = ww_cmp_in [2] $end
$var wire 1 > ww_cmp_in [1] $end
$var wire 1 ? ww_cmp_in [0] $end
$var wire 1 @ ww_Co $end
$var wire 1 A ww_psed_o $end
$var wire 1 B ww_outp [3] $end
$var wire 1 C ww_outp [2] $end
$var wire 1 D ww_outp [1] $end
$var wire 1 E ww_outp [0] $end
$var wire 1 F \~QUARTUS_CREATED_ADC1~_CHSEL_bus\ [4] $end
$var wire 1 G \~QUARTUS_CREATED_ADC1~_CHSEL_bus\ [3] $end
$var wire 1 H \~QUARTUS_CREATED_ADC1~_CHSEL_bus\ [2] $end
$var wire 1 I \~QUARTUS_CREATED_ADC1~_CHSEL_bus\ [1] $end
$var wire 1 J \~QUARTUS_CREATED_ADC1~_CHSEL_bus\ [0] $end
$var wire 1 K \~QUARTUS_CREATED_ADC2~_CHSEL_bus\ [4] $end
$var wire 1 L \~QUARTUS_CREATED_ADC2~_CHSEL_bus\ [3] $end
$var wire 1 M \~QUARTUS_CREATED_ADC2~_CHSEL_bus\ [2] $end
$var wire 1 N \~QUARTUS_CREATED_ADC2~_CHSEL_bus\ [1] $end
$var wire 1 O \~QUARTUS_CREATED_ADC2~_CHSEL_bus\ [0] $end
$var wire 1 P \~QUARTUS_CREATED_GND~I_combout\ $end
$var wire 1 Q \~QUARTUS_CREATED_UNVM~~busy\ $end
$var wire 1 R \~QUARTUS_CREATED_ADC1~~eoc\ $end
$var wire 1 S \~QUARTUS_CREATED_ADC2~~eoc\ $end
$var wire 1 T \Co~output_o\ $end
$var wire 1 U \psed_o~output_o\ $end
$var wire 1 V \outp[0]~output_o\ $end
$var wire 1 W \outp[1]~output_o\ $end
$var wire 1 X \outp[2]~output_o\ $end
$var wire 1 Y \outp[3]~output_o\ $end
$var wire 1 Z \pb_pause~input_o\ $end
$var wire 1 [ \pause_trigger~0_combout\ $end
$var wire 1 \ \pb_rst~input_o\ $end
$var wire 1 ] \auto_ps~input_o\ $end
$var wire 1 ^ \cmp_in[2]~input_o\ $end
$var wire 1 _ \cmp_in[3]~input_o\ $end
$var wire 1 ` \clk~input_o\ $end
$var wire 1 a \gen00~0_combout\ $end
$var wire 1 b \lock_compTant~0_combout\ $end
$var wire 1 c \gen00~2_combout\ $end
$var wire 1 d \cmp_in[1]~input_o\ $end
$var wire 1 e \D_sM[1]~2_combout\ $end
$var wire 1 f \gen00~3_combout\ $end
$var wire 1 g \cmp_in[0]~input_o\ $end
$var wire 1 h \D_sM[0]~1_combout\ $end
$var wire 1 i \gen00:0:ff0i~feeder_combout\ $end
$var wire 1 j \gen00:0:ff0i~q\ $end
$var wire 1 k \gen00:3:ff0i~0_combout\ $end
$var wire 1 l \gen00:1:ff0i~q\ $end
$var wire 1 m \D_sM[3]~0_combout\ $end
$var wire 1 n \gen00:3:ff0i~q\ $end
$var wire 1 o \comb~3_combout\ $end
$var wire 1 p \comb~2_combout\ $end
$var wire 1 q \comb~0_combout\ $end
$var wire 1 r \lock_compare_trigger~0_combout\ $end
$var wire 1 s \comb~1_combout\ $end
$var wire 1 t \lock_compare_trigger~q\ $end
$var wire 1 u \comb~5_combout\ $end
$var wire 1 v \pause_trigger~q\ $end
$var wire 1 w \gen00~1_combout\ $end
$var wire 1 x \D_s[2]~0_combout\ $end
$var wire 1 y \gen00:2:ff0i~0_combout\ $end
$var wire 1 z \gen00:2:ff0i~q\ $end
$var wire 1 { \rst_cmp|outp~0_combout\ $end
$var wire 1 | \ALT_INV_pb_pause~input_o\ $end
$var wire 1 } \ALT_INV_comb~5_combout\ $end
$var wire 1 ~ \ALT_INV_comb~1_combout\ $end
$upscope $end
$upscope $end
$enddefinitions $end
#0
$dumpvars
1!
0"
0'
1,
1-
0.
0/
10
x1
12
13
14
15
16
17
08
19
1:
1;
0@
0A
0P
zQ
zR
zS
0T
0U
0V
0W
0X
0Y
1Z
1[
1\
1]
1^
0_
0`
0a
0b
0c
0d
1e
0f
0g
1h
1i
0j
0k
0l
0m
0n
0o
1p
0q
1r
0s
0t
0u
0v
0w
0x
0y
0z
0{
0|
1}
1~
0#
1$
0%
0&
0(
0)
0*
0+
0<
1=
0>
0?
0B
0C
0D
0E
0F
0G
0H
0I
0J
0K
0L
0M
0N
0O
$end
#10000
1"
18
1`
1a
1c
1f
1w
1j
1V
0h
1k
0p
1x
1E
0i
1+
#20000
0"
08
0`
0a
0c
0f
0w
#30000
1"
18
1`
1a
1c
1f
1w
0j
1l
1W
0V
0e
1y
1h
0k
0x
1D
0E
0y
1i
0+
1*
#40000
0"
08
0`
0a
0c
0f
0w
#50000
1"
18
1`
1a
1c
1f
1w
1j
1V
0h
1k
1x
1E
1y
0i
1+
#60000
0"
08
0`
0a
0c
0f
0w
#70000
1"
18
1`
1a
1c
1f
1w
1z
0j
0l
0W
0V
1X
1e
1h
0k
1p
1o
0D
0E
1C
1q
1i
0+
0*
1)
1t
1b
0h
1k
0r
1u
0}
1U
0i
0e
1A
1.
#80000
0"
08
0`
0a
0c
0f
0w
#90000
1"
18
1`
1a
1c
1f
1w
#100000
0"
08
0`
0a
0c
0f
0w
#110000
1"
18
1`
1a
1c
1f
1w
#120000
0"
08
0`
0a
0c
0f
0w
#130000
1"
18
1`
1a
1c
1f
1w
#140000
0"
08
0`
0a
0c
0f
0w
#150000
1"
18
1`
1a
1c
1f
1w
#160000
0"
08
0`
0a
0c
0f
0w
#170000
1"
18
1`
1a
1c
1f
1w
#180000
0"
0,
08
0;
0Z
0`
1|
0a
0c
0f
0w
1s
0~
0t
0b
1h
0k
1r
0u
1}
0U
1i
1e
0A
0.
#190000
1"
1,
18
1;
1Z
1`
0|
1a
1c
1f
1w
0s
1~
1j
1V
0h
1k
0p
0x
1E
0q
0i
1+
#200000
0"
08
0`
0a
0c
0f
0w
#210000
1"
18
1`
1a
1c
1f
1w
0j
1l
1W
0V
0e
1m
0y
1h
0k
1x
1D
0E
1y
1i
0+
1*
#220000
0"
08
0`
0a
0c
0f
0w
#230000
1"
18
1`
1a
1c
1f
1w
1j
1V
0h
1k
0x
1E
0y
0i
1+
#240000
0"
08
0`
0a
0c
0f
0w
#250000
1"
18
1`
1a
1c
1f
1w
0z
0j
0l
1n
1Y
0W
0V
0X
1h
0k
1p
0m
0o
1B
0D
0E
0C
1i
0+
0*
0)
1(
#260000
0"
08
0`
0a
0c
0f
0w
#270000
1"
18
1`
1a
1c
1f
1w
1j
1V
0h
1k
0p
1x
1{
1E
1T
0i
1+
1@
1'
#280000
0"
08
0`
0a
0c
0f
0w
#290000
1"
18
1`
1a
1c
1f
1w
0j
0n
0Y
0V
1e
1h
0k
1p
0x
0{
0B
0E
0T
1i
0+
0(
0@
0'
#300000
0"
08
0`
0a
0c
0f
0w
#310000
1"
18
1`
1a
1c
1f
1w
1j
1V
0h
1k
0p
1x
1E
0i
1+
#320000
0"
08
0`
0a
0c
0f
0w
#330000
1"
18
1`
1a
1c
1f
1w
0j
1l
1W
0V
0e
1y
1h
0k
0x
1D
0E
0y
1i
0+
1*
#340000
0"
08
0`
0a
0c
0f
0w
#350000
1"
18
1`
1a
1c
1f
1w
1j
1V
0h
1k
1x
1E
1y
0i
1+
#360000
0"
08
0`
0a
0c
0f
0w
#370000
1"
18
1`
1a
1c
1f
1w
1z
0j
0l
0W
0V
1X
1e
1h
0k
1p
1o
0D
0E
1C
1q
1i
0+
0*
1)
1t
1b
0h
1k
0r
1u
0}
1U
0i
0e
1A
1.
#380000
0"
08
0`
0a
0c
0f
0w
#390000
1"
18
1`
1a
1c
1f
1w
#400000
0"
08
0`
0a
0c
0f
0w
#410000
1"
18
1`
1a
1c
1f
1w
#420000
0"
08
0`
0a
0c
0f
0w
#430000
1"
18
1`
1a
1c
1f
1w
#440000
0"
08
0`
0a
0c
0f
0w
#450000
1"
18
1`
1a
1c
1f
1w
#460000
0"
08
0`
0a
0c
0f
0w
#470000
1"
18
1`
1a
1c
1f
1w
#480000
0"
08
0`
0a
0c
0f
0w
#490000
1"
18
1`
1a
1c
1f
1w
#500000
0"
08
0`
0a
0c
0f
0w
#510000
1"
18
1`
1a
1c
1f
1w
#520000
0"
08
0`
0a
0c
0f
0w
#530000
1"
18
1`
1a
1c
1f
1w
#540000
0"
08
0`
0a
0c
0f
0w
#550000
1"
18
1`
1a
1c
1f
1w
#560000
0"
08
0`
0a
0c
0f
0w
#570000
1"
18
1`
1a
1c
1f
1w
#580000
0"
08
0`
0a
0c
0f
0w
#590000
1"
18
1`
1a
1c
1f
1w
#600000
0"
08
0`
0a
0c
0f
0w
#610000
1"
18
1`
1a
1c
1f
1w
#620000
0"
08
0`
0a
0c
0f
0w
#630000
1"
18
1`
1a
1c
1f
1w
#640000
0"
08
0`
0a
0c
0f
0w
#650000
1"
18
1`
1a
1c
1f
1w
#660000
0"
08
0`
0a
0c
0f
0w
#670000
1"
18
1`
1a
1c
1f
1w
#680000
0"
08
0`
0a
0c
0f
0w
#690000
1"
18
1`
1a
1c
1f
1w
#700000
0"
08
0`
0a
0c
0f
0w
#710000
1"
18
1`
1a
1c
1f
1w
#720000
0"
08
0`
0a
0c
0f
0w
#730000
1"
18
1`
1a
1c
1f
1w
#740000
0"
08
0`
0a
0c
0f
0w
#750000
1"
18
1`
1a
1c
1f
1w
#760000
0"
08
0`
0a
0c
0f
0w
#770000
1"
18
1`
1a
1c
1f
1w
#780000
0"
08
0`
0a
0c
0f
0w
#790000
1"
18
1`
1a
1c
1f
1w
#800000
0"
08
0`
0a
0c
0f
0w
#810000
1"
18
1`
1a
1c
1f
1w
#820000
0"
08
0`
0a
0c
0f
0w
#830000
1"
18
1`
1a
1c
1f
1w
#840000
0"
08
0`
0a
0c
0f
0w
#850000
1"
18
1`
1a
1c
1f
1w
#860000
0"
08
0`
0a
0c
0f
0w
#870000
1"
18
1`
1a
1c
1f
1w
#880000
0"
08
0`
0a
0c
0f
0w
#890000
1"
18
1`
1a
1c
1f
1w
#900000
0"
08
0`
0a
0c
0f
0w
#910000
1"
18
1`
1a
1c
1f
1w
#920000
0"
08
0`
0a
0c
0f
0w
#930000
1"
18
1`
1a
1c
1f
1w
#940000
0"
08
0`
0a
0c
0f
0w
#950000
1"
18
1`
1a
1c
1f
1w
#960000
0"
08
0`
0a
0c
0f
0w
#970000
1"
18
1`
1a
1c
1f
1w
#980000
0"
08
0`
0a
0c
0f
0w
#990000
1"
18
1`
1a
1c
1f
1w
