lab_05/simulation/qsim/lab_05.msim.vcd
$comment
	File created using the following command:
		vcd file lab_05.msim.vcd -direction
$end
$date
	Thu Oct 26 14:42:16 2023
$end
$version
	ModelSim Version 10.5b
$end
$timescale
	1ps
$end

$scope module async_9_count_vhd_vec_tst $end
$var wire 1 ! bool_test $end
$var wire 1 " clk $end
$var wire 1 # clk_a $end
$var wire 1 $ cmp_in [3] $end
$var wire 1 % cmp_in [2] $end
$var wire 1 & cmp_in [1] $end
$var wire 1 ' cmp_in [0] $end
$var wire 1 ( cmp_oo $end
$var wire 1 ) Co $end
$var wire 1 * outp [3] $end
$var wire 1 + outp [2] $end
$var wire 1 , outp [1] $end
$var wire 1 - outp [0] $end
$var wire 1 . pause_ant $end
$var wire 1 / pb_pause $end
$var wire 1 0 pb_rst $end
$var wire 1 1 psed_o $end

$scope module i1 $end
$var wire 1 2 gnd $end
$var wire 1 3 vcc $end
$var wire 1 4 unknown $end
$var wire 1 5 devoe $end
$var wire 1 6 devclrn $end
$var wire 1 7 devpor $end
$var wire 1 8 ww_devoe $end
$var wire 1 9 ww_devclrn $end
$var wire 1 : ww_devpor $end
$var wire 1 ; ww_clk $end
$var wire 1 < ww_clk_a $end
$var wire 1 = ww_pb_rst $end
$var wire 1 > ww_pause_ant $end
$var wire 1 ? ww_pb_pause $end
$var wire 1 @ ww_cmp_in [3] $end
$var wire 1 A ww_cmp_in [2] $end
$var wire 1 B ww_cmp_in [1] $end
$var wire 1 C ww_cmp_in [0] $end
$var wire 1 D ww_Co $end
$var wire 1 E ww_psed_o $end
$var wire 1 F ww_cmp_oo $end
$var wire 1 G ww_bool_test $end
$var wire 1 H ww_outp [3] $end
$var wire 1 I ww_outp [2] $end
$var wire 1 J ww_outp [1] $end
$var wire 1 K ww_outp [0] $end
$var wire 1 L \~QUARTUS_CREATED_ADC1~_CHSEL_bus\ [4] $end
$var wire 1 M \~QUARTUS_CREATED_ADC1~_CHSEL_bus\ [3] $end
$var wire 1 N \~QUARTUS_CREATED_ADC1~_CHSEL_bus\ [2] $end
$var wire 1 O \~QUARTUS_CREATED_ADC1~_CHSEL_bus\ [1] $end
$var wire 1 P \~QUARTUS_CREATED_ADC1~_CHSEL_bus\ [0] $end
$var wire 1 Q \~QUARTUS_CREATED_ADC2~_CHSEL_bus\ [4] $end
$var wire 1 R \~QUARTUS_CREATED_ADC2~_CHSEL_bus\ [3] $end
$var wire 1 S \~QUARTUS_CREATED_ADC2~_CHSEL_bus\ [2] $end
$var wire 1 T \~QUARTUS_CREATED_ADC2~_CHSEL_bus\ [1] $end
$var wire 1 U \~QUARTUS_CREATED_ADC2~_CHSEL_bus\ [0] $end
$var wire 1 V \clk_a~input_o\ $end
$var wire 1 W \~QUARTUS_CREATED_GND~I_combout\ $end
$var wire 1 X \~QUARTUS_CREATED_UNVM~~busy\ $end
$var wire 1 Y \~QUARTUS_CREATED_ADC1~~eoc\ $end
$var wire 1 Z \~QUARTUS_CREATED_ADC2~~eoc\ $end
$var wire 1 [ \Co~output_o\ $end
$var wire 1 \ \psed_o~output_o\ $end
$var wire 1 ] \cmp_oo~output_o\ $end
$var wire 1 ^ \bool_test~output_o\ $end
$var wire 1 _ \outp[0]~output_o\ $end
$var wire 1 ` \outp[1]~output_o\ $end
$var wire 1 a \outp[2]~output_o\ $end
$var wire 1 b \outp[3]~output_o\ $end
$var wire 1 c \pb_pause~input_o\ $end
$var wire 1 d \cmp_in[3]~input_o\ $end
$var wire 1 e \cmp_in[2]~input_o\ $end
$var wire 1 f \gen00:3:ff0i~0_combout\ $end
$var wire 1 g \clk~input_o\ $end
$var wire 1 h \pb_rst~input_o\ $end
$var wire 1 i \ff10~0_combout\ $end
$var wire 1 j \ff10~feeder_combout\ $end
$var wire 1 k \ff10~q\ $end
$var wire 1 l \gen00:3:ff0i~q\ $end
$var wire 1 m \pse_cmp|outp~1_combout\ $end
$var wire 1 n \cmp_in[0]~input_o\ $end
$var wire 1 o \cmp_in[1]~input_o\ $end
$var wire 1 p \pse_cmp|outp~0_combout\ $end
$var wire 1 q \comb~0_combout\ $end
$var wire 1 r \clk_ps~0_combout\ $end
$var wire 1 s \clk_ps~q\ $end
$var wire 1 t \comb~1_combout\ $end
$var wire 1 u \ff00~0_combout\ $end
$var wire 1 v \ff00~q\ $end
$var wire 1 w \gen00:1:ff0i~0_combout\ $end
$var wire 1 x \gen00:1:ff0i~feeder_combout\ $end
$var wire 1 y \gen00:1:ff0i~q\ $end
$var wire 1 z \gen00:2:ff0i~0_combout\ $end
$var wire 1 { \gen00:2:ff0i~feeder_combout\ $end
$var wire 1 | \gen00:2:ff0i~q\ $end
$var wire 1 } \rst_cmp|outp~0_combout\ $end
$var wire 1 ~ \pse_cmp|outp~combout\ $end
$var wire 1 !! \pause_ant~input_o\ $end
$var wire 1 "! \bool_test~0_combout\ $end
$var wire 1 #! \pse_cmp|ALT_INV_outp~combout\ $end
$var wire 1 $! \ALT_INV_gen00:1:ff0i~q\ $end
$var wire 1 %! \ALT_INV_gen00:2:ff0i~q\ $end
$var wire 1 &! \ALT_INV_ff00~q\ $end
$upscope $end
$upscope $end
$enddefinitions $end
#0
$dumpvars
1!
0"
0#
0(
0)
1.
1/
10
01
02
13
x4
15
16
17
18
19
1:
0;
0<
1=
1>
1?
0D
0E
0F
1G
0V
0W
zX
zY
zZ
0[
0\
0]
1^
0_
0`
0a
0b
1c
0d
1e
1f
0g
1h
1i
1j
0k
0l
1m
0n
1o
1p
1q
1r
0s
0t
1u
0v
1w
1x
0y
1z
1{
0|
0}
1~
1!!
1"!
0#!
1$!
1%!
1&!
0$
1%
1&
0'
0@
1A
1B
0C
0H
0I
0J
0K
0L
0M
0N
0O
0P
0Q
0R
0S
0T
0U
0*
0+
0,
0-
$end
#5000
1#
1<
1V
#10000
0#
1"
0<
1;
1g
0V
1k
1t
1v
0&!
1_
0u
1K
1-
#15000
1#
1<
1V
#20000
0#
0"
0<
0;
0g
0V
0t
#25000
1#
1<
1V
#30000
0#
1"
0<
1;
1g
0V
1t
0v
1&!
0_
1u
1y
0K
0$!
0-
1`
0p
0w
1J
0x
1,
#35000
1#
1<
1V
#40000
0#
0"
0<
0;
0g
0V
0t
#45000
1#
1<
1V
#50000
0#
1"
0<
1;
1g
0V
1t
1v
0&!
1_
1p
0u
1K
1-
#55000
1#
1<
1V
#60000
0#
0"
0/
0<
0;
0?
0c
0g
0V
0t
0q
0"!
0^
0G
0!
#65000
1#
1<
1V
#70000
0#
1"
1/
0<
1;
1?
1c
1g
0V
1t
1q
1"!
1^
1s
0v
1&!
1G
0_
1\
0p
1u
0r
0t
1!
0y
0K
1E
1$!
0-
11
0`
1p
1w
1|
0J
1x
0%!
0,
1a
0m
0z
1I
0{
1+
#75000
1#
1<
1V
#80000
0#
0"
0<
0;
0g
0V
#85000
1#
1<
1V
#90000
0#
1"
0<
1;
1g
0V
#95000
1#
1<
1V
#100000
0#
0"
0<
0;
0g
0V
#105000
1#
1<
1V
#110000
0#
1"
0<
1;
1g
0V
#115000
1#
1<
1V
#120000
0#
0"
0<
0;
0g
0V
#125000
1#
1<
1V
#130000
0#
1"
0<
1;
1g
0V
#135000
1#
1<
1V
#140000
0#
0"
0<
0;
0g
0V
#145000
1#
1<
1V
#150000
0#
1"
0<
1;
1g
0V
#155000
1#
1<
1V
#160000
0#
0"
0/
0<
0;
0?
0c
0g
0V
0q
0"!
0^
0G
0!
#165000
1#
1<
1V
#170000
0#
1"
0<
1;
1g
0V
#175000
1#
1<
1V
#180000
0#
0"
1/
0<
0;
1?
1c
0g
0V
1q
1"!
1^
0s
1G
0\
1r
1!
0E
01
#185000
1#
1<
1V
#190000
0#
1"
0<
1;
1g
0V
1t
1v
0&!
1_
0u
1K
1-
#195000
1#
1<
1V
#200000
0#
0"
0<
0;
0g
0V
0t
#205000
1#
1<
1V
#210000
0#
1"
0<
1;
1g
0V
1t
0v
1&!
0_
1u
1y
0K
0$!
0-
1`
0p
0w
1J
0x
0q
0~
0"!
1,
1#!
0^
1]
0G
1F
0!
1(
#215000
1#
1<
1V
#220000
0#
0"
0<
0;
0g
0V
0t
#225000
1#
1<
1V
#230000
0#
1"
0<
1;
1g
0V
1t
1v
0&!
1_
1p
0u
1K
1q
1~
1"!
1-
0#!
1^
1s
0]
1G
1\
0r
0t
0F
1!
1E
0(
11
#235000
1#
1<
1V
#240000
0#
0"
0<
0;
0g
0V
#245000
1#
1<
1V
#250000
0#
1"
0<
1;
1g
0V
#255000
1#
1<
1V
#260000
0#
0"
0<
0;
0g
0V
#265000
1#
1<
1V
#270000
0#
1"
0<
1;
1g
0V
#275000
1#
1<
1V
#280000
0#
0"
0/
0<
0;
0?
0c
0g
0V
0q
0"!
0^
0G
0!
#285000
1#
1<
1V
#290000
0#
1"
0<
1;
1g
0V
#295000
1#
1<
1V
#300000
0#
0"
0<
0;
0g
0V
#305000
1#
1<
1V
#310000
0#
1"
0<
1;
1g
0V
#315000
1#
1<
1V
#320000
0#
0"
1/
0<
0;
1?
1c
0g
0V
1q
1"!
1^
0s
1G
0\
1r
1!
0E
01
#325000
1#
1<
1V
#330000
0#
1"
0<
1;
1g
0V
1t
0v
1&!
0_
0p
1u
0y
0K
0q
0~
0"!
1$!
0-
0`
1p
1w
1#!
0^
0|
0J
1]
1x
1q
1~
1"!
1%!
0G
0,
0a
1m
1z
0#!
1F
0!
1^
1l
1s
0I
1(
0]
1{
1G
0+
1\
1b
0r
0t
0f
0F
1!
1E
1H
0(
11
1*
#335000
1#
1<
1V
#340000
0#
0"
0<
0;
0g
0V
#345000
1#
1<
1V
#350000
0#
1"
0<
1;
1g
0V
#355000
1#
1<
1V
#360000
0#
0"
0<
0;
0g
0V
#365000
1#
1<
1V
#370000
0#
1"
0<
1;
1g
0V
#375000
1#
1<
1V
#380000
0#
0"
0<
0;
0g
0V
#385000
1#
1<
1V
#390000
0#
1"
0<
1;
1g
0V
#395000
1#
1<
1V
#400000
0#
0"
0<
0;
0g
0V
#405000
1#
1<
1V
#410000
0#
1"
0<
1;
1g
0V
#415000
1#
1<
1V
#420000
0#
0"
0<
0;
0g
0V
#425000
1#
1<
1V
#430000
0#
1"
0<
1;
1g
0V
#435000
1#
1<
1V
#440000
0#
0"
0<
0;
0g
0V
#445000
1#
1<
1V
#450000
0#
1"
0<
1;
1g
0V
#455000
1#
1<
1V
#460000
0#
0"
0<
0;
0g
0V
#465000
1#
1<
1V
#470000
0#
1"
0<
1;
1g
0V
#475000
1#
1<
1V
#480000
0#
0"
0<
0;
0g
0V
#485000
1#
1<
1V
#490000
0#
1"
0<
1;
1g
0V
#495000
1#
1<
1V
#500000
0#
0"
0<
0;
0g
0V
#505000
1#
1<
1V
#510000
0#
1"
0<
1;
1g
0V
#515000
1#
1<
1V
#520000
0#
0"
0<
0;
0g
0V
#525000
1#
1<
1V
#530000
0#
1"
0<
1;
1g
0V
#535000
1#
1<
1V
#540000
0#
0"
0<
0;
0g
0V
#545000
1#
1<
1V
#550000
0#
1"
0<
1;
1g
0V
#555000
1#
1<
1V
#560000
0#
0"
0<
0;
0g
0V
#565000
1#
1<
1V
#570000
0#
1"
0<
1;
1g
0V
#575000
1#
1<
1V
#580000
0#
0"
0<
0;
0g
0V
#585000
1#
1<
1V
#590000
0#
1"
0<
1;
1g
0V
#595000
1#
1<
1V
#600000
0#
0"
0/
0<
0;
0?
0c
0g
0V
0q
0"!
0^
0G
0!
#605000
1#
1<
1V
#610000
0#
1"
0<
1;
1g
0V
#615000
1#
1<
1V
#620000
0#
0"
1/
0<
0;
1?
1c
0g
0V
1q
1"!
1^
0s
1G
0\
1r
1!
0E
01
#625000
1#
1<
1V
#630000
0#
1"
0<
1;
1g
0V
1t
1v
0&!
1_
0u
1}
1K
1[
0i
1-
1D
0j
1)
#635000
1#
1<
1V
#640000
0#
0"
0<
0;
0g
0V
0t
#645000
1#
1<
1V
#650000
0#
1"
0<
1;
1g
0V
0k
1t
0l
0v
1&!
0_
0b
1u
1f
0}
0K
0H
0[
1i
0-
0*
0D
1j
0)
#655000
1#
1<
1V
#660000
0#
0"
0<
0;
0g
0V
0t
#665000
1#
1<
1V
#670000
0#
1"
0<
1;
1g
0V
1k
1t
1v
0&!
1_
0u
1K
1-
#675000
1#
1<
1V
#680000
0#
0"
0<
0;
0g
0V
0t
#685000
1#
1<
1V
#690000
0#
1"
0<
1;
1g
0V
1t
0v
1&!
0_
1u
1y
0K
0$!
0-
1`
0p
0w
1J
0x
1,
#695000
1#
1<
1V
#700000
0#
0"
0<
0;
0g
0V
0t
#705000
1#
1<
1V
#710000
0#
1"
0<
1;
1g
0V
1t
1v
0&!
1_
1p
0u
1K
1-
#715000
1#
1<
1V
#720000
0#
0"
0<
0;
0g
0V
0t
#725000
1#
1<
1V
#730000
0#
1"
0<
1;
1g
0V
1t
0v
1&!
0_
0p
1u
0y
0K
1$!
0-
0`
1p
1w
1|
0J
1x
0%!
0,
1a
0m
0z
1I
0{
1+
#735000
1#
1<
1V
#740000
0#
0"
0<
0;
0g
0V
0t
#745000
1#
1<
1V
#750000
0#
1"
0<
1;
1g
0V
1t
1v
0&!
1_
0u
1K
1-
#755000
1#
1<
1V
#760000
0#
0"
0<
0;
0g
0V
0t
#765000
1#
1<
1V
#770000
0#
1"
0<
1;
1g
0V
1t
0v
1&!
0_
1u
1y
0K
0$!
0-
1`
0p
0w
1J
0x
0q
0~
0"!
1,
1#!
0^
1]
0G
1F
0!
1(
#775000
1#
1<
1V
#780000
0#
0"
0<
0;
0g
0V
0t
#785000
1#
1<
1V
#790000
0#
1"
0<
1;
1g
0V
1t
1v
0&!
1_
1p
0u
1K
1q
1~
1"!
1-
0#!
1^
1s
0]
1G
1\
0r
0t
0F
1!
1E
0(
11
#795000
1#
1<
1V
#800000
0#
0"
0<
0;
0g
0V
#805000
1#
1<
1V
#810000
0#
1"
0<
1;
1g
0V
#815000
1#
1<
1V
#820000
0#
0"
0<
0;
0g
0V
#825000
1#
1<
1V
#830000
0#
1"
0<
1;
1g
0V
#835000
1#
1<
1V
#840000
0#
0"
0<
0;
0g
0V
#845000
1#
1<
1V
#850000
0#
1"
0<
1;
1g
0V
#855000
1#
1<
1V
#860000
0#
0"
0<
0;
0g
0V
#865000
1#
1<
1V
#870000
0#
1"
0<
1;
1g
0V
#875000
1#
1<
1V
#880000
0#
0"
0<
0;
0g
0V
#885000
1#
1<
1V
#890000
0#
1"
0<
1;
1g
0V
#895000
1#
1<
1V
#900000
0#
0"
0<
0;
0g
0V
#905000
1#
1<
1V
#910000
0#
1"
0<
1;
1g
0V
#915000
1#
1<
1V
#920000
0#
0"
0<
0;
0g
0V
#925000
1#
1<
1V
#930000
0#
1"
0<
1;
1g
0V
#935000
1#
1<
1V
#940000
0#
0"
0<
0;
0g
0V
#945000
1#
1<
1V
#950000
0#
1"
0<
1;
1g
0V
#955000
1#
1<
1V
#960000
0#
0"
0<
0;
0g
0V
#965000
1#
1<
1V
#970000
0#
1"
0<
1;
1g
0V
#975000
1#
1<
1V
#980000
0#
0"
0<
0;
0g
0V
#985000
1#
1<
1V
#990000
0#
1"
0<
1;
1g
0V
#995000
1#
1<
1V
